,agent_id,step,position_x,position_y,velocity_x,velocity_y,resultant_x,resultant_y,time_relaxation_x,time_relaxation_y,agent_repulsion_x,agent_repulsion_y,border_repulsion_x,border_repulsion_y,resultant_mag,velocity_mag,agent_repulsion_mag,time_relaxation_mag,border_repulsion_mag
0,0,0,3.0,3.0,0.0,0.0,2.68,0.0,2.68,0.0,0,0,0,0,2.68,0.0,0.0,2.68,0.0
1,0,1,3.000268,3.0,0.0268,0.0,2.6264000000000003,0.0,2.6264000000000003,0.0,0,0,0,0,2.6264000000000003,0.0268,0.0,2.6264000000000003,0.0
2,0,2,3.00079864,3.0,0.053064,0.0,2.573872,0.0,2.573872,0.0,0,0,0,0,2.573872,0.053064,0.0,2.573872,0.0
3,0,3,3.0015866672000002,3.0,0.07880272,0.0,2.52239456,0.0,2.52239456,0.0,0,0,0,0,2.52239456,0.07880272,0.0,2.52239456,0.0
4,0,4,3.0026269338560003,3.0,0.10402666560000001,0.0,2.4719466688000002,0.0,2.4719466688000002,0.0,0,0,0,0,2.4719466688000002,0.10402666560000001,0.0,2.4719466688000002,0.0
5,0,5,3.0039143951788803,3.0,0.12874613228800003,0.0,2.4225077354240003,0.0,2.4225077354240003,0.0,0,0,0,0,2.4225077354240003,0.12874613228800003,0.0,2.4225077354240003,0.0
6,0,6,3.0054441072753026,3.0,0.15297120964224004,0.0,2.37405758071552,0.0,2.37405758071552,0.0,0,0,0,0,2.37405758071552,0.15297120964224004,0.0,2.37405758071552,0.0
7,0,7,3.0072112251297964,3.0,0.17671178544939525,0.0,2.32657642910121,0.0,2.32657642910121,0.0,0,0,0,0,2.32657642910121,0.17671178544939525,0.0,2.32657642910121,0.0
8,0,8,3.0092110006272006,3.0,0.19997754974040735,0.0,2.2800449005191856,0.0,2.2800449005191856,0.0,0,0,0,0,2.2800449005191856,0.19997754974040735,0.0,2.2800449005191856,0.0
9,0,9,3.0114387806146565,3.0,0.2227779987455992,0.0,2.234444002508802,0.0,2.234444002508802,0.0,0,0,0,0,2.234444002508802,0.2227779987455992,0.0,2.234444002508802,0.0
10,0,10,3.0138900050023634,3.0,0.2451224387706872,0.0,2.189755122458626,0.0,2.189755122458626,0.0,0,0,0,0,2.189755122458626,0.2451224387706872,0.0,2.189755122458626,0.0
11,0,11,3.016560204902316,3.0,0.2670199899952735,0.0,2.1459600200094533,0.0,2.1459600200094533,0.0,0,0,0,0,2.1459600200094533,0.2670199899952735,0.0,2.1459600200094533,0.0
12,0,12,3.0194450008042697,3.0,0.288479590195368,0.0,2.103040819609264,0.0,2.103040819609264,0.0,0,0,0,0,2.103040819609264,0.288479590195368,0.0,2.103040819609264,0.0
13,0,13,3.0225401007881842,3.0,0.30950999839146065,0.0,2.060980003217079,0.0,2.060980003217079,0.0,0,0,0,0,2.060980003217079,0.30950999839146065,0.0,2.060980003217079,0.0
14,0,14,3.0258412987724204,3.0,0.3301197984236314,0.0,2.019760403152737,0.0,2.019760403152737,0.0,0,0,0,0,2.019760403152737,0.3301197984236314,0.0,2.019760403152737,0.0
15,0,15,3.029344472796972,3.0,0.3503174024551588,0.0,1.9793651950896827,0.0,1.9793651950896827,0.0,0,0,0,0,1.9793651950896827,0.3503174024551588,0.0,1.9793651950896827,0.0
16,0,16,3.0330455833410324,3.0,0.37011105440605563,0.0,1.939777891187889,0.0,1.939777891187889,0.0,0,0,0,0,1.939777891187889,0.37011105440605563,0.0,1.939777891187889,0.0
17,0,17,3.036940671674212,3.0,0.3895088333179345,0.0,1.9009823333641311,0.0,1.9009823333641311,0.0,0,0,0,0,1.9009823333641311,0.3895088333179345,0.0,1.9009823333641311,0.0
18,0,18,3.0410258582407277,3.0,0.40851865665157583,0.0,1.8629626866968485,0.0,1.8629626866968485,0.0,0,0,0,0,1.8629626866968485,0.40851865665157583,0.0,1.8629626866968485,0.0
19,0,19,3.045297341075913,3.0,0.42714828351854434,0.0,1.8257034329629116,0.0,1.8257034329629116,0.0,0,0,0,0,1.8257034329629116,0.42714828351854434,0.0,1.8257034329629116,0.0
20,0,20,3.0497513942543946,3.0,0.44540531784817344,0.0,1.7891893643036534,0.0,1.7891893643036534,0.0,0,0,0,0,1.7891893643036534,0.44540531784817344,0.0,1.7891893643036534,0.0
21,0,21,3.0543843663693067,3.0,0.46329721149120995,0.0,1.7534055770175803,0.0,1.7534055770175803,0.0,0,0,0,0,1.7534055770175803,0.46329721149120995,0.0,1.7534055770175803,0.0
22,0,22,3.0591926790419204,3.0,0.48083126726138575,0.0,1.7183374654772288,0.0,1.7183374654772288,0.0,0,0,0,0,1.7183374654772288,0.48083126726138575,0.0,1.7183374654772288,0.0
23,0,23,3.064172825461082,3.0,0.498014641916158,0.0,1.6839707161676842,0.0,1.6839707161676842,0.0,0,0,0,0,1.6839707161676842,0.498014641916158,0.0,1.6839707161676842,0.0
24,0,24,3.06932136895186,3.0,0.5148543490778349,0.0,1.6502913018443304,0.0,1.6502913018443304,0.0,0,0,0,0,1.6502913018443304,0.5148543490778349,0.0,1.6502913018443304,0.0
25,0,25,3.074634941572823,3.0,0.5313572620962782,0.0,1.6172854758074438,0.0,1.6172854758074438,0.0,0,0,0,0,1.6172854758074438,0.5313572620962782,0.0,1.6172854758074438,0.0
26,0,26,3.0801102427413665,3.0,0.5475301168543526,0.0,1.584939766291295,0.0,1.584939766291295,0.0,0,0,0,0,1.584939766291295,0.5475301168543526,0.0,1.584939766291295,0.0
27,0,27,3.0857440378865393,3.0,0.5633795145172655,0.0,1.553240970965469,0.0,1.553240970965469,0.0,0,0,0,0,1.553240970965469,0.5633795145172655,0.0,1.553240970965469,0.0
28,0,28,3.0915331571288083,3.0,0.5789119242269202,0.0,1.5221761515461598,0.0,1.5221761515461598,0.0,0,0,0,0,1.5221761515461598,0.5789119242269202,0.0,1.5221761515461598,0.0
29,0,29,3.097474493986232,3.0,0.5941336857423818,0.0,1.4917326285152366,0.0,1.4917326285152366,0.0,0,0,0,0,1.4917326285152366,0.5941336857423818,0.0,1.4917326285152366,0.0
30,0,30,3.1035650041065073,3.0,0.6090510120275342,0.0,1.4618979759449318,0.0,1.4618979759449318,0.0,0,0,0,0,1.4618979759449318,0.6090510120275342,0.0,1.4618979759449318,0.0
31,0,31,3.109801704024377,3.0,0.6236699917869836,0.0,1.432660016426033,0.0,1.432660016426033,0.0,0,0,0,0,1.432660016426033,0.6236699917869836,0.0,1.432660016426033,0.0
32,0,32,3.1161816699438893,3.0,0.6379965919512439,0.0,1.4040068160975123,0.0,1.4040068160975123,0.0,0,0,0,0,1.4040068160975123,0.6379965919512439,0.0,1.4040068160975123,0.0
33,0,33,3.1227020365450113,3.0,0.6520366601122191,0.0,1.375926679775562,0.0,1.375926679775562,0.0,0,0,0,0,1.375926679775562,0.6520366601122191,0.0,1.375926679775562,0.0
34,0,34,3.129359995814111,3.0,0.6657959269099747,0.0,1.3484081461800508,0.0,1.3484081461800508,0.0,0,0,0,0,1.3484081461800508,0.6657959269099747,0.0,1.3484081461800508,0.0
35,0,35,3.136152795897829,3.0,0.6792800083717752,0.0,1.3214399832564498,0.0,1.3214399832564498,0.0,0,0,0,0,1.3214399832564498,0.6792800083717752,0.0,1.3214399832564498,0.0
36,0,36,3.1430777399798724,3.0,0.6924944082043396,0.0,1.295011183591321,0.0,1.295011183591321,0.0,0,0,0,0,1.295011183591321,0.6924944082043396,0.0,1.295011183591321,0.0
37,0,37,3.150132185180275,3.0,0.7054445200402528,0.0,1.2691109599194945,0.0,1.2691109599194945,0.0,0,0,0,0,1.2691109599194945,0.7054445200402528,0.0,1.2691109599194945,0.0
38,0,38,3.157313541476669,3.0,0.7181356296394478,0.0,1.2437287407211046,0.0,1.2437287407211046,0.0,0,0,0,0,1.2437287407211046,0.7181356296394478,0.0,1.2437287407211046,0.0
39,0,39,3.164619270647136,3.0,0.7305729170466588,0.0,1.2188541659066825,0.0,1.2188541659066825,0.0,0,0,0,0,1.2188541659066825,0.7305729170466588,0.0,1.2188541659066825,0.0
40,0,40,3.172046885234193,3.0,0.7427614587057256,0.0,1.194477082588549,0.0,1.194477082588549,0.0,0,0,0,0,1.194477082588549,0.7427614587057256,0.0,1.194477082588549,0.0
41,0,41,3.179593947529509,3.0,0.7547062295316112,0.0,1.1705875409367779,0.0,1.1705875409367779,0.0,0,0,0,0,1.1705875409367779,0.7547062295316112,0.0,1.1705875409367779,0.0
42,0,42,3.187258068578919,3.0,0.7664121049409789,0.0,1.1471757901180424,0.0,1.1471757901180424,0.0,0,0,0,0,1.1471757901180424,0.7664121049409789,0.0,1.1471757901180424,0.0
43,0,43,3.1950369072073403,3.0,0.7778838628421593,0.0,1.1242322743156816,0.0,1.1242322743156816,0.0,0,0,0,0,1.1242322743156816,0.7778838628421593,0.0,1.1242322743156816,0.0
44,0,44,3.2029281690631937,3.0,0.7891261855853161,0.0,1.101747628829368,0.0,1.101747628829368,0.0,0,0,0,0,1.101747628829368,0.7891261855853161,0.0,1.101747628829368,0.0
45,0,45,3.2109296056819296,3.0,0.8001436618736097,0.0,1.0797126762527807,0.0,1.0797126762527807,0.0,0,0,0,0,1.0797126762527807,0.8001436618736097,0.0,1.0797126762527807,0.0
46,0,46,3.219039013568291,3.0,0.8109407886361375,0.0,1.0581184227277252,0.0,1.0581184227277252,0.0,0,0,0,0,1.0581184227277252,0.8109407886361375,0.0,1.0581184227277252,0.0
47,0,47,3.227254233296925,3.0,0.8215219728634148,0.0,1.0369560542731706,0.0,1.0369560542731706,0.0,0,0,0,0,1.0369560542731706,0.8215219728634148,0.0,1.0369560542731706,0.0
48,0,48,3.2355731486309867,3.0,0.8318915334061465,0.0,1.0162169331877071,0.0,1.0162169331877071,0.0,0,0,0,0,1.0162169331877071,0.8318915334061465,0.0,1.0162169331877071,0.0
49,0,49,3.243993685658367,3.0,0.8420537027380236,0.0,0.995892594523953,0.0,0.995892594523953,0.0,0,0,0,0,0.995892594523953,0.8420537027380236,0.0,0.995892594523953,0.0
50,0,50,3.2525138119452,3.0,0.8520126286832631,0.0,0.975974742633474,0.0,0.975974742633474,0.0,0,0,0,0,0.975974742633474,0.8520126286832631,0.0,0.975974742633474,0.0
51,0,51,3.261131535706296,3.0,0.8617723761095979,0.0,0.9564552477808044,0.0,0.9564552477808044,0.0,0,0,0,0,0.9564552477808044,0.8617723761095979,0.0,0.9564552477808044,0.0
52,0,52,3.26984490499217,3.0,0.871336928587406,0.0,0.9373261428251882,0.0,0.9373261428251882,0.0,0,0,0,0,0.9373261428251882,0.871336928587406,0.0,0.9373261428251882,0.0
53,0,53,3.278652006892327,3.0,0.8807101900156579,0.0,0.9185796199686844,0.0,0.9185796199686844,0.0,0,0,0,0,0.9185796199686844,0.8807101900156579,0.0,0.9185796199686844,0.0
54,0,54,3.2875509667544804,3.0,0.8898959862153447,0.0,0.9002080275693107,0.0,0.9002080275693107,0.0,0,0,0,0,0.9002080275693107,0.8898959862153447,0.0,0.9002080275693107,0.0
55,0,55,3.2965399474193906,3.0,0.8988980664910379,0.0,0.8822038670179244,0.0,0.8822038670179244,0.0,0,0,0,0,0.8822038670179244,0.8988980664910379,0.0,0.8822038670179244,0.0
56,0,56,3.305617148471003,3.0,0.9077201051612172,0.0,0.8645597896775659,0.0,0.8645597896775659,0.0,0,0,0,0,0.8645597896775659,0.9077201051612172,0.0,0.8645597896775659,0.0
57,0,57,3.3147808055015826,3.0,0.9163657030579928,0.0,0.8472685938840145,0.0,0.8472685938840145,0.0,0,0,0,0,0.8472685938840145,0.9163657030579928,0.0,0.8472685938840145,0.0
58,0,58,3.324029189391551,3.0,0.9248383889968329,0.0,0.8303232220063343,0.0,0.8303232220063343,0.0,0,0,0,0,0.8303232220063343,0.9248383889968329,0.0,0.8303232220063343,0.0
59,0,59,3.33336060560372,3.0,0.9331416212168963,0.0,0.8137167575662076,0.0,0.8137167575662076,0.0,0,0,0,0,0.8137167575662076,0.9331416212168963,0.0,0.8137167575662076,0.0
60,0,60,3.3427733934916457,3.0,0.9412787887925583,0.0,0.7974424224148835,0.0,0.7974424224148835,0.0,0,0,0,0,0.7974424224148835,0.9412787887925583,0.0,0.7974424224148835,0.0
61,0,61,3.3522659256218126,3.0,0.9492532130167072,0.0,0.7814935739665858,0.0,0.7814935739665858,0.0,0,0,0,0,0.7814935739665858,0.9492532130167072,0.0,0.7814935739665858,0.0
62,0,62,3.3618366071093764,3.0,0.957068148756373,0.0,0.7658637024872541,0.0,0.7658637024872541,0.0,0,0,0,0,0.7658637024872541,0.957068148756373,0.0,0.7658637024872541,0.0
63,0,63,3.371483874967189,3.0,0.9647267857812456,0.0,0.750546428437509,0.0,0.750546428437509,0.0,0,0,0,0,0.750546428437509,0.9647267857812456,0.0,0.750546428437509,0.0
64,0,64,3.3812061974678453,3.0,0.9722322500656206,0.0,0.7355354998687589,0.0,0.7355354998687589,0.0,0,0,0,0,0.7355354998687589,0.9722322500656206,0.0,0.7355354998687589,0.0
65,0,65,3.3910020735184885,3.0,0.9795876050643082,0.0,0.7208247898713838,0.0,0.7208247898713838,0.0,0,0,0,0,0.7208247898713838,0.9795876050643082,0.0,0.7208247898713838,0.0
66,0,66,3.4008700320481187,3.0,0.9867958529630221,0.0,0.706408294073956,0.0,0.706408294073956,0.0,0,0,0,0,0.706408294073956,0.9867958529630221,0.0,0.706408294073956,0.0
67,0,67,3.410808631407156,3.0,0.9938599359037616,0.0,0.6922801281924769,0.0,0.6922801281924769,0.0,0,0,0,0,0.6922801281924769,0.9938599359037616,0.0,0.6922801281924769,0.0
68,0,68,3.420816458779013,3.0,1.0007827371856863,0.0,0.6784345256286275,0.0,0.6784345256286275,0.0,0,0,0,0,0.6784345256286275,1.0007827371856863,0.0,0.6784345256286275,0.0
69,0,69,3.4308921296034325,3.0,1.0075670824419727,0.0,0.6648658351160548,0.0,0.6648658351160548,0.0,0,0,0,0,0.6648658351160548,1.0075670824419727,0.0,0.6648658351160548,0.0
70,0,70,3.4410342870113637,3.0,1.0142157407931331,0.0,0.6515685184137339,0.0,0.6515685184137339,0.0,0,0,0,0,0.6515685184137339,1.0142157407931331,0.0,0.6515685184137339,0.0
71,0,71,3.4512416012711364,3.0,1.0207314259772704,0.0,0.6385371480454594,0.0,0.6385371480454594,0.0,0,0,0,0,0.6385371480454594,1.0207314259772704,0.0,0.6385371480454594,0.0
72,0,72,3.4615127692457137,3.0,1.027116797457725,0.0,0.62576640508455,0.0,0.62576640508455,0.0,0,0,0,0,0.62576640508455,1.027116797457725,0.0,0.62576640508455,0.0
73,0,73,3.4718465138607995,3.0,1.0333744615085707,0.0,0.6132510769828587,0.0,0.6132510769828587,0.0,0,0,0,0,0.6132510769828587,1.0333744615085707,0.0,0.6132510769828587,0.0
74,0,74,3.4822415835835834,3.0,1.0395069722783994,0.0,0.6009860554432014,0.0,0.6009860554432014,0.0,0,0,0,0,0.6009860554432014,1.0395069722783994,0.0,0.6009860554432014,0.0
75,0,75,3.492696751911912,3.0,1.0455168328328315,0.0,0.5889663343343372,0.0,0.5889663343343372,0.0,0,0,0,0,0.5889663343343372,1.0455168328328315,0.0,0.5889663343343372,0.0
76,0,76,3.5032108168736737,3.0,1.0514064961761749,0.0,0.5771870076476504,0.0,0.5771870076476504,0.0,0,0,0,0,0.5771870076476504,1.0514064961761749,0.0,0.5771870076476504,0.0
77,0,77,3.5137826005362003,3.0,1.0571783662526513,0.0,0.5656432674946976,0.0,0.5656432674946976,0.0,0,0,0,0,0.5656432674946976,1.0571783662526513,0.0,0.5656432674946976,0.0
78,0,78,3.5244109485254764,3.0,1.0628347989275984,0.0,0.5543304021448034,0.0,0.5543304021448034,0.0,0,0,0,0,0.5543304021448034,1.0628347989275984,0.0,0.5543304021448034,0.0
79,0,79,3.535094729554967,3.0,1.0683781029490464,0.0,0.5432437941019073,0.0,0.5432437941019073,0.0,0,0,0,0,0.5432437941019073,1.0683781029490464,0.0,0.5432437941019073,0.0
80,0,80,3.5458328349638677,3.0,1.0738105408900656,0.0,0.532378918219869,0.0,0.532378918219869,0.0,0,0,0,0,0.532378918219869,1.0738105408900656,0.0,0.532378918219869,0.0
81,0,81,3.5566241782645904,3.0,1.0791343300722642,0.0,0.5217313398554717,0.0,0.5217313398554717,0.0,0,0,0,0,0.5217313398554717,1.0791343300722642,0.0,0.5217313398554717,0.0
82,0,82,3.5674676946992987,3.0,1.084351643470819,0.0,0.5112967130583623,0.0,0.5112967130583623,0.0,0,0,0,0,0.5112967130583623,1.084351643470819,0.0,0.5112967130583623,0.0
83,0,83,3.5783623408053127,3.0,1.0894646106014025,0.0,0.5010707787971951,0.0,0.5010707787971951,0.0,0,0,0,0,0.5010707787971951,1.0894646106014025,0.0,0.5010707787971951,0.0
84,0,84,3.5893070939892064,3.0,1.0944753183893745,0.0,0.49104936322125115,0.0,0.49104936322125115,0.0,0,0,0,0,0.49104936322125115,1.0944753183893745,0.0,0.49104936322125115,0.0
85,0,85,3.6003009521094222,3.0,1.099385812021587,0.0,0.4812283759568263,0.0,0.4812283759568263,0.0,0,0,0,0,0.4812283759568263,1.099385812021587,0.0,0.4812283759568263,0.0
86,0,86,3.6113429330672338,3.0,1.1041980957811552,0.0,0.4716038084376897,0.0,0.4716038084376897,0.0,0,0,0,0,0.4716038084376897,1.1041980957811552,0.0,0.4716038084376897,0.0
87,0,87,3.622432074405889,3.0,1.1089141338655322,0.0,0.4621717322689358,0.0,0.4621717322689358,0.0,0,0,0,0,0.4621717322689358,1.1089141338655322,0.0,0.4621717322689358,0.0
88,0,88,3.633567432917771,3.0,1.1135358511882216,0.0,0.4529282976235569,0.0,0.4529282976235569,0.0,0,0,0,0,0.4529282976235569,1.1135358511882216,0.0,0.4529282976235569,0.0
89,0,89,3.6447480842594158,3.0,1.1180651341644572,0.0,0.4438697316710858,0.0,0.4438697316710858,0.0,0,0,0,0,0.4438697316710858,1.1180651341644572,0.0,0.4438697316710858,0.0
90,0,90,3.6559731225742276,3.0,1.122503831481168,0.0,0.43499233703766427,0.0,0.43499233703766427,0.0,0,0,0,0,0.43499233703766427,1.122503831481168,0.0,0.43499233703766427,0.0
91,0,91,3.667241660122743,3.0,1.1268537548515445,0.0,0.4262924902969112,0.0,0.4262924902969112,0.0,0,0,0,0,0.4262924902969112,1.1268537548515445,0.0,0.4262924902969112,0.0
92,0,92,3.678552826920288,3.0,1.1311166797545136,0.0,0.417766640490973,0.0,0.417766640490973,0.0,0,0,0,0,0.417766640490973,1.1311166797545136,0.0,0.417766640490973,0.0
93,0,93,3.6899057703818823,3.0,1.1352943461594234,0.0,0.4094113076811534,0.0,0.4094113076811534,0.0,0,0,0,0,0.4094113076811534,1.1352943461594234,0.0,0.4094113076811534,0.0
94,0,94,3.7012996549742447,3.0,1.1393884592362349,0.0,0.4012230815275304,0.0,0.4012230815275304,0.0,0,0,0,0,0.4012230815275304,1.1393884592362349,0.0,0.4012230815275304,0.0
95,0,95,3.71273366187476,3.0,1.1434006900515101,0.0,0.3931986198969799,0.0,0.3931986198969799,0.0,0,0,0,0,0.3931986198969799,1.1434006900515101,0.0,0.3931986198969799,0.0
96,0,96,3.7242069886372646,3.0,1.1473326762504799,0.0,0.38533464749904045,0.0,0.38533464749904045,0.0,0,0,0,0,0.38533464749904045,1.1473326762504799,0.0,0.38533464749904045,0.0
97,0,97,3.7357188488645194,3.0,1.1511860227254702,0.0,0.37762795454905973,0.0,0.37762795454905973,0.0,0,0,0,0,0.37762795454905973,1.1511860227254702,0.0,0.37762795454905973,0.0
98,0,98,3.747268471887229,3.0,1.1549623022709608,0.0,0.37007539545807866,0.0,0.37007539545807866,0.0,0,0,0,0,0.37007539545807866,1.1549623022709608,0.0,0.37007539545807866,0.0
99,0,99,3.7588551024494845,3.0,1.1586630562255416,0.0,0.36267388754891705,0.0,0.36267388754891705,0.0,0,0,0,0,0.36267388754891705,1.1586630562255416,0.0,0.36267388754891705,0.0
100,0,100,3.770478000400495,3.0,1.1622897951010307,0.0,0.35542040979793876,0.0,0.35542040979793876,0.0,0,0,0,0,0.35542040979793876,1.1622897951010307,0.0,0.35542040979793876,0.0
101,0,101,3.782136440392485,3.0,1.1658439991990102,0.0,0.34831200160197984,0.0,0.34831200160197984,0.0,0,0,0,0,0.34831200160197984,1.1658439991990102,0.0,0.34831200160197984,0.0
102,0,102,3.7938297115846353,3.0,1.1693271192150299,0.0,0.34134576156994045,0.0,0.34134576156994045,0.0,0,0,0,0,0.34134576156994045,1.1693271192150299,0.0,0.34134576156994045,0.0
103,0,103,3.8055571173529428,3.0,1.1727405768307293,0.0,0.33451884633854156,0.0,0.33451884633854156,0.0,0,0,0,0,0.33451884633854156,1.1727405768307293,0.0,0.33451884633854156,0.0
104,0,104,3.817317975005884,3.0,1.1760857652941148,0.0,0.3278284694117706,0.0,0.3278284694117706,0.0,0,0,0,0,0.3278284694117706,1.1760857652941148,0.0,0.3278284694117706,0.0
105,0,105,3.8291116155057665,3.0,1.1793640499882325,0.0,0.3212719000235351,0.0,0.3212719000235351,0.0,0,0,0,0,0.3212719000235351,1.1793640499882325,0.0,0.3212719000235351,0.0
106,0,106,3.840937383195651,3.0,1.1825767689884679,0.0,0.31484646202306443,0.0,0.31484646202306443,0.0,0,0,0,0,0.31484646202306443,1.1825767689884679,0.0,0.31484646202306443,0.0
107,0,107,3.852794635531738,3.0,1.1857252336086985,0.0,0.3085495327826031,0.0,0.3085495327826031,0.0,0,0,0,0,0.3085495327826031,1.1857252336086985,0.0,0.3085495327826031,0.0
108,0,108,3.8646827428211035,3.0,1.1888107289365246,0.0,0.3023785421269509,0.0,0.3023785421269509,0.0,0,0,0,0,0.3023785421269509,1.1888107289365246,0.0,0.3023785421269509,0.0
109,0,109,3.8766010879646813,3.0,1.1918345143577942,0.0,0.29633097128441177,0.0,0.29633097128441177,0.0,0,0,0,0,0.29633097128441177,1.1918345143577942,0.0,0.29633097128441177,0.0
110,0,110,3.8885490662053876,3.0,1.1947978240706383,0.0,0.2904043518587236,0.0,0.2904043518587236,0.0,0,0,0,0,0.2904043518587236,1.1947978240706383,0.0,0.2904043518587236,0.0
111,0,111,3.90052608488128,3.0,1.1977018675892255,0.0,0.2845962648215492,0.0,0.2845962648215492,0.0,0,0,0,0,0.2845962648215492,1.1977018675892255,0.0,0.2845962648215492,0.0
112,0,112,3.9125315631836544,3.0,1.200547830237441,0.0,0.27890433952511806,0.0,0.27890433952511806,0.0,0,0,0,0,0.27890433952511806,1.200547830237441,0.0,0.27890433952511806,0.0
113,0,113,3.9245649319199813,3.0,1.2033368736326921,0.0,0.27332625273461586,0.0,0.27332625273461586,0.0,0,0,0,0,0.27332625273461586,1.2033368736326921,0.0,0.27332625273461586,0.0
114,0,114,3.9366256332815817,3.0,1.2060701361600383,0.0,0.2678597276799235,0.0,0.2678597276799235,0.0,0,0,0,0,0.2678597276799235,1.2060701361600383,0.0,0.2678597276799235,0.0
115,0,115,3.9487131206159503,3.0,1.2087487334368376,0.0,0.2625025331263249,0.0,0.2625025331263249,0.0,0,0,0,0,0.2625025331263249,1.2087487334368376,0.0,0.2625025331263249,0.0
116,0,116,3.9608268582036312,3.0,1.2113737587681008,0.0,0.2572524824637985,0.0,0.2572524824637985,0.0,0,0,0,0,0.2572524824637985,1.2113737587681008,0.0,0.2572524824637985,0.0
117,0,117,3.9729663210395585,3.0,1.2139462835927388,0.0,0.2521074328145225,0.0,0.2521074328145225,0.0,0,0,0,0,0.2521074328145225,1.2139462835927388,0.0,0.2521074328145225,0.0
118,0,118,3.985130994618767,3.0,1.216467357920884,0.0,0.24706528415823215,0.0,0.24706528415823215,0.0,0,0,0,0,0.24706528415823215,1.216467357920884,0.0,0.24706528415823215,0.0
119,0,119,3.997320374726392,3.0,1.2189380107624663,0.0,0.2421239784750675,0.0,0.2421239784750675,0.0,0,0,0,0,0.2421239784750675,1.2189380107624663,0.0,0.2421239784750675,0.0
120,0,120,4.009533967231864,3.0,1.221359250547217,0.0,0.23728149890556605,0.0,0.23728149890556605,0.0,0,0,0,0,0.23728149890556605,1.221359250547217,0.0,0.23728149890556605,0.0
121,0,121,4.021771287887226,3.0,1.2237320655362727,0.0,0.23253586892745481,0.0,0.23253586892745481,0.0,0,0,0,0,0.23253586892745481,1.2237320655362727,0.0,0.23253586892745481,0.0
122,0,122,4.034031862129482,3.0,1.2260574242255473,0.0,0.22788515154890554,0.0,0.22788515154890554,0.0,0,0,0,0,0.22788515154890554,1.2260574242255473,0.0,0.22788515154890554,0.0
123,0,123,4.046315224886892,3.0,1.2283362757410363,0.0,0.22332744851792752,0.0,0.22332744851792752,0.0,0,0,0,0,0.22332744851792752,1.2283362757410363,0.0,0.22332744851792752,0.0
124,0,124,4.058620920389155,3.0,1.2305695502262155,0.0,0.21886089954756915,0.0,0.21886089954756915,0.0,0,0,0,0,0.21886089954756915,1.2305695502262155,0.0,0.21886089954756915,0.0
125,0,125,4.070948501981372,3.0,1.2327581592216912,0.0,0.2144836815566178,0.0,0.2144836815566178,0.0,0,0,0,0,0.2144836815566178,1.2327581592216912,0.0,0.2144836815566178,0.0
126,0,126,4.083297531941744,3.0,1.2349029960372573,0.0,0.2101940079254856,0.0,0.2101940079254856,0.0,0,0,0,0,0.2101940079254856,1.2349029960372573,0.0,0.2101940079254856,0.0
127,0,127,4.095667581302909,3.0,1.237004936116512,0.0,0.205990127766976,0.0,0.205990127766976,0.0,0,0,0,0,0.205990127766976,1.237004936116512,0.0,0.205990127766976,0.0
128,0,128,4.108058229676851,3.0,1.239064837394182,0.0,0.20187032521163628,0.0,0.20187032521163628,0.0,0,0,0,0,0.20187032521163628,1.239064837394182,0.0,0.20187032521163628,0.0
129,0,129,4.120469065083314,3.0,1.2410835406462983,0.0,0.1978329187074035,0.0,0.1978329187074035,0.0,0,0,0,0,0.1978329187074035,1.2410835406462983,0.0,0.1978329187074035,0.0
130,0,130,4.132899683781647,3.0,1.2430618698333724,0.0,0.19387626033325533,0.0,0.19387626033325533,0.0,0,0,0,0,0.19387626033325533,1.2430618698333724,0.0,0.19387626033325533,0.0
131,0,131,4.1453496901060145,3.0,1.245000632436705,0.0,0.18999873512659038,0.0,0.18999873512659038,0.0,0,0,0,0,0.18999873512659038,1.245000632436705,0.0,0.18999873512659038,0.0
132,0,132,4.157818696303894,3.0,1.2469006197879708,0.0,0.18619876042405847,0.0,0.18619876042405847,0.0,0,0,0,0,0.18619876042405847,1.2469006197879708,0.0,0.18619876042405847,0.0
133,0,133,4.170306322377816,3.0,1.2487626073922113,0.0,0.18247478521557747,0.0,0.18247478521557747,0.0,0,0,0,0,0.18247478521557747,1.2487626073922113,0.0,0.18247478521557747,0.0
134,0,134,4.18281219593026,3.0,1.2505873552443671,0.0,0.17882528951126586,0.0,0.17882528951126586,0.0,0,0,0,0,0.17882528951126586,1.2505873552443671,0.0,0.17882528951126586,0.0
135,0,135,4.195335952011654,3.0,1.25237560813948,0.0,0.17524878372104036,0.0,0.17524878372104036,0.0,0,0,0,0,0.17524878372104036,1.25237560813948,0.0,0.17524878372104036,0.0
136,0,136,4.207877232971422,3.0,1.2541280959766903,0.0,0.1717438080466196,0.0,0.1717438080466196,0.0,0,0,0,0,0.1717438080466196,1.2541280959766903,0.0,0.1717438080466196,0.0
137,0,137,4.220435688311993,3.0,1.2558455340571564,0.0,0.1683089318856874,0.0,0.1683089318856874,0.0,0,0,0,0,0.1683089318856874,1.2558455340571564,0.0,0.1683089318856874,0.0
138,0,138,4.233010974545754,3.0,1.2575286233760132,0.0,0.1649427532479737,0.0,0.1649427532479737,0.0,0,0,0,0,0.1649427532479737,1.2575286233760132,0.0,0.1649427532479737,0.0
139,0,139,4.245602755054838,3.0,1.2591780509084929,0.0,0.1616438981830144,0.0,0.1616438981830144,0.0,0,0,0,0,0.1616438981830144,1.2591780509084929,0.0,0.1616438981830144,0.0
140,0,140,4.258210699953741,3.0,1.260794489890323,0.0,0.15841102021935427,0.0,0.15841102021935427,0.0,0,0,0,0,0.15841102021935427,1.260794489890323,0.0,0.15841102021935427,0.0
141,0,141,4.2708344859546665,3.0,1.2623786000925166,0.0,0.15524279981496703,0.0,0.15524279981496703,0.0,0,0,0,0,0.15524279981496703,1.2623786000925166,0.0,0.15524279981496703,0.0
142,0,142,4.283473796235573,3.0,1.2639310280906662,0.0,0.15213794381866785,0.0,0.15213794381866785,0.0,0,0,0,0,0.15213794381866785,1.2639310280906662,0.0,0.15213794381866785,0.0
143,0,143,4.296128320310862,3.0,1.265452407528853,0.0,0.14909518494229435,0.0,0.14909518494229435,0.0,0,0,0,0,0.14909518494229435,1.265452407528853,0.0,0.14909518494229435,0.0
144,0,144,4.308797753904645,3.0,1.266943359378276,0.0,0.14611328124344825,0.0,0.14611328124344825,0.0,0,0,0,0,0.14611328124344825,1.266943359378276,0.0,0.14611328124344825,0.0
145,0,145,4.321481798826552,3.0,1.2684044921907105,0.0,0.14319101561857916,0.0,0.14319101561857916,0.0,0,0,0,0,0.14319101561857916,1.2684044921907105,0.0,0.14319101561857916,0.0
146,0,146,4.3341801628500205,3.0,1.2698364023468962,0.0,0.14032719530620774,0.0,0.14032719530620774,0.0,0,0,0,0,0.14032719530620774,1.2698364023468962,0.0,0.14032719530620774,0.0
147,0,147,4.34689255959302,3.0,1.2712396742999583,0.0,0.13752065140008352,0.0,0.13752065140008352,0.0,0,0,0,0,0.13752065140008352,1.2712396742999583,0.0,0.13752065140008352,0.0
148,0,148,4.35961870840116,3.0,1.2726148808139592,0.0,0.13477023837208169,0.0,0.13477023837208169,0.0,0,0,0,0,0.13477023837208169,1.2726148808139592,0.0,0.13477023837208169,0.0
149,0,149,4.372358334233137,3.0,1.27396258319768,0.0,0.13207483360464023,0.0,0.13207483360464023,0.0,0,0,0,0,0.13207483360464023,1.27396258319768,0.0,0.13207483360464023,0.0
150,0,150,4.385111167548475,3.0,1.2752833315337264,0.0,0.12943333693254733,0.0,0.12943333693254733,0.0,0,0,0,0,0.12943333693254733,1.2752833315337264,0.0,0.12943333693254733,0.0
151,0,151,4.397876944197505,3.0,1.2765776649030518,0.0,0.12684467019389656,0.0,0.12684467019389656,0.0,0,0,0,0,0.12684467019389656,1.2765776649030518,0.0,0.12684467019389656,0.0
152,0,152,4.410655405313555,3.0,1.2778461116049908,0.0,0.12430777679001848,0.0,0.12430777679001848,0.0,0,0,0,0,0.12430777679001848,1.2778461116049908,0.0,0.12430777679001848,0.0
153,0,153,4.423446297207284,3.0,1.279089189372891,0.0,0.12182162125421803,0.0,0.12182162125421803,0.0,0,0,0,0,0.12182162125421803,1.279089189372891,0.0,0.12182162125421803,0.0
154,0,154,4.436249371263139,3.0,1.2803074055854333,0.0,0.11938518882913352,0.0,0.11938518882913352,0.0,0,0,0,0,0.11938518882913352,1.2803074055854333,0.0,0.11938518882913352,0.0
155,0,155,4.449064383837876,3.0,1.2815012574737246,0.0,0.11699748505255103,0.0,0.11699748505255103,0.0,0,0,0,0,0.11699748505255103,1.2815012574737246,0.0,0.11699748505255103,0.0
156,0,156,4.461891096161119,3.0,1.2826712323242502,0.0,0.1146575353514998,0.0,0.1146575353514998,0.0,0,0,0,0,0.1146575353514998,1.2826712323242502,0.0,0.1146575353514998,0.0
157,0,157,4.474729274237896,3.0,1.283817807677765,0.0,0.11236438464446996,0.0,0.11236438464446996,0.0,0,0,0,0,0.11236438464446996,1.283817807677765,0.0,0.11236438464446996,0.0
158,0,158,4.487578688753138,3.0,1.28494145152421,0.0,0.11011709695158034,0.0,0.11011709695158034,0.0,0,0,0,0,0.11011709695158034,1.28494145152421,0.0,0.11011709695158034,0.0
159,0,159,4.500439114978075,3.0,1.2860426224937258,0.0,0.10791475501254855,0.0,0.10791475501254855,0.0,0,0,0,0,0.10791475501254855,1.2860426224937258,0.0,0.10791475501254855,0.0
160,0,160,4.513310332678514,3.0,1.2871217700438513,0.0,0.10575645991229754,0.0,0.10575645991229754,0.0,0,0,0,0,0.10575645991229754,1.2871217700438513,0.0,0.10575645991229754,0.0
161,0,161,4.526192126024943,3.0,1.2881793346429742,0.0,0.1036413307140518,0.0,0.1036413307140518,0.0,0,0,0,0,0.1036413307140518,1.2881793346429742,0.0,0.1036413307140518,0.0
162,0,162,4.539084283504445,3.0,1.2892157479501147,0.0,0.1015685040997707,0.0,0.1015685040997707,0.0,0,0,0,0,0.1015685040997707,1.2892157479501147,0.0,0.1015685040997707,0.0
163,0,163,4.551986597834356,3.0,1.2902314329911124,0.0,0.09953713401777531,0.0,0.09953713401777531,0.0,0,0,0,0,0.09953713401777531,1.2902314329911124,0.0,0.09953713401777531,0.0
164,0,164,4.564898865877669,3.0,1.2912268043312902,0.0,0.09754639133741971,0.0,0.09754639133741971,0.0,0,0,0,0,0.09754639133741971,1.2912268043312902,0.0,0.09754639133741971,0.0
165,0,165,4.577820888560115,3.0,1.2922022682446643,0.0,0.0955954635106715,0.0,0.0955954635106715,0.0,0,0,0,0,0.0955954635106715,1.2922022682446643,0.0,0.0955954635106715,0.0
166,0,166,4.590752470788913,3.0,1.2931582228797711,0.0,0.09368355424045793,0.0,0.09368355424045793,0.0,0,0,0,0,0.09368355424045793,1.2931582228797711,0.0,0.09368355424045793,0.0
167,0,167,4.603693421373134,3.0,1.2940950584221758,0.0,0.09180988315564864,0.0,0.09180988315564864,0.0,0,0,0,0,0.09180988315564864,1.2940950584221758,0.0,0.09180988315564864,0.0
168,0,168,4.616643552945671,3.0,1.2950131572537322,0.0,0.0899736854925357,0.0,0.0899736854925357,0.0,0,0,0,0,0.0899736854925357,1.2950131572537322,0.0,0.0899736854925357,0.0
169,0,169,4.629602681886758,3.0,1.2959128941086575,0.0,0.08817421178268514,0.0,0.08817421178268514,0.0,0,0,0,0,0.08817421178268514,1.2959128941086575,0.0,0.08817421178268514,0.0
170,0,170,4.642570628249023,3.0,1.2967946362264844,0.0,0.08641072754703139,0.0,0.08641072754703139,0.0,0,0,0,0,0.08641072754703139,1.2967946362264844,0.0,0.08641072754703139,0.0
171,0,171,4.6555472156840425,3.0,1.2976587435019546,0.0,0.08468251299609086,0.0,0.08468251299609086,0.0,0,0,0,0,0.08468251299609086,1.2976587435019546,0.0,0.08468251299609086,0.0
172,0,172,4.668532271370362,3.0,1.2985055686319156,0.0,0.08298886273616901,0.0,0.08298886273616901,0.0,0,0,0,0,0.08298886273616901,1.2985055686319156,0.0,0.08298886273616901,0.0
173,0,173,4.681525625942954,3.0,1.2993354572592772,0.0,0.08132908548144568,0.0,0.08132908548144568,0.0,0,0,0,0,0.08132908548144568,1.2993354572592772,0.0,0.08132908548144568,0.0
174,0,174,4.694527113424095,3.0,1.3001487481140916,0.0,0.07970250377181687,0.0,0.07970250377181687,0.0,0,0,0,0,0.07970250377181687,1.3001487481140916,0.0,0.07970250377181687,0.0
175,0,175,4.707536571155613,3.0,1.3009457731518097,0.0,0.07810845369638075,0.0,0.07810845369638075,0.0,0,0,0,0,0.07810845369638075,1.3009457731518097,0.0,0.07810845369638075,0.0
176,0,176,4.7205538397325,3.0,1.3017268576887735,0.0,0.07654628462245316,0.0,0.07654628462245316,0.0,0,0,0,0,0.07654628462245316,1.3017268576887735,0.0,0.07654628462245316,0.0
177,0,177,4.73357876293785,3.0,1.302492320534998,0.0,0.075015358930004,0.0,0.075015358930004,0.0,0,0,0,0,0.075015358930004,1.302492320534998,0.0,0.075015358930004,0.0
178,0,178,4.746611187679093,3.0,1.303242474124298,0.0,0.07351505175140405,0.0,0.07351505175140405,0.0,0,0,0,0,0.07351505175140405,1.303242474124298,0.0,0.07351505175140405,0.0
179,0,179,4.759650963925512,3.0,1.303977624641812,0.0,0.07204475071637617,0.0,0.07204475071637617,0.0,0,0,0,0,0.07204475071637617,1.303977624641812,0.0,0.07204475071637617,0.0
180,0,180,4.7726979446470015,3.0,1.3046980721489758,0.0,0.07060385570204852,0.0,0.07060385570204852,0.0,0,0,0,0,0.07060385570204852,1.3046980721489758,0.0,0.07060385570204852,0.0
181,0,181,4.785751985754062,3.0,1.3054041107059964,0.0,0.0691917785880074,0.0,0.0691917785880074,0.0,0,0,0,0,0.0691917785880074,1.3054041107059964,0.0,0.0691917785880074,0.0
182,0,182,4.79881294603898,3.0,1.3060960284918766,0.0,0.06780794301624704,0.0,0.06780794301624704,0.0,0,0,0,0,0.06780794301624704,1.3060960284918766,0.0,0.06780794301624704,0.0
183,0,183,4.811880687118201,3.0,1.306774107922039,0.0,0.06645178415592223,0.0,0.06645178415592223,0.0,0,0,0,0,0.06645178415592223,1.306774107922039,0.0,0.06645178415592223,0.0
184,0,184,4.824955073375837,3.0,1.3074386257635982,0.0,0.06512274847280386,0.0,0.06512274847280386,0.0,0,0,0,0,0.06512274847280386,1.3074386257635982,0.0,0.06512274847280386,0.0
185,0,185,4.838035971908321,3.0,1.3080898532483263,0.0,0.06382029350334761,0.0,0.06382029350334761,0.0,0,0,0,0,0.06382029350334761,1.3080898532483263,0.0,0.06382029350334761,0.0
186,0,186,4.851123252470154,3.0,1.3087280561833599,0.0,0.06254388763328045,0.0,0.06254388763328045,0.0,0,0,0,0,0.06254388763328045,1.3087280561833599,0.0,0.06254388763328045,0.0
187,0,187,4.864216787420752,3.0,1.3093534950596926,0.0,0.061293009880615035,0.0,0.061293009880615035,0.0,0,0,0,0,0.061293009880615035,1.3093534950596926,0.0,0.061293009880615035,0.0
188,0,188,4.877316451672336,3.0,1.3099664251584988,0.0,0.06006714968300253,0.0,0.06006714968300253,0.0,0,0,0,0,0.06006714968300253,1.3099664251584988,0.0,0.06006714968300253,0.0
189,0,189,4.890422122638889,3.0,1.310567096655329,0.0,0.05886580668934238,0.0,0.05886580668934238,0.0,0,0,0,0,0.05886580668934238,1.310567096655329,0.0,0.05886580668934238,0.0
190,0,190,4.903533680186111,3.0,1.3111557547222223,0.0,0.05768849055555547,0.0,0.05768849055555547,0.0,0,0,0,0,0.05768849055555547,1.3111557547222223,0.0,0.05768849055555547,0.0
191,0,191,4.916651006582389,3.0,1.311732639627778,0.0,0.05653472074444421,0.0,0.05653472074444421,0.0,0,0,0,0,0.05653472074444421,1.311732639627778,0.0,0.05653472074444421,0.0
192,0,192,4.929773986450741,3.0,1.3122979868352225,0.0,0.05540402632955521,0.0,0.05540402632955521,0.0,0,0,0,0,0.05540402632955521,1.3122979868352225,0.0,0.05540402632955521,0.0
193,0,193,4.942902506721726,3.0,1.312852027098518,0.0,0.05429594580296415,0.0,0.05429594580296415,0.0,0,0,0,0,0.05429594580296415,1.312852027098518,0.0,0.05429594580296415,0.0
194,0,194,4.956036456587292,3.0,1.3133949865565477,0.0,0.05321002688690468,0.0,0.05321002688690468,0.0,0,0,0,0,0.05321002688690468,1.3133949865565477,0.0,0.05321002688690468,0.0
195,0,195,4.9691757274555455,3.0,1.3139270868254167,0.0,0.05214582634916676,0.0,0.05214582634916676,0.0,0,0,0,0,0.05214582634916676,1.3139270868254167,0.0,0.05214582634916676,0.0
196,0,196,4.982320212906434,3.0,1.3144485450889083,0.0,0.05110290982218357,0.0,0.05110290982218357,0.0,0,0,0,0,0.05110290982218357,1.3144485450889083,0.0,0.05110290982218357,0.0
197,0,197,4.995469808648306,3.0,1.31495957418713,0.0,0.05008085162574005,0.0,0.05008085162574005,0.0,0,0,0,0,0.05008085162574005,1.31495957418713,0.0,0.05008085162574005,0.0
198,0,198,5.008624412475339,3.0,1.3154603827033875,0.0,0.04907923459322516,0.0,0.04907923459322516,0.0,0,0,0,0,0.04907923459322516,1.3154603827033875,0.0,0.04907923459322516,0.0
199,0,199,5.021783924225833,3.0,1.3159511750493198,0.0,0.04809764990136056,0.0,0.04809764990136056,0.0,0,0,0,0,0.04809764990136056,1.3159511750493198,0.0,0.04809764990136056,0.0
200,0,200,5.034948245741316,3.0,1.3164321515483335,0.0,0.04713569690333319,0.0,0.04713569690333319,0.0,0,0,0,0,0.04713569690333319,1.3164321515483335,0.0,0.04713569690333319,0.0
201,0,201,5.04811728082649,3.0,1.3169035085173668,0.0,0.04619298296526653,0.0,0.04619298296526653,0.0,0,0,0,0,0.04619298296526653,1.3169035085173668,0.0,0.04619298296526653,0.0
202,0,202,5.06129093520996,3.0,1.3173654383470195,0.0,0.04526912330596122,0.0,0.04526912330596122,0.0,0,0,0,0,0.04526912330596122,1.3173654383470195,0.0,0.04526912330596122,0.0
203,0,203,5.07446911650576,3.0,1.317818129580079,0.0,0.04436374083984207,0.0,0.04436374083984207,0.0,0,0,0,0,0.04436374083984207,1.317818129580079,0.0,0.04436374083984207,0.0
204,0,204,5.087651734175645,3.0,1.3182617669884775,0.0,0.04347646602304511,0.0,0.04347646602304511,0.0,0,0,0,0,0.04347646602304511,1.3182617669884775,0.0,0.04347646602304511,0.0
205,0,205,5.100838699492132,3.0,1.318696531648708,0.0,0.042606936702584086,0.0,0.042606936702584086,0.0,0,0,0,0,0.042606936702584086,1.318696531648708,0.0,0.042606936702584086,0.0
206,0,206,5.114029925502289,3.0,1.319122601015734,0.0,0.04175479796853221,0.0,0.04175479796853221,0.0,0,0,0,0,0.04175479796853221,1.319122601015734,0.0,0.04175479796853221,0.0
207,0,207,5.127225326992243,3.0,1.3195401489954193,0.0,0.04091970200916162,0.0,0.04091970200916162,0.0,0,0,0,0,0.04091970200916162,1.3195401489954193,0.0,0.04091970200916162,0.0
208,0,208,5.140424820452398,3.0,1.319949346015511,0.0,0.04010130796897826,0.0,0.04010130796897826,0.0,0,0,0,0,0.04010130796897826,1.319949346015511,0.0,0.04010130796897826,0.0
209,0,209,5.15362832404335,3.0,1.3203503590952008,0.0,0.03929928180959852,0.0,0.03929928180959852,0.0,0,0,0,0,0.03929928180959852,1.3203503590952008,0.0,0.03929928180959852,0.0
210,0,210,5.166835757562483,3.0,1.3207433519132967,0.0,0.03851329617340671,0.0,0.03851329617340671,0.0,0,0,0,0,0.03851329617340671,1.3207433519132967,0.0,0.03851329617340671,0.0
211,0,211,5.180047042411233,3.0,1.3211284848750309,0.0,0.037743030249938414,0.0,0.037743030249938414,0.0,0,0,0,0,0.037743030249938414,1.3211284848750309,0.0,0.037743030249938414,0.0
212,0,212,5.1932621015630085,3.0,1.3215059151775304,0.0,0.03698816964493945,0.0,0.03698816964493945,0.0,0,0,0,0,0.03698816964493945,1.3215059151775304,0.0,0.03698816964493945,0.0
213,0,213,5.206480859531748,3.0,1.3218757968739798,0.0,0.03624840625204051,0.0,0.03624840625204051,0.0,0,0,0,0,0.03624840625204051,1.3218757968739798,0.0,0.03624840625204051,0.0
214,0,214,5.219703242341113,3.0,1.3222382809365003,0.0,0.03552343812699954,0.0,0.03552343812699954,0.0,0,0,0,0,0.03552343812699954,1.3222382809365003,0.0,0.03552343812699954,0.0
215,0,215,5.232929177494291,3.0,1.3225935153177704,0.0,0.034812969364459434,0.0,0.034812969364459434,0.0,0,0,0,0,0.034812969364459434,1.3225935153177704,0.0,0.034812969364459434,0.0
216,0,216,5.246158593944405,3.0,1.3229416450114149,0.0,0.03411670997717042,0.0,0.03411670997717042,0.0,0,0,0,0,0.03411670997717042,1.3229416450114149,0.0,0.03411670997717042,0.0
217,0,217,5.259391422065517,3.0,1.3232828121111866,0.0,0.03343437577762698,0.0,0.03343437577762698,0.0,0,0,0,0,0.03343437577762698,1.3232828121111866,0.0,0.03343437577762698,0.0
218,0,218,5.272627593624207,3.0,1.323617155868963,0.0,0.03276568826207438,0.0,0.03276568826207438,0.0,0,0,0,0,0.03276568826207438,1.323617155868963,0.0,0.03276568826207438,0.0
219,0,219,5.285867041751723,3.0,1.3239448127515836,0.0,0.03211037449683296,0.0,0.03211037449683296,0.0,0,0,0,0,0.03211037449683296,1.3239448127515836,0.0,0.03211037449683296,0.0
220,0,220,5.299109700916688,3.0,1.324265916496552,0.0,0.03146816700689614,0.0,0.03146816700689614,0.0,0,0,0,0,0.03146816700689614,1.324265916496552,0.0,0.03146816700689614,0.0
221,0,221,5.312355506898354,3.0,1.324580598166621,0.0,0.030838803666758174,0.0,0.030838803666758174,0.0,0,0,0,0,0.030838803666758174,1.324580598166621,0.0,0.030838803666758174,0.0
222,0,222,5.3256043967603865,3.0,1.3248889862032887,0.0,0.03022202759342285,0.0,0.03022202759342285,0.0,0,0,0,0,0.03022202759342285,1.3248889862032887,0.0,0.03022202759342285,0.0
223,0,223,5.338856308825179,3.0,1.3251912064792228,0.0,0.029617587041554483,0.0,0.029617587041554483,0.0,0,0,0,0,0.029617587041554483,1.3251912064792228,0.0,0.029617587041554483,0.0
224,0,224,5.352111182648675,3.0,1.3254873823496385,0.0,0.029025235300723207,0.0,0.029025235300723207,0.0,0,0,0,0,0.029025235300723207,1.3254873823496385,0.0,0.029025235300723207,0.0
225,0,225,5.365368958995701,3.0,1.3257776347026458,0.0,0.028444730594708645,0.0,0.028444730594708645,0.0,0,0,0,0,0.028444730594708645,1.3257776347026458,0.0,0.028444730594708645,0.0
226,0,226,5.378629579815787,3.0,1.3260620820085929,0.0,0.0278758359828144,0.0,0.0278758359828144,0.0,0,0,0,0,0.0278758359828144,1.3260620820085929,0.0,0.0278758359828144,0.0
227,0,227,5.391892988219471,3.0,1.326340840368421,0.0,0.02731831926315831,0.0,0.02731831926315831,0.0,0,0,0,0,0.02731831926315831,1.326340840368421,0.0,0.02731831926315831,0.0
228,0,228,5.4051591284550815,3.0,1.3266140235610524,0.0,0.026771952877895355,0.0,0.026771952877895355,0.0,0,0,0,0,0.026771952877895355,1.3266140235610524,0.0,0.026771952877895355,0.0
229,0,229,5.41842794588598,3.0,1.3268817430898314,0.0,0.026236513820337315,0.0,0.026236513820337315,0.0,0,0,0,0,0.026236513820337315,1.3268817430898314,0.0,0.026236513820337315,0.0
230,0,230,5.43169938696826,3.0,1.3271441082280349,0.0,0.025711783543930444,0.0,0.025711783543930444,0.0,0,0,0,0,0.025711783543930444,1.3271441082280349,0.0,0.025711783543930444,0.0
231,0,231,5.444973399228895,3.0,1.3274012260634742,0.0,0.02519754787305173,0.0,0.02519754787305173,0.0,0,0,0,0,0.02519754787305173,1.3274012260634742,0.0,0.02519754787305173,0.0
232,0,232,5.458249931244318,3.0,1.3276532015422047,0.0,0.02469359691559081,0.0,0.02469359691559081,0.0,0,0,0,0,0.02469359691559081,1.3276532015422047,0.0,0.02469359691559081,0.0
233,0,233,5.471528932619431,3.0,1.3279001375113606,0.0,0.024199724977278958,0.0,0.024199724977278958,0.0,0,0,0,0,0.024199724977278958,1.3279001375113606,0.0,0.024199724977278958,0.0
234,0,234,5.484810353967042,3.0,1.3281421347611333,0.0,0.023715730477733565,0.0,0.023715730477733565,0.0,0,0,0,0,0.023715730477733565,1.3281421347611333,0.0,0.023715730477733565,0.0
235,0,235,5.498094146887701,3.0,1.3283792920659105,0.0,0.02324141586817907,0.0,0.02324141586817907,0.0,0,0,0,0,0.02324141586817907,1.3283792920659105,0.0,0.02324141586817907,0.0
236,0,236,5.511380263949947,3.0,1.3286117062245923,0.0,0.022776587550815464,0.0,0.022776587550815464,0.0,0,0,0,0,0.022776587550815464,1.3286117062245923,0.0,0.022776587550815464,0.0
237,0,237,5.524668658670948,3.0,1.3288394721001004,0.0,0.02232105579979926,0.0,0.02232105579979926,0.0,0,0,0,0,0.02232105579979926,1.3288394721001004,0.0,0.02232105579979926,0.0
238,0,238,5.5379592854975295,3.0,1.3290626826580985,0.0,0.02187463468380324,0.0,0.02187463468380324,0.0,0,0,0,0,0.02187463468380324,1.3290626826580985,0.0,0.02187463468380324,0.0
239,0,239,5.551252099787579,3.0,1.3292814290049364,0.0,0.021437141990127362,0.0,0.021437141990127362,0.0,0,0,0,0,0.021437141990127362,1.3292814290049364,0.0,0.021437141990127362,0.0
240,0,240,5.5645470577918275,3.0,1.3294958004248376,0.0,0.02100839915032493,0.0,0.02100839915032493,0.0,0,0,0,0,0.02100839915032493,1.3294958004248376,0.0,0.02100839915032493,0.0
241,0,241,5.5778441166359904,3.0,1.329705884416341,0.0,0.020588231167318227,0.0,0.020588231167318227,0.0,0,0,0,0,0.020588231167318227,1.329705884416341,0.0,0.020588231167318227,0.0
242,0,242,5.591143234303271,3.0,1.3299117667280143,0.0,0.02017646654397165,0.0,0.02017646654397165,0.0,0,0,0,0,0.02017646654397165,1.3299117667280143,0.0,0.02017646654397165,0.0
243,0,243,5.604444369617205,3.0,1.330113531393454,0.0,0.019772937213092145,0.0,0.019772937213092145,0.0,0,0,0,0,0.019772937213092145,1.330113531393454,0.0,0.019772937213092145,0.0
244,0,244,5.617747482224861,3.0,1.330311260765585,0.0,0.01937747846883031,0.0,0.01937747846883031,0.0,0,0,0,0,0.01937747846883031,1.330311260765585,0.0,0.01937747846883031,0.0
245,0,245,5.631052532580364,3.0,1.3305050355502732,0.0,0.018989928899453723,0.0,0.018989928899453723,0.0,0,0,0,0,0.018989928899453723,1.3305050355502732,0.0,0.018989928899453723,0.0
246,0,246,5.644359481928757,3.0,1.3306949348392678,0.0,0.018610130321464524,0.0,0.018610130321464524,0.0,0,0,0,0,0.018610130321464524,1.3306949348392678,0.0,0.018610130321464524,0.0
247,0,247,5.6576682922901815,3.0,1.3308810361424825,0.0,0.018237927715035074,0.0,0.018237927715035074,0.0,0,0,0,0,0.018237927715035074,1.3308810361424825,0.0,0.018237927715035074,0.0
248,0,248,5.670978926444378,3.0,1.3310634154196328,0.0,0.01787316916073456,0.0,0.01787316916073456,0.0,0,0,0,0,0.01787316916073456,1.3310634154196328,0.0,0.01787316916073456,0.0
249,0,249,5.68429134791549,3.0,1.3312421471112401,0.0,0.01751570577751993,0.0,0.01751570577751993,0.0,0,0,0,0,0.01751570577751993,1.3312421471112401,0.0,0.01751570577751993,0.0
250,0,250,5.697605520957181,3.0,1.3314173041690154,0.0,0.017165391661969398,0.0,0.017165391661969398,0.0,0,0,0,0,0.017165391661969398,1.3314173041690154,0.0,0.017165391661969398,0.0
251,0,251,5.710921410538037,3.0,1.331588958085635,0.0,0.016822083828730072,0.0,0.016822083828730072,0.0,0,0,0,0,0.016822083828730072,1.331588958085635,0.0,0.016822083828730072,0.0
252,0,252,5.724238982327276,3.0,1.3317571789239224,0.0,0.01648564215215531,0.0,0.01648564215215531,0.0,0,0,0,0,0.01648564215215531,1.3317571789239224,0.0,0.01648564215215531,0.0
253,0,253,5.737558202680731,3.0,1.331922035345444,0.0,0.01615592930911225,0.0,0.01615592930911225,0.0,0,0,0,0,0.01615592930911225,1.331922035345444,0.0,0.01615592930911225,0.0
254,0,254,5.750879038627116,3.0,1.332083594638535,0.0,0.01583281072293019,0.0,0.01583281072293019,0.0,0,0,0,0,0.01583281072293019,1.332083594638535,0.0,0.01583281072293019,0.0
255,0,255,5.764201457854574,3.0,1.3322419227457643,0.0,0.015516154508471658,0.0,0.015516154508471658,0.0,0,0,0,0,0.015516154508471658,1.3322419227457643,0.0,0.015516154508471658,0.0
256,0,256,5.777525428697483,3.0,1.332397084290849,0.0,0.015205831418302118,0.0,0.015205831418302118,0.0,0,0,0,0,0.015205831418302118,1.332397084290849,0.0,0.015205831418302118,0.0
257,0,257,5.790850920123533,3.0,1.332549142605032,0.0,0.014901714789936182,0.0,0.014901714789936182,0.0,0,0,0,0,0.014901714789936182,1.332549142605032,0.0,0.014901714789936182,0.0
258,0,258,5.804177901721062,3.0,1.3326981597529313,0.0,0.014603680494137627,0.0,0.014603680494137627,0.0,0,0,0,0,0.014603680494137627,1.3326981597529313,0.0,0.014603680494137627,0.0
259,0,259,5.817506343686641,3.0,1.3328441965578726,0.0,0.014311606884255035,0.0,0.014311606884255035,0.0,0,0,0,0,0.014311606884255035,1.3328441965578726,0.0,0.014311606884255035,0.0
260,0,260,5.830836216812908,3.0,1.332987312626715,0.0,0.014025374746569952,0.0,0.014025374746569952,0.0,0,0,0,0,0.014025374746569952,1.332987312626715,0.0,0.014025374746569952,0.0
261,0,261,5.844167492476649,3.0,1.3331275663741808,0.0,0.013744867251638482,0.0,0.013744867251638482,0.0,0,0,0,0,0.013744867251638482,1.3331275663741808,0.0,0.013744867251638482,0.0
262,0,262,5.857500142627116,3.0,1.3332650150466971,0.0,0.013469969906605872,0.0,0.013469969906605872,0.0,0,0,0,0,0.013469969906605872,1.3332650150466971,0.0,0.013469969906605872,0.0
263,0,263,5.870834139774574,3.0,1.3333997147457632,0.0,0.013200570508473675,0.0,0.013200570508473675,0.0,0,0,0,0,0.013200570508473675,1.3333997147457632,0.0,0.013200570508473675,0.0
264,0,264,5.884169456979082,3.0,1.333531720450848,0.0,0.012936559098304379,0.0,0.012936559098304379,0.0,0,0,0,0,0.012936559098304379,1.333531720450848,0.0,0.012936559098304379,0.0
265,0,265,5.8975060678395,3.0,1.333661086041831,0.0,0.012677827916338202,0.0,0.012677827916338202,0.0,0,0,0,0,0.012677827916338202,1.333661086041831,0.0,0.012677827916338202,0.0
266,0,266,5.91084394648271,3.0,1.3337878643209944,0.0,0.012424271358011385,0.0,0.012424271358011385,0.0,0,0,0,0,0.012424271358011385,1.3337878643209944,0.0,0.012424271358011385,0.0
267,0,267,5.924183067553056,3.0,1.3339121070345745,0.0,0.012175785930851113,0.0,0.012175785930851113,0.0,0,0,0,0,0.012175785930851113,1.3339121070345745,0.0,0.012175785930851113,0.0
268,0,268,5.937523406201994,3.0,1.334033864893883,0.0,0.011932270212234197,0.0,0.011932270212234197,0.0,0,0,0,0,0.011932270212234197,1.334033864893883,0.0,0.011932270212234197,0.0
269,0,269,5.950864938077954,3.0,1.3341531875960053,0.0,0.011693624807989522,0.0,0.011693624807989522,0.0,0,0,0,0,0.011693624807989522,1.3341531875960053,0.0,0.011693624807989522,0.0
270,0,270,5.964207639316395,3.0,1.3342701238440853,0.0,0.011459752311829607,0.0,0.011459752311829607,0.0,0,0,0,0,0.011459752311829607,1.3342701238440853,0.0,0.011459752311829607,0.0
271,0,271,5.977551486530068,3.0,1.3343847213672035,0.0,0.011230557265593077,0.0,0.011230557265593077,0.0,0,0,0,0,0.011230557265593077,1.3343847213672035,0.0,0.011230557265593077,0.0
272,0,272,5.990896456799466,3.0,1.3344970269398595,0.0,0.011005946120281163,0.0,0.011005946120281163,0.0,0,0,0,0,0.011005946120281163,1.3344970269398595,0.0,0.011005946120281163,0.0
273,0,273,6.004242527663477,3.0,1.3346070864010624,0.0,0.010785827197875353,0.0,0.010785827197875353,0.0,0,0,0,0,0.010785827197875353,1.3346070864010624,0.0,0.010785827197875353,0.0
274,0,274,6.017589677110207,3.0,1.334714944673041,0.0,0.010570110653917997,0.0,0.010570110653917997,0.0,0,0,0,0,0.010570110653917997,1.334714944673041,0.0,0.010570110653917997,0.0
275,0,275,6.0309378835680025,3.0,1.3348206457795802,0.0,0.010358708440839859,0.0,0.010358708440839859,0.0,0,0,0,0,0.010358708440839859,1.3348206457795802,0.0,0.010358708440839859,0.0
276,0,276,6.044287125896642,3.0,1.3349242328639885,0.0,0.010151534272023088,0.0,0.010151534272023088,0.0,0,0,0,0,0.010151534272023088,1.3349242328639885,0.0,0.010151534272023088,0.0
277,0,277,6.057637383378709,3.0,1.3350257482067087,0.0,0.009948503586582724,0.0,0.009948503586582724,0.0,0,0,0,0,0.009948503586582724,1.3350257482067087,0.0,0.009948503586582724,0.0
278,0,278,6.070988635711135,3.0,1.3351252332425745,0.0,0.009749533514851194,0.0,0.009749533514851194,0.0,0,0,0,0,0.009749533514851194,1.3351252332425745,0.0,0.009749533514851194,0.0
279,0,279,6.084340862996912,3.0,1.335222728577723,0.0,0.009554542844554259,0.0,0.009554542844554259,0.0,0,0,0,0,0.009554542844554259,1.335222728577723,0.0,0.009554542844554259,0.0
280,0,280,6.097694045736974,3.0,1.3353182740061684,0.0,0.009363451987663307,0.0,0.009363451987663307,0.0,0,0,0,0,0.009363451987663307,1.3353182740061684,0.0,0.009363451987663307,0.0
281,0,281,6.111048164822234,3.0,1.335411908526045,0.0,0.009176182947910227,0.0,0.009176182947910227,0.0,0,0,0,0,0.009176182947910227,1.335411908526045,0.0,0.009176182947910227,0.0
282,0,282,6.12440320152579,3.0,1.335503670355524,0.0,0.008992659288951987,0.0,0.008992659288951987,0.0,0,0,0,0,0.008992659288951987,1.335503670355524,0.0,0.008992659288951987,0.0
283,0,283,6.137759137495274,3.0,1.3355935969484136,0.0,0.008812806103172921,0.0,0.008812806103172921,0.0,0,0,0,0,0.008812806103172921,1.3355935969484136,0.0,0.008812806103172921,0.0
284,0,284,6.151115954745368,3.0,1.3356817250094453,0.0,0.008636549981109631,0.0,0.008636549981109631,0.0,0,0,0,0,0.008636549981109631,1.3356817250094453,0.0,0.008636549981109631,0.0
285,0,285,6.16447363565046,3.0,1.3357680905092564,0.0,0.008463818981487403,0.0,0.008463818981487403,0.0,0,0,0,0,0.008463818981487403,1.3357680905092564,0.0,0.008463818981487403,0.0
286,0,286,6.177832162937451,3.0,1.3358527286990713,0.0,0.008294542601857469,0.0,0.008294542601857469,0.0,0,0,0,0,0.008294542601857469,1.3358527286990713,0.0,0.008294542601857469,0.0
287,0,287,6.191191519678702,3.0,1.3359356741250898,0.0,0.00812865174982047,0.0,0.00812865174982047,0.0,0,0,0,0,0.00812865174982047,1.3359356741250898,0.0,0.00812865174982047,0.0
288,0,288,6.204551689285128,3.0,1.336016960642588,0.0,0.007966078714824132,0.0,0.007966078714824132,0.0,0,0,0,0,0.007966078714824132,1.336016960642588,0.0,0.007966078714824132,0.0
289,0,289,6.2179126554994255,3.0,1.3360966214297363,0.0,0.007806757140527587,0.0,0.007806757140527587,0.0,0,0,0,0,0.007806757140527587,1.3360966214297363,0.0,0.007806757140527587,0.0
290,0,290,6.231274402389437,3.0,1.3361746890011417,0.0,0.007650621997716822,0.0,0.007650621997716822,0.0,0,0,0,0,0.007650621997716822,1.3361746890011417,0.0,0.007650621997716822,0.0
291,0,291,6.2446369143416485,3.0,1.336251195221119,0.0,0.0074976095577623525,0.0,0.0074976095577623525,0.0,0,0,0,0,0.0074976095577623525,1.336251195221119,0.0,0.0074976095577623525,0.0
292,0,292,6.258000176054815,3.0,1.3363261713166965,0.0,0.007347657366607141,0.0,0.007347657366607141,0.0,0,0,0,0,0.007347657366607141,1.3363261713166965,0.0,0.007347657366607141,0.0
293,0,293,6.271364172533719,3.0,1.3363996478903626,0.0,0.007200704219274989,0.0,0.007200704219274989,0.0,0,0,0,0,0.007200704219274989,1.3363996478903626,0.0,0.007200704219274989,0.0
294,0,294,6.284728889083045,3.0,1.3364716549325553,0.0,0.007056690134889632,0.0,0.007056690134889632,0.0,0,0,0,0,0.007056690134889632,1.3364716549325553,0.0,0.007056690134889632,0.0
295,0,295,6.298094311301384,3.0,1.3365422218339043,0.0,0.0069155563321916524,0.0,0.0069155563321916524,0.0,0,0,0,0,0.0069155563321916524,1.3365422218339043,0.0,0.0069155563321916524,0.0
296,0,296,6.311460425075356,3.0,1.3366113773972261,0.0,0.006777245205547899,0.0,0.006777245205547899,0.0,0,0,0,0,0.006777245205547899,1.3366113773972261,0.0,0.006777245205547899,0.0
297,0,297,6.324827216573849,3.0,1.3366791498492816,0.0,0.006641700301436959,0.0,0.006641700301436959,0.0,0,0,0,0,0.006641700301436959,1.3366791498492816,0.0,0.006641700301436959,0.0
298,0,298,6.338194672242372,3.0,1.336745566852296,0.0,0.006508866295408033,0.0,0.006508866295408033,0.0,0,0,0,0,0.006508866295408033,1.336745566852296,0.0,0.006508866295408033,0.0
299,0,299,6.351562778797524,3.0,1.3368106555152501,0.0,0.0063786889694998905,0.0,0.0063786889694998905,0.0,0,0,0,0,0.0063786889694998905,1.3368106555152501,0.0,0.0063786889694998905,0.0
300,0,300,6.364931523221573,3.0,1.3368744424049452,0.0,0.0062511151901096795,0.0,0.0062511151901096795,0.0,0,0,0,0,0.0062511151901096795,1.3368744424049452,0.0,0.0062511151901096795,0.0
301,0,301,6.378300892757141,3.0,1.3369369535568463,0.0,0.00612609288630761,0.0,0.00612609288630761,0.0,0,0,0,0,0.00612609288630761,1.3369369535568463,0.0,0.00612609288630761,0.0
302,0,302,6.391670874901998,3.0,1.3369982144857093,0.0,0.006003571028581511,0.0,0.006003571028581511,0.0,0,0,0,0,0.006003571028581511,1.3369982144857093,0.0,0.006003571028581511,0.0
303,0,303,6.405041457403958,3.0,1.3370582501959951,0.0,0.0058834996080099344,0.0,0.0058834996080099344,0.0,0,0,0,0,0.0058834996080099344,1.3370582501959951,0.0,0.0058834996080099344,0.0
304,0,304,6.418412628255878,3.0,1.3371170851920753,0.0,0.005765829615849594,0.0,0.005765829615849594,0.0,0,0,0,0,0.005765829615849594,1.3371170851920753,0.0,0.005765829615849594,0.0
305,0,305,6.431784375690761,3.0,1.3371747434882337,0.0,0.0056505130235326995,0.0,0.0056505130235326995,0.0,0,0,0,0,0.0056505130235326995,1.3371747434882337,0.0,0.0056505130235326995,0.0
306,0,306,6.4451566881769455,3.0,1.337231248618469,0.0,0.0055375027630621965,0.0,0.0055375027630621965,0.0,0,0,0,0,0.0055375027630621965,1.337231248618469,0.0,0.0055375027630621965,0.0
307,0,307,6.458529554413406,3.0,1.3372866236460996,0.0,0.005426752707800908,0.0,0.005426752707800908,0.0,0,0,0,0,0.005426752707800908,1.3372866236460996,0.0,0.005426752707800908,0.0
308,0,308,6.471902963325138,3.0,1.3373408911731777,0.0,0.005318217653644819,0.0,0.005318217653644819,0.0,0,0,0,0,0.005318217653644819,1.3373408911731777,0.0,0.005318217653644819,0.0
309,0,309,6.485276904058635,3.0,1.337394073349714,0.0,0.005211853300572056,0.0,0.005211853300572056,0.0,0,0,0,0,0.005211853300572056,1.337394073349714,0.0,0.005211853300572056,0.0
310,0,310,6.498651365977462,3.0,1.3374461918827198,0.0,0.005107616234560464,0.0,0.005107616234560464,0.0,0,0,0,0,0.005107616234560464,1.3374461918827198,0.0,0.005107616234560464,0.0
311,0,311,6.512026338657913,3.0,1.3374972680450654,0.0,0.005005463909869334,0.0,0.005005463909869334,0.0,0,0,0,0,0.005005463909869334,1.3374972680450654,0.0,0.005005463909869334,0.0
312,0,312,6.5254018118847545,3.0,1.337547322684164,0.0,0.004905354631671965,0.0,0.004905354631671965,0.0,0,0,0,0,0.004905354631671965,1.337547322684164,0.0,0.004905354631671965,0.0
313,0,313,6.538777775647059,3.0,1.3375963762304808,0.0,0.004807247539038606,0.0,0.004807247539038606,0.0,0,0,0,0,0.004807247539038606,1.3375963762304808,0.0,0.004807247539038606,0.0
314,0,314,6.552154220134118,3.0,1.3376444487058712,0.0,0.004711102588257798,0.0,0.004711102588257798,0.0,0,0,0,0,0.004711102588257798,1.3376444487058712,0.0,0.004711102588257798,0.0
315,0,315,6.565531135731435,3.0,1.3376915597317538,0.0,0.0046168805364925625,0.0,0.0046168805364925625,0.0,0,0,0,0,0.0046168805364925625,1.3376915597317538,0.0,0.0046168805364925625,0.0
316,0,316,6.578908513016806,3.0,1.3377377285371188,0.0,0.0045245429257625425,0.0,0.0045245429257625425,0.0,0,0,0,0,0.0045245429257625425,1.3377377285371188,0.0,0.0045245429257625425,0.0
317,0,317,6.59228634275647,3.0,1.3377829739663765,0.0,0.0044340520672472294,0.0,0.0044340520672472294,0.0,0,0,0,0,0.0044340520672472294,1.3377829739663765,0.0,0.0044340520672472294,0.0
318,0,318,6.605664615901341,3.0,1.337827314487049,0.0,0.004345371025902267,0.0,0.004345371025902267,0.0,0,0,0,0,0.004345371025902267,1.337827314487049,0.0,0.004345371025902267,0.0
319,0,319,6.6190433235833135,3.0,1.3378707681973079,0.0,0.004258463605384399,0.0,0.004258463605384399,0.0,0,0,0,0,0.004258463605384399,1.3378707681973079,0.0,0.004258463605384399,0.0
320,0,320,6.632422457111647,3.0,1.3379133528333618,0.0,0.004173294333276623,0.0,0.004173294333276623,0.0,0,0,0,0,0.004173294333276623,1.3379133528333618,0.0,0.004173294333276623,0.0
321,0,321,6.645802007969414,3.0,1.3379550857766946,0.0,0.004089828446610877,0.0,0.004089828446610877,0.0,0,0,0,0,0.004089828446610877,1.3379550857766946,0.0,0.004089828446610877,0.0
322,0,322,6.659181967810026,3.0,1.3379959840611608,0.0,0.0040080318776785084,0.0,0.0040080318776785084,0.0,0,0,0,0,0.0040080318776785084,1.3379959840611608,0.0,0.0040080318776785084,0.0
323,0,323,6.672562328453825,3.0,1.3380360643799376,0.0,0.003927871240124947,0.0,0.003927871240124947,0.0,0,0,0,0,0.003927871240124947,1.3380360643799376,0.0,0.003927871240124947,0.0
324,0,324,6.685943081884749,3.0,1.3380753430923389,0.0,0.003849313815322386,0.0,0.003849313815322386,0.0,0,0,0,0,0.003849313815322386,1.3380753430923389,0.0,0.003849313815322386,0.0
325,0,325,6.699324220247053,3.0,1.338113836230492,0.0,0.0037723275390160182,0.0,0.0037723275390160182,0.0,0,0,0,0,0.0037723275390160182,1.338113836230492,0.0,0.0037723275390160182,0.0
326,0,326,6.712705735842112,3.0,1.3381515595058822,0.0,0.00369688098823584,0.0,0.00369688098823584,0.0,0,0,0,0,0.00369688098823584,1.3381515595058822,0.0,0.00369688098823584,0.0
327,0,327,6.72608762112527,3.0,1.3381885283157646,0.0,0.00362294336847091,0.0,0.00362294336847091,0.0,0,0,0,0,0.00362294336847091,1.3381885283157646,0.0,0.00362294336847091,0.0
328,0,328,6.7394698687027645,3.0,1.3382247577494493,0.0,0.003550484501101625,0.0,0.003550484501101625,0.0,0,0,0,0,0.003550484501101625,1.3382247577494493,0.0,0.003550484501101625,0.0
329,0,329,6.752852471328709,3.0,1.3382602625944602,0.0,0.003479474811079797,0.0,0.003479474811079797,0.0,0,0,0,0,0.003479474811079797,1.3382602625944602,0.0,0.003479474811079797,0.0
330,0,330,6.766235421902135,3.0,1.338295057342571,0.0,0.0034098853148583075,0.0,0.0034098853148583075,0.0,0,0,0,0,0.0034098853148583075,1.338295057342571,0.0,0.0034098853148583075,0.0
331,0,331,6.7796187134640915,3.0,1.3383291561957196,0.0,0.003341687608561017,0.0,0.003341687608561017,0.0,0,0,0,0,0.003341687608561017,1.3383291561957196,0.0,0.003341687608561017,0.0
332,0,332,6.79300233919481,3.0,1.3383625730718052,0.0,0.0032748538563898144,0.0,0.0032748538563898144,0.0,0,0,0,0,0.0032748538563898144,1.3383625730718052,0.0,0.0032748538563898144,0.0
333,0,333,6.806386292410913,3.0,1.338395321610369,0.0,0.0032093567792621513,0.0,0.0032093567792621513,0.0,0,0,0,0,0.0032093567792621513,1.338395321610369,0.0,0.0032093567792621513,0.0
334,0,334,6.819770566562695,3.0,1.3384274151781617,0.0,0.0031451696436768373,0.0,0.0031451696436768373,0.0,0,0,0,0,0.0031451696436768373,1.3384274151781617,0.0,0.0031451696436768373,0.0
335,0,335,6.833155155231441,3.0,1.3384588668745985,0.0,0.0030822662508032117,0.0,0.0030822662508032117,0.0,0,0,0,0,0.0030822662508032117,1.3384588668745985,0.0,0.0030822662508032117,0.0
336,0,336,6.846540052126811,3.0,1.3384896895371066,0.0,0.003020620925787032,0.0,0.003020620925787032,0.0,0,0,0,0,0.003020620925787032,1.3384896895371066,0.0,0.003020620925787032,0.0
337,0,337,6.859925251084275,3.0,1.3385198957463644,0.0,0.0029602085072713002,0.0,0.0029602085072713002,0.0,0,0,0,0,0.0029602085072713002,1.3385198957463644,0.0,0.0029602085072713002,0.0
338,0,338,6.8733107460625895,3.0,1.3385494978314372,0.0,0.002901004337125812,0.0,0.002901004337125812,0.0,0,0,0,0,0.002901004337125812,1.3385494978314372,0.0,0.002901004337125812,0.0
339,0,339,6.886696531141338,3.0,1.3385785078748085,0.0,0.002842984250383207,0.0,0.002842984250383207,0.0,0,0,0,0,0.002842984250383207,1.3385785078748085,0.0,0.002842984250383207,0.0
340,0,340,6.900082600518511,3.0,1.3386069377173122,0.0,0.002786124565375747,0.0,0.002786124565375747,0.0,0,0,0,0,0.002786124565375747,1.3386069377173122,0.0,0.002786124565375747,0.0
341,0,341,6.91346894850814,3.0,1.3386347989629659,0.0,0.002730402074068383,0.0,0.002730402074068383,0.0,0,0,0,0,0.002730402074068383,1.3386347989629659,0.0,0.002730402074068383,0.0
342,0,342,6.926855569537977,3.0,1.3386621029837065,0.0,0.00267579403258722,0.0,0.00267579403258722,0.0,0,0,0,0,0.00267579403258722,1.3386621029837065,0.0,0.00267579403258722,0.0
343,0,343,6.9402424581472175,3.0,1.3386888609240324,0.0,0.0026222781519353866,0.0,0.0026222781519353866,0.0,0,0,0,0,0.0026222781519353866,1.3386888609240324,0.0,0.0026222781519353866,0.0
344,0,344,6.953629608984273,3.0,1.3387150837055517,0.0,0.002569832588896759,0.0,0.002569832588896759,0.0,0,0,0,0,0.002569832588896759,1.3387150837055517,0.0,0.002569832588896759,0.0
345,0,345,6.967017016804587,3.0,1.3387407820314408,0.0,0.002518435937118646,0.0,0.002518435937118646,0.0,0,0,0,0,0.002518435937118646,1.3387407820314408,0.0,0.002518435937118646,0.0
346,0,346,6.9804046764684955,3.0,1.338765966390812,0.0,0.002468067218376113,0.0,0.002468067218376113,0.0,0,0,0,0,0.002468067218376113,1.338765966390812,0.0,0.002468067218376113,0.0
347,0,347,6.993792582939125,3.0,1.3387906470629958,0.0,0.0024187058740086087,0.0,0.0024187058740086087,0.0,0,0,0,0,0.0024187058740086087,1.3387906470629958,0.0,0.0024187058740086087,0.0
348,0,348,7.007180731280343,3.0,1.3388148341217359,0.0,0.0023703317565284543,0.0,0.0023703317565284543,0.0,0,0,0,0,0.0023703317565284543,1.3388148341217359,0.0,0.0023703317565284543,0.0
349,0,349,7.020569116654736,3.0,1.338838537439301,0.0,0.0023229251213980895,0.0,0.0023229251213980895,0.0,0,0,0,0,0.0023229251213980895,1.338838537439301,0.0,0.0023229251213980895,0.0
350,0,350,7.033957734321641,3.0,1.338861766690515,0.0,0.0022764666189702965,0.0,0.0022764666189702965,0.0,0,0,0,0,0.0022764666189702965,1.338861766690515,0.0,0.0022764666189702965,0.0
351,0,351,7.0473465796352075,3.0,1.3388845313567046,0.0,0.0022309372865909616,0.0,0.0022309372865909616,0.0,0,0,0,0,0.0022309372865909616,1.3388845313567046,0.0,0.0022309372865909616,0.0
352,0,352,7.060735648042503,3.0,1.3389068407295706,0.0,0.0021863185408590446,0.0,0.0021863185408590446,0.0,0,0,0,0,0.0021863185408590446,1.3389068407295706,0.0,0.0021863185408590446,0.0
353,0,353,7.074124935081653,3.0,1.338928703914979,0.0,0.002142592170041979,0.0,0.002142592170041979,0.0,0,0,0,0,0.002142592170041979,1.338928703914979,0.0,0.002142592170041979,0.0
354,0,354,7.08751443638002,3.0,1.3389501298366795,0.0,0.002099740326641175,0.0,0.002099740326641175,0.0,0,0,0,0,0.002099740326641175,1.3389501298366795,0.0,0.002099740326641175,0.0
355,0,355,7.100904147652419,3.0,1.3389711272399458,0.0,0.0020577455201085115,0.0,0.0020577455201085115,0.0,0,0,0,0,0.0020577455201085115,1.3389711272399458,0.0,0.0020577455201085115,0.0
356,0,356,7.11429406469937,3.0,1.338991704695147,0.0,0.0020165906097062702,0.0,0.0020165906097062702,0.0,0,0,0,0,0.0020165906097062702,1.338991704695147,0.0,0.0020165906097062702,0.0
357,0,357,7.127684183405383,3.0,1.339011870601244,0.0,0.001976258797512287,0.0,0.001976258797512287,0.0,0,0,0,0,0.001976258797512287,1.339011870601244,0.0,0.001976258797512287,0.0
358,0,358,7.141074499737275,3.0,1.3390316331892191,0.0,0.0019367336215618813,0.0,0.0019367336215618813,0.0,0,0,0,0,0.0019367336215618813,1.3390316331892191,0.0,0.0019367336215618813,0.0
359,0,359,7.1544650097425295,3.0,1.3390510005254348,0.0,0.0018979989491305638,0.0,0.0018979989491305638,0.0,0,0,0,0,0.0018979989491305638,1.3390510005254348,0.0,0.0018979989491305638,0.0
360,0,360,7.167855709547679,3.0,1.3390699805149262,0.0,0.0018600389701477482,0.0,0.0018600389701477482,0.0,0,0,0,0,0.0018600389701477482,1.3390699805149262,0.0,0.0018600389701477482,0.0
361,0,361,7.181246595356725,3.0,1.3390885809046278,0.0,0.00182283819074458,0.0,0.00182283819074458,0.0,0,0,0,0,0.00182283819074458,1.3390885809046278,0.0,0.00182283819074458,0.0
362,0,362,7.19463766344959,3.0,1.3391068092865352,0.0,0.0017863814269296618,0.0,0.0017863814269296618,0.0,0,0,0,0,0.0017863814269296618,1.3391068092865352,0.0,0.0017863814269296618,0.0
363,0,363,7.208028910180598,3.0,1.3391246731008046,0.0,0.0017506537983908999,0.0,0.0017506537983908999,0.0,0,0,0,0,0.0017506537983908999,1.3391246731008046,0.0,0.0017506537983908999,0.0
364,0,364,7.221420331976986,3.0,1.3391421796387886,0.0,0.0017156407224230286,0.0,0.0017156407224230286,0.0,0,0,0,0,0.0017156407224230286,1.3391421796387886,0.0,0.0017156407224230286,0.0
365,0,365,7.234811925337445,3.0,1.3391593360460128,0.0,0.0016813279079745946,0.0,0.0016813279079745946,0.0,0,0,0,0,0.0016813279079745946,1.3391593360460128,0.0,0.0016813279079745946,0.0
366,0,366,7.2482036868306965,3.0,1.3391761493250924,0.0,0.0016477013498152893,0.0,0.0016477013498152893,0.0,0,0,0,0,0.0016477013498152893,1.3391761493250924,0.0,0.0016477013498152893,0.0
367,0,367,7.261595613094082,3.0,1.3391926263385905,0.0,0.0016147473228191878,0.0,0.0016147473228191878,0.0,0,0,0,0,0.0016147473228191878,1.3391926263385905,0.0,0.0016147473228191878,0.0
368,0,368,7.274987700832201,3.0,1.3392087738118186,0.0,0.0015824523763630083,0.0,0.0015824523763630083,0.0,0,0,0,0,0.0015824523763630083,1.3392087738118186,0.0,0.0015824523763630083,0.0
369,0,369,7.288379946815557,3.0,1.3392245983355822,0.0,0.001550803328835837,0.0,0.001550803328835837,0.0,0,0,0,0,0.001550803328835837,1.3392245983355822,0.0,0.001550803328835837,0.0
370,0,370,7.301772347879245,3.0,1.3392401063688706,0.0,0.001519787262258987,0.0,0.001519787262258987,0.0,0,0,0,0,0.001519787262258987,1.3392401063688706,0.0,0.001519787262258987,0.0
371,0,371,7.31516490092166,3.0,1.3392553042414932,0.0,0.0014893915170137717,0.0,0.0014893915170137717,0.0,0,0,0,0,0.0014893915170137717,1.3392553042414932,0.0,0.0014893915170137717,0.0
372,0,372,7.328557602903227,3.0,1.3392701981566633,0.0,0.0014596036866736384,0.0,0.0014596036866736384,0.0,0,0,0,0,0.0014596036866736384,1.3392701981566633,0.0,0.0014596036866736384,0.0
373,0,373,7.341950450845162,3.0,1.33928479419353,0.0,0.001430411612940219,0.0,0.001430411612940219,0.0,0,0,0,0,0.001430411612940219,1.33928479419353,0.0,0.001430411612940219,0.0
374,0,374,7.355343441828259,3.0,1.3392990983096593,0.0,0.001401803380681521,0.0,0.001401803380681521,0.0,0,0,0,0,0.001401803380681521,1.3392990983096593,0.0,0.001401803380681521,0.0
375,0,375,7.368736572991693,3.0,1.3393131163434662,0.0,0.0013737673130678196,0.0,0.0013737673130678196,0.0,0,0,0,0,0.0013737673130678196,1.3393131163434662,0.0,0.0013737673130678196,0.0
376,0,376,7.382129841531859,3.0,1.3393268540165968,0.0,0.0013462919668065787,0.0,0.0013462919668065787,0.0,0,0,0,0,0.0013462919668065787,1.3393268540165968,0.0,0.0013462919668065787,0.0
377,0,377,7.395523244701222,3.0,1.3393403169362648,0.0,0.0013193661274706336,0.0,0.0013193661274706336,0.0,0,0,0,0,0.0013193661274706336,1.3393403169362648,0.0,0.0013193661274706336,0.0
378,0,378,7.408916779807197,3.0,1.3393535105975394,0.0,0.0012929788049214075,0.0,0.0012929788049214075,0.0,0,0,0,0,0.0012929788049214075,1.3393535105975394,0.0,0.0012929788049214075,0.0
379,0,379,7.422310444211053,3.0,1.3393664403855885,0.0,0.0012671192288231659,0.0,0.0012671192288231659,0.0,0,0,0,0,0.0012671192288231659,1.3393664403855885,0.0,0.0012671192288231659,0.0
380,0,380,7.435704235326832,3.0,1.3393791115778768,0.0,0.0012417768442465338,0.0,0.0012417768442465338,0.0,0,0,0,0,0.0012417768442465338,1.3393791115778768,0.0,0.0012417768442465338,0.0
381,0,381,7.449098150620295,3.0,1.3393915293463192,0.0,0.0012169413073617186,0.0,0.0012169413073617186,0.0,0,0,0,0,0.0012169413073617186,1.3393915293463192,0.0,0.0012169413073617186,0.0
382,0,382,7.462492187607889,3.0,1.339403698759393,0.0,0.0011926024812143332,0.0,0.0011926024812143332,0.0,0,0,0,0,0.0011926024812143332,1.339403698759393,0.0,0.0011926024812143332,0.0
383,0,383,7.4758863438557315,3.0,1.339415624784205,0.0,0.0011687504315900377,0.0,0.0011687504315900377,0.0,0,0,0,0,0.0011687504315900377,1.339415624784205,0.0,0.0011687504315900377,0.0
384,0,384,7.489280616978617,3.0,1.339427312288521,0.0,0.001145375422958228,0.0,0.001145375422958228,0.0,0,0,0,0,0.001145375422958228,1.339427312288521,0.0,0.001145375422958228,0.0
385,0,385,7.502675004639044,3.0,1.3394387660427505,0.0,0.0011224679144992145,0.0,0.0011224679144992145,0.0,0,0,0,0,0.0011224679144992145,1.3394387660427505,0.0,0.0011224679144992145,0.0
386,0,386,7.516069504546262,3.0,1.3394499907218955,0.0,0.0011000185562091147,0.0,0.0011000185562091147,0.0,0,0,0,0,0.0011000185562091147,1.3394499907218955,0.0,0.0011000185562091147,0.0
387,0,387,7.529464114455337,3.0,1.3394609909074575,0.0,0.0010780181850851278,0.0,0.0010780181850851278,0.0,0,0,0,0,0.0010780181850851278,1.3394609909074575,0.0,0.0010780181850851278,0.0
388,0,388,7.54285883216623,3.0,1.3394717710893083,0.0,0.0010564578213836384,0.0,0.0010564578213836384,0.0,0,0,0,0,0.0010564578213836384,1.3394717710893083,0.0,0.0010564578213836384,0.0
389,0,389,7.556253655522905,3.0,1.339482335667522,0.0,0.0010353286649560367,0.0,0.0010353286649560367,0.0,0,0,0,0,0.0010353286649560367,1.339482335667522,0.0,0.0010353286649560367,0.0
390,0,390,7.569648582412447,3.0,1.3394926889541716,0.0,0.0010146220916569249,0.0,0.0010146220916569249,0.0,0,0,0,0,0.0010146220916569249,1.3394926889541716,0.0,0.0010146220916569249,0.0
391,0,391,7.583043610764198,3.0,1.3395028351750882,0.0,0.0009943296498238219,0.0,0.0009943296498238219,0.0,0,0,0,0,0.0009943296498238219,1.3395028351750882,0.0,0.0009943296498238219,0.0
392,0,392,7.5964387385489145,3.0,1.3395127784715863,0.0,0.0009744430568274787,0.0,0.0009744430568274787,0.0,0,0,0,0,0.0009744430568274787,1.3395127784715863,0.0,0.0009744430568274787,0.0
393,0,393,7.609833963777936,3.0,1.3395225229021546,0.0,0.0009549541956910268,0.0,0.0009549541956910268,0.0,0,0,0,0,0.0009549541956910268,1.3395225229021546,0.0,0.0009549541956910268,0.0
394,0,394,7.623229284502377,3.0,1.3395320724441115,0.0,0.000935855111777073,0.0,0.000935855111777073,0.0,0,0,0,0,0.000935855111777073,1.3395320724441115,0.0,0.000935855111777073,0.0
395,0,395,7.636624698812329,3.0,1.3395414309952294,0.0,0.0009171380095414072,0.0,0.0009171380095414072,0.0,0,0,0,0,0.0009171380095414072,1.3395414309952294,0.0,0.0009171380095414072,0.0
396,0,396,7.650020204836083,3.0,1.3395506023753248,0.0,0.000898795249350659,0.0,0.000898795249350659,0.0,0,0,0,0,0.000898795249350659,1.3395506023753248,0.0,0.000898795249350659,0.0
397,0,397,7.663415800739361,3.0,1.3395595903278184,0.0,0.0008808193443634593,0.0,0.0008808193443634593,0.0,0,0,0,0,0.0008808193443634593,1.3395595903278184,0.0,0.0008808193443634593,0.0
398,0,398,7.676811484724573,3.0,1.339568398521262,0.0,0.0008632029574759947,0.0,0.0008632029574759947,0.0,0,0,0,0,0.0008632029574759947,1.339568398521262,0.0,0.0008632029574759947,0.0
399,0,399,7.6902072550300815,3.0,1.3395770305508368,0.0,0.0008459388983266258,0.0,0.0008459388983266258,0.0,0,0,0,0,0.0008459388983266258,1.3395770305508368,0.0,0.0008459388983266258,0.0
