,agent_id,step,position_x,position_y,velocity_x,velocity_y,resultant_x,resultant_y,time_relaxation_x,time_relaxation_y,agent_repulsion_x,agent_repulsion_y,border_repulsion_x,border_repulsion_y,resultant_mag,velocity_mag,agent_repulsion_mag,time_relaxation_mag,border_repulsion_mag
0,0,0,3.0,3.0,0.0,0.0,13.4,0.0,13.4,0.0,0,0,0,0,13.4,0.0,0.0,13.4,0.0
1,0,1,3.00134,3.0,0.134,0.0,12.059999999999999,0.0,12.059999999999999,0.0,0,0,0,0,12.059999999999999,0.134,0.0,12.059999999999999,0.0
2,0,2,3.003886,3.0,0.2546,0.0,10.854000000000001,0.0,10.854000000000001,0.0,0,0,0,0,10.854000000000001,0.2546,0.0,10.854000000000001,0.0
3,0,3,3.0075174000000002,3.0,0.36314,0.0,9.7686,0.0,9.7686,0.0,0,0,0,0,9.7686,0.36314,0.0,9.7686,0.0
4,0,4,3.01212566,3.0,0.460826,0.0,8.79174,0.0,8.79174,0.0,0,0,0,0,8.79174,0.460826,0.0,8.79174,0.0
5,0,5,3.017613094,3.0,0.5487434,0.0,7.912566000000001,0.0,7.912566000000001,0.0,0,0,0,0,7.912566000000001,0.5487434,0.0,7.912566000000001,0.0
6,0,6,3.0238917846,3.0,0.62786906,0.0,7.1213094,0.0,7.1213094,0.0,0,0,0,0,7.1213094,0.62786906,0.0,7.1213094,0.0
7,0,7,3.03088260614,3.0,0.699082154,0.0,6.409178460000001,0.0,6.409178460000001,0.0,0,0,0,0,6.409178460000001,0.699082154,0.0,6.409178460000001,0.0
8,0,8,3.038514345526,3.0,0.7631739385999999,0.0,5.768260614000001,0.0,5.768260614000001,0.0,0,0,0,0,5.768260614000001,0.7631739385999999,0.0,5.768260614000001,0.0
9,0,9,3.0467229109733998,3.0,0.8208565447399999,0.0,5.191434552600001,0.0,5.191434552600001,0.0,0,0,0,0,5.191434552600001,0.8208565447399999,0.0,5.191434552600001,0.0
10,0,10,3.05545061987606,3.0,0.872770890266,0.0,4.6722910973400005,0.0,4.6722910973400005,0.0,0,0,0,0,4.6722910973400005,0.872770890266,0.0,4.6722910973400005,0.0
11,0,11,3.0646455578884537,3.0,0.9194938012393999,0.0,4.205061987606001,0.0,4.205061987606001,0.0,0,0,0,0,4.205061987606001,0.9194938012393999,0.0,4.205061987606001,0.0
12,0,12,3.0742610020996084,3.0,0.96154442111546,0.0,3.7845557888454007,0.0,3.7845557888454007,0.0,0,0,0,0,3.7845557888454007,0.96154442111546,0.0,3.7845557888454007,0.0
13,0,13,3.0842549018896475,3.0,0.999389979003914,0.0,3.4061002099608606,0.0,3.4061002099608606,0.0,0,0,0,0,3.4061002099608606,0.999389979003914,0.0,3.4061002099608606,0.0
14,0,14,3.0945894117006825,3.0,1.0334509811035226,0.0,3.0654901889647745,0.0,3.0654901889647745,0.0,0,0,0,0,3.0654901889647745,1.0334509811035226,0.0,3.0654901889647745,0.0
15,0,15,3.105230470530614,3.0,1.0641058829931704,0.0,2.7589411700682964,0.0,2.7589411700682964,0.0,0,0,0,0,2.7589411700682964,1.0641058829931704,0.0,2.7589411700682964,0.0
16,0,16,3.116147423477553,3.0,1.0916952946938534,0.0,2.483047053061467,0.0,2.483047053061467,0.0,0,0,0,0,2.483047053061467,1.0916952946938534,0.0,2.483047053061467,0.0
17,0,17,3.1273126811297973,3.0,1.116525765224468,0.0,2.2347423477553208,0.0,2.2347423477553208,0.0,0,0,0,0,2.2347423477553208,1.116525765224468,0.0,2.2347423477553208,0.0
18,0,18,3.1387014130168174,3.0,1.1388731887020211,0.0,2.0112681129797894,0.0,2.0112681129797894,0.0,0,0,0,0,2.0112681129797894,1.1388731887020211,0.0,2.0112681129797894,0.0
19,0,19,3.1502912717151355,3.0,1.158985869831819,0.0,1.8101413016818113,0.0,1.8101413016818113,0.0,0,0,0,0,1.8101413016818113,1.158985869831819,0.0,1.8101413016818113,0.0
20,0,20,3.1620621445436217,3.0,1.1770872828486372,0.0,1.629127171513629,0.0,1.629127171513629,0.0,0,0,0,0,1.629127171513629,1.1770872828486372,0.0,1.629127171513629,0.0
21,0,21,3.1739959300892595,3.0,1.1933785545637734,0.0,1.4662144543622668,0.0,1.4662144543622668,0.0,0,0,0,0,1.4662144543622668,1.1933785545637734,0.0,1.4662144543622668,0.0
22,0,22,3.1860763370803333,3.0,1.208040699107396,0.0,1.319593008926041,0.0,1.319593008926041,0.0,0,0,0,0,1.319593008926041,1.208040699107396,0.0,1.319593008926041,0.0
23,0,23,3.1982887033722998,3.0,1.2212366291966563,0.0,1.1876337080334376,0.0,1.1876337080334376,0.0,0,0,0,0,1.1876337080334376,1.2212366291966563,0.0,1.1876337080334376,0.0
24,0,24,3.2106198330350697,3.0,1.2331129662769906,0.0,1.0688703372300945,0.0,1.0688703372300945,0.0,0,0,0,0,1.0688703372300945,1.2331129662769906,0.0,1.0688703372300945,0.0
25,0,25,3.2230578497315627,3.0,1.2438016696492915,0.0,0.9619833035070857,0.0,0.9619833035070857,0.0,0,0,0,0,0.9619833035070857,1.2438016696492915,0.0,0.9619833035070857,0.0
26,0,26,3.235592064758406,3.0,1.2534215026843625,0.0,0.865784973156376,0.0,0.865784973156376,0.0,0,0,0,0,0.865784973156376,1.2534215026843625,0.0,0.865784973156376,0.0
27,0,27,3.2482128582825656,3.0,1.2620793524159262,0.0,0.7792064758407391,0.0,0.7792064758407391,0.0,0,0,0,0,0.7792064758407391,1.2620793524159262,0.0,0.7792064758407391,0.0
28,0,28,3.260911572454309,3.0,1.2698714171743335,0.0,0.7012858282566659,0.0,0.7012858282566659,0.0,0,0,0,0,0.7012858282566659,1.2698714171743335,0.0,0.7012858282566659,0.0
29,0,29,3.273680415208878,3.0,1.2768842754569,0.0,0.6311572454309999,0.0,0.6311572454309999,0.0,0,0,0,0,0.6311572454309999,1.2768842754569,0.0,0.6311572454309999,0.0
30,0,30,3.28651237368799,3.0,1.28319584791121,0.0,0.5680415208879008,0.0,0.5680415208879008,0.0,0,0,0,0,0.5680415208879008,1.28319584791121,0.0,0.5680415208879008,0.0
31,0,31,3.299401136319191,3.0,1.288876263120089,0.0,0.5112373687991112,0.0,0.5112373687991112,0.0,0,0,0,0,0.5112373687991112,1.288876263120089,0.0,0.5112373687991112,0.0
32,0,32,3.312341022687272,3.0,1.2939886368080802,0.0,0.46011363191919896,0.0,0.46011363191919896,0.0,0,0,0,0,0.46011363191919896,1.2939886368080802,0.0,0.46011363191919896,0.0
33,0,33,3.325326920418545,3.0,1.2985897731272722,0.0,0.41410226872727884,0.0,0.41410226872727884,0.0,0,0,0,0,0.41410226872727884,1.2985897731272722,0.0,0.41410226872727884,0.0
34,0,34,3.3383542283766903,3.0,1.3027307958145449,0.0,0.37269204185455207,0.0,0.37269204185455207,0.0,0,0,0,0,0.37269204185455207,1.3027307958145449,0.0,0.37269204185455207,0.0
35,0,35,3.351418805539021,3.0,1.3064577162330904,0.0,0.3354228376690971,0.0,0.3354228376690971,0.0,0,0,0,0,0.3354228376690971,1.3064577162330904,0.0,0.3354228376690971,0.0
36,0,36,3.364516924985119,3.0,1.3098119446097813,0.0,0.3018805539021874,0.0,0.3018805539021874,0.0,0,0,0,0,0.3018805539021874,1.3098119446097813,0.0,0.3018805539021874,0.0
37,0,37,3.3776452324866066,3.0,1.3128307501488032,0.0,0.2716924985119684,0.0,0.2716924985119684,0.0,0,0,0,0,0.2716924985119684,1.3128307501488032,0.0,0.2716924985119684,0.0
38,0,38,3.3908007092379457,3.0,1.315547675133923,0.0,0.2445232486607707,0.0,0.2445232486607707,0.0,0,0,0,0,0.2445232486607707,1.315547675133923,0.0,0.2445232486607707,0.0
39,0,39,3.403980638314151,3.0,1.3179929076205308,0.0,0.22007092379469295,0.0,0.22007092379469295,0.0,0,0,0,0,0.22007092379469295,1.3179929076205308,0.0,0.22007092379469295,0.0
40,0,40,3.417182574482736,3.0,1.3201936168584778,0.0,0.19806383141522277,0.0,0.19806383141522277,0.0,0,0,0,0,0.19806383141522277,1.3201936168584778,0.0,0.19806383141522277,0.0
41,0,41,3.4304043170344625,3.0,1.32217425517263,0.0,0.17825744827369983,0.0,0.17825744827369983,0.0,0,0,0,0,0.17825744827369983,1.32217425517263,0.0,0.17825744827369983,0.0
42,0,42,3.4436438853310163,3.0,1.323956829655367,0.0,0.16043170344633095,0.0,0.16043170344633095,0.0,0,0,0,0,0.16043170344633095,1.323956829655367,0.0,0.16043170344633095,0.0
43,0,43,3.4568994967979148,3.0,1.3255611466898303,0.0,0.14438853310169808,0.0,0.14438853310169808,0.0,0,0,0,0,0.14438853310169808,1.3255611466898303,0.0,0.14438853310169808,0.0
44,0,44,3.470169547118123,3.0,1.3270050320208473,0.0,0.12994967979152783,0.0,0.12994967979152783,0.0,0,0,0,0,0.12994967979152783,1.3270050320208473,0.0,0.12994967979152783,0.0
45,0,45,3.483452592406311,3.0,1.3283045288187625,0.0,0.11695471181237593,0.0,0.11695471181237593,0.0,0,0,0,0,0.11695471181237593,1.3283045288187625,0.0,0.11695471181237593,0.0
46,0,46,3.4967473331656795,3.0,1.3294740759368862,0.0,0.10525924063113923,0.0,0.10525924063113923,0.0,0,0,0,0,0.10525924063113923,1.3294740759368862,0.0,0.10525924063113923,0.0
47,0,47,3.5100525998491117,3.0,1.3305266683431975,0.0,0.0947333165680253,0.0,0.0947333165680253,0.0,0,0,0,0,0.0947333165680253,1.3305266683431975,0.0,0.0947333165680253,0.0
48,0,48,3.5233673398642003,3.0,1.3314740015088777,0.0,0.08525998491122344,0.0,0.08525998491122344,0.0,0,0,0,0,0.08525998491122344,1.3314740015088777,0.0,0.08525998491122344,0.0
49,0,49,3.53669060587778,3.0,1.33232660135799,0.0,0.0767339864201011,0.0,0.0767339864201011,0.0,0,0,0,0,0.0767339864201011,1.33232660135799,0.0,0.0767339864201011,0.0
50,0,50,3.550021545290002,3.0,1.333093941222191,0.0,0.06906058777809143,0.0,0.06906058777809143,0.0,0,0,0,0,0.06906058777809143,1.333093941222191,0.0,0.06906058777809143,0.0
51,0,51,3.563359390761002,3.0,1.3337845470999719,0.0,0.06215452900028229,0.0,0.06215452900028229,0.0,0,0,0,0,0.06215452900028229,1.3337845470999719,0.0,0.06215452900028229,0.0
52,0,52,3.5767034516849017,3.0,1.3344060923899748,0.0,0.05593907610025317,0.0,0.05593907610025317,0.0,0,0,0,0,0.05593907610025317,1.3344060923899748,0.0,0.05593907610025317,0.0
53,0,53,3.5900531065164114,3.0,1.3349654831509774,0.0,0.050345168490226744,0.0,0.050345168490226744,0.0,0,0,0,0,0.050345168490226744,1.3349654831509774,0.0,0.050345168490226744,0.0
54,0,54,3.6034077958647703,3.0,1.3354689348358797,0.0,0.04531065164120385,0.0,0.04531065164120385,0.0,0,0,0,0,0.04531065164120385,1.3354689348358797,0.0,0.04531065164120385,0.0
55,0,55,3.6167670162782932,3.0,1.3359220413522916,0.0,0.04077958647708435,0.0,0.04077958647708435,0.0,0,0,0,0,0.04077958647708435,1.3359220413522916,0.0,0.04077958647708435,0.0
56,0,56,3.6301303146504638,3.0,1.3363298372170624,0.0,0.03670162782937636,0.0,0.03670162782937636,0.0,0,0,0,0,0.03670162782937636,1.3363298372170624,0.0,0.03670162782937636,0.0
57,0,57,3.6434972831854173,3.0,1.3366968534953563,0.0,0.03303146504643806,0.0,0.03303146504643806,0.0,0,0,0,0,0.03303146504643806,1.3366968534953563,0.0,0.03303146504643806,0.0
58,0,58,3.6568675548668756,3.0,1.3370271681458206,0.0,0.02972831854179514,0.0,0.02972831854179514,0.0,0,0,0,0,0.02972831854179514,1.3370271681458206,0.0,0.02972831854179514,0.0
59,0,59,3.670240799380188,3.0,1.3373244513312386,0.0,0.026755486687615182,0.0,0.026755486687615182,0.0,0,0,0,0,0.026755486687615182,1.3373244513312386,0.0,0.026755486687615182,0.0
60,0,60,3.683616719442169,3.0,1.3375920061981148,0.0,0.024079938018852776,0.0,0.024079938018852776,0.0,0,0,0,0,0.024079938018852776,1.3375920061981148,0.0,0.024079938018852776,0.0
61,0,61,3.696995047497952,3.0,1.3378328055783033,0.0,0.02167194421696772,0.0,0.02167194421696772,0.0,0,0,0,0,0.02167194421696772,1.3378328055783033,0.0,0.02167194421696772,0.0
62,0,62,3.7103755427481566,3.0,1.338049525020473,0.0,0.019504749795271614,0.0,0.019504749795271614,0.0,0,0,0,0,0.019504749795271614,1.338049525020473,0.0,0.019504749795271614,0.0
63,0,63,3.723757988473341,3.0,1.3382445725184255,0.0,0.01755427481574534,0.0,0.01755427481574534,0.0,0,0,0,0,0.01755427481574534,1.3382445725184255,0.0,0.01755427481574534,0.0
64,0,64,3.737142189626007,3.0,1.338420115266583,0.0,0.015798847334169697,0.0,0.015798847334169697,0.0,0,0,0,0,0.015798847334169697,1.338420115266583,0.0,0.015798847334169697,0.0
65,0,65,3.750527970663406,3.0,1.3385781037399247,0.0,0.014218962600753837,0.0,0.014218962600753837,0.0,0,0,0,0,0.014218962600753837,1.3385781037399247,0.0,0.014218962600753837,0.0
66,0,66,3.7639151735970655,3.0,1.3387202933659323,0.0,0.012797066340677343,0.0,0.012797066340677343,0.0,0,0,0,0,0.012797066340677343,1.3387202933659323,0.0,0.012797066340677343,0.0
67,0,67,3.777303656237359,3.0,1.338848264029339,0.0,0.011517359706609831,0.0,0.011517359706609831,0.0,0,0,0,0,0.011517359706609831,1.338848264029339,0.0,0.011517359706609831,0.0
68,0,68,3.790693290613623,3.0,1.3389634376264052,0.0,0.010365623735948404,0.0,0.010365623735948404,0.0,0,0,0,0,0.010365623735948404,1.3389634376264052,0.0,0.010365623735948404,0.0
69,0,69,3.804083961552261,3.0,1.3390670938637648,0.0,0.00932906136235312,0.0,0.00932906136235312,0.0,0,0,0,0,0.00932906136235312,1.3390670938637648,0.0,0.00932906136235312,0.0
70,0,70,3.8174755653970345,3.0,1.3391603844773883,0.0,0.00839615522611803,0.0,0.00839615522611803,0.0,0,0,0,0,0.00839615522611803,1.3391603844773883,0.0,0.00839615522611803,0.0
71,0,71,3.830868008857331,3.0,1.3392443460296495,0.0,0.0075565397035060045,0.0,0.0075565397035060045,0.0,0,0,0,0,0.0075565397035060045,1.3392443460296495,0.0,0.0075565397035060045,0.0
72,0,72,3.844261207971598,3.0,1.3393199114266845,0.0,0.006800885733155848,0.0,0.006800885733155848,0.0,0,0,0,0,0.006800885733155848,1.3393199114266845,0.0,0.006800885733155848,0.0
73,0,73,3.857655087174438,3.0,1.339387920284016,0.0,0.006120797159840929,0.0,0.006120797159840929,0.0,0,0,0,0,0.006120797159840929,1.339387920284016,0.0,0.006120797159840929,0.0
74,0,74,3.8710495784569945,3.0,1.3394491282556145,0.0,0.00550871744385617,0.0,0.00550871744385617,0.0,0,0,0,0,0.00550871744385617,1.3394491282556145,0.0,0.00550871744385617,0.0
75,0,75,3.884444620611295,3.0,1.339504215430053,0.0,0.0049578456994714415,0.0,0.0049578456994714415,0.0,0,0,0,0,0.0049578456994714415,1.339504215430053,0.0,0.0049578456994714415,0.0
76,0,76,3.8978401585501654,3.0,1.3395537938870477,0.0,0.004462061129524297,0.0,0.004462061129524297,0.0,0,0,0,0,0.004462061129524297,1.3395537938870477,0.0,0.004462061129524297,0.0
77,0,77,3.9112361426951487,3.0,1.3395984144983428,0.0,0.004015855016572534,0.0,0.004015855016572534,0.0,0,0,0,0,0.004015855016572534,1.3395984144983428,0.0,0.004015855016572534,0.0
78,0,78,3.924632528425634,3.0,1.3396385730485085,0.0,0.0036142695149155024,0.0,0.0036142695149155024,0.0,0,0,0,0,0.0036142695149155024,1.3396385730485085,0.0,0.0036142695149155024,0.0
79,0,79,3.9380292755830704,3.0,1.3396747157436577,0.0,0.00325284256342373,0.0,0.00325284256342373,0.0,0,0,0,0,0.00325284256342373,1.3396747157436577,0.0,0.00325284256342373,0.0
80,0,80,3.9514263480247633,3.0,1.3397072441692919,0.0,0.0029275583070820232,0.0,0.0029275583070820232,0.0,0,0,0,0,0.0029275583070820232,1.3397072441692919,0.0,0.0029275583070820232,0.0
81,0,81,3.964823713222287,3.0,1.3397365197523627,0.0,0.002634802476373377,0.0,0.002634802476373377,0.0,0,0,0,0,0.002634802476373377,1.3397365197523627,0.0,0.002634802476373377,0.0
82,0,82,3.978221341900058,3.0,1.3397628677771265,0.0,0.002371322228735817,0.0,0.002371322228735817,0.0,0,0,0,0,0.002371322228735817,1.3397628677771265,0.0,0.002371322228735817,0.0
83,0,83,3.9916192077100523,3.0,1.3397865809994138,0.0,0.0021341900058624574,0.0,0.0021341900058624574,0.0,0,0,0,0,0.0021341900058624574,1.3397865809994138,0.0,0.0021341900058624574,0.0
84,0,84,4.005017286939047,3.0,1.3398079228994724,0.0,0.0019207710052770999,0.0,0.0019207710052770999,0.0,0,0,0,0,0.0019207710052770999,1.3398079228994724,0.0,0.0019207710052770999,0.0
85,0,85,4.018415558245143,3.0,1.339827130609525,0.0,0.001728693904750056,0.0,0.001728693904750056,0.0,0,0,0,0,0.001728693904750056,1.339827130609525,0.0,0.001728693904750056,0.0
86,0,86,4.031814002420628,3.0,1.3398444175485726,0.0,0.0015558245142743843,0.0,0.0015558245142743843,0.0,0,0,0,0,0.0015558245142743843,1.3398444175485726,0.0,0.0015558245142743843,0.0
87,0,87,4.045212602178565,3.0,1.3398599757937153,0.0,0.001400242062847834,0.0,0.001400242062847834,0.0,0,0,0,0,0.001400242062847834,1.3398599757937153,0.0,0.001400242062847834,0.0
88,0,88,4.058611341960709,3.0,1.3398739782143438,0.0,0.0012602178565623845,0.0,0.0012602178565623845,0.0,0,0,0,0,0.0012602178565623845,1.3398739782143438,0.0,0.0012602178565623845,0.0
89,0,89,4.072010207764638,3.0,1.3398865803929094,0.0,0.0011341960709065901,0.0,0.0011341960709065901,0.0,0,0,0,0,0.0011341960709065901,1.3398865803929094,0.0,0.0011341960709065901,0.0
90,0,90,4.085409186988175,3.0,1.3398979223536185,0.0,0.0010207764638159311,0.0,0.0010207764638159311,0.0,0,0,0,0,0.0010207764638159311,1.3398979223536185,0.0,0.0010207764638159311,0.0
91,0,91,4.098808268289357,3.0,1.3399081301182567,0.0,0.0009186988174336719,0.0,0.0009186988174336719,0.0,0,0,0,0,0.0009186988174336719,1.3399081301182567,0.0,0.0009186988174336719,0.0
92,0,92,4.112207441460421,3.0,1.3399173171064311,0.0,0.0008268289356894165,0.0,0.0008268289356894165,0.0,0,0,0,0,0.0008268289356894165,1.3399173171064311,0.0,0.0008268289356894165,0.0
93,0,93,4.125606697314379,3.0,1.339925585395788,0.0,0.0007441460421198087,0.0,0.0007441460421198087,0.0,0,0,0,0,0.0007441460421198087,1.339925585395788,0.0,0.0007441460421198087,0.0
94,0,94,4.1390060275829414,3.0,1.3399330268562093,0.0,0.0006697314379078279,0.0,0.0006697314379078279,0.0,0,0,0,0,0.0006697314379078279,1.3399330268562093,0.0,0.0006697314379078279,0.0
95,0,95,4.152405424824647,3.0,1.3399397241705884,0.0,0.0006027582941170451,0.0,0.0006027582941170451,0.0,0,0,0,0,0.0006027582941170451,1.3399397241705884,0.0,0.0006027582941170451,0.0
96,0,96,4.165804882342183,3.0,1.3399457517535296,0.0,0.0005424824647048965,0.0,0.0005424824647048965,0.0,0,0,0,0,0.0005424824647048965,1.3399457517535296,0.0,0.0005424824647048965,0.0
97,0,97,4.179204394107964,3.0,1.3399511765781766,0.0,0.0004882342182344068,0.0,0.0004882342182344068,0.0,0,0,0,0,0.0004882342182344068,1.3399511765781766,0.0,0.0004882342182344068,0.0
98,0,98,4.192603954697168,3.0,1.339956058920359,0.0,0.0004394107964111882,0.0,0.0004394107964111882,0.0,0,0,0,0,0.0004394107964111882,1.339956058920359,0.0,0.0004394107964111882,0.0
99,0,99,4.206003559227451,3.0,1.3399604530283231,0.0,0.0003954697167696253,0.0,0.0003954697167696253,0.0,0,0,0,0,0.0003954697167696253,1.3399604530283231,0.0,0.0003954697167696253,0.0
100,0,100,4.219403203304706,3.0,1.3399644077254909,0.0,0.00035592274509221866,0.0,0.00035592274509221866,0.0,0,0,0,0,0.00035592274509221866,1.3399644077254909,0.0,0.00035592274509221866,0.0
101,0,101,4.2328028829742355,3.0,1.3399679669529418,0.0,0.00032033047058233066,0.0,0.00032033047058233066,0.0,0,0,0,0,0.00032033047058233066,1.3399679669529418,0.0,0.00032033047058233066,0.0
102,0,102,4.246202594676812,3.0,1.3399711702576478,0.0,0.00028829742352298737,0.0,0.00028829742352298737,0.0,0,0,0,0,0.00028829742352298737,1.3399711702576478,0.0,0.00028829742352298737,0.0
103,0,103,4.259602335209131,3.0,1.3399740532318831,0.0,0.0002594676811695784,0.0,0.0002594676811695784,0.0,0,0,0,0,0.0002594676811695784,1.3399740532318831,0.0,0.0002594676811695784,0.0
104,0,104,4.273002101688218,3.0,1.3399766479086948,0.0,0.0002335209130532867,0.0,0.0002335209130532867,0.0,0,0,0,0,0.0002335209130532867,1.3399766479086948,0.0,0.0002335209130532867,0.0
105,0,105,4.286401891519396,3.0,1.3399789831178253,0.0,0.00021016882174818008,0.0,0.00021016882174818008,0.0,0,0,0,0,0.00021016882174818008,1.3399789831178253,0.0,0.00021016882174818008,0.0
106,0,106,4.299801702367456,3.0,1.3399810848060427,0.0,0.00018915193957358412,0.0,0.00018915193957358412,0.0,0,0,0,0,0.00018915193957358412,1.3399810848060427,0.0,0.00018915193957358412,0.0
107,0,107,4.3132015321307104,3.0,1.3399829763254385,0.0,0.00017023674561578162,0.0,0.00017023674561578162,0.0,0,0,0,0,0.00017023674561578162,1.3399829763254385,0.0,0.00017023674561578162,0.0
108,0,108,4.32660137891764,3.0,1.3399846786928946,0.0,0.00015321307105464754,0.0,0.00015321307105464754,0.0,0,0,0,0,0.00015321307105464754,1.3399846786928946,0.0,0.00015321307105464754,0.0
109,0,109,4.340001241025876,3.0,1.3399862108236051,0.0,0.00013789176394940483,0.0,0.00013789176394940483,0.0,0,0,0,0,0.00013789176394940483,1.3399862108236051,0.0,0.00013789176394940483,0.0
110,0,110,4.353401116923288,3.0,1.3399875897412445,0.0,0.00012410258755535253,0.0,0.00012410258755535253,0.0,0,0,0,0,0.00012410258755535253,1.3399875897412445,0.0,0.00012410258755535253,0.0
111,0,111,4.366801005230959,3.0,1.3399888307671202,0.0,0.00011169232879915114,0.0,0.00011169232879915114,0.0,0,0,0,0,0.00011169232879915114,1.3399888307671202,0.0,0.00011169232879915114,0.0
112,0,112,4.380200904707864,3.0,1.3399899476904082,0.0,0.00010052309591834785,0.0,0.00010052309591834785,0.0,0,0,0,0,0.00010052309591834785,1.3399899476904082,0.0,0.00010052309591834785,0.0
113,0,113,4.393600814237077,3.0,1.3399909529213674,0.0,9.047078632695715e-05,0.0,9.047078632695715e-05,0.0,0,0,0,0,9.047078632695715e-05,1.3399909529213674,0.0,9.047078632695715e-05,0.0
114,0,114,4.407000732813369,3.0,1.3399918576292307,0.0,8.14237076940394e-05,0.0,8.14237076940394e-05,0.0,0,0,0,0,8.14237076940394e-05,1.3399918576292307,0.0,8.14237076940394e-05,0.0
115,0,115,4.420400659532032,3.0,1.3399926718663075,0.0,7.328133692530159e-05,0.0,7.328133692530159e-05,0.0,0,0,0,0,7.328133692530159e-05,1.3399926718663075,0.0,7.328133692530159e-05,0.0
116,0,116,4.433800593578829,3.0,1.3399934046796769,0.0,6.59532032321053e-05,0.0,6.59532032321053e-05,0.0,0,0,0,0,6.59532032321053e-05,1.3399934046796769,0.0,6.59532032321053e-05,0.0
117,0,117,4.447200534220946,3.0,1.3399940642117092,0.0,5.9357882908894766e-05,0.0,5.9357882908894766e-05,0.0,0,0,0,0,5.9357882908894766e-05,1.3399940642117092,0.0,5.9357882908894766e-05,0.0
118,0,118,4.460600480798852,3.0,1.3399946577905384,0.0,5.3422094616895066e-05,0.0,5.3422094616895066e-05,0.0,0,0,0,0,5.3422094616895066e-05,1.3399946577905384,0.0,5.3422094616895066e-05,0.0
119,0,119,4.474000432718967,3.0,1.3399951920114845,0.0,4.8079885155427604e-05,0.0,4.8079885155427604e-05,0.0,0,0,0,0,4.8079885155427604e-05,1.3399951920114845,0.0,4.8079885155427604e-05,0.0
120,0,120,4.48740038944707,3.0,1.3399956728103362,0.0,4.327189663921871e-05,0.0,4.327189663921871e-05,0.0,0,0,0,0,4.327189663921871e-05,1.3399956728103362,0.0,4.327189663921871e-05,0.0
121,0,121,4.500800350502363,3.0,1.3399961055293026,0.0,3.894470697485275e-05,0.0,3.894470697485275e-05,0.0,0,0,0,0,3.894470697485275e-05,1.3399961055293026,0.0,3.894470697485275e-05,0.0
122,0,122,4.514200315452126,3.0,1.3399964949763723,0.0,3.5050236277811564e-05,0.0,3.5050236277811564e-05,0.0,0,0,0,0,3.5050236277811564e-05,1.3399964949763723,0.0,3.5050236277811564e-05,0.0
123,0,123,4.527600283906914,3.0,1.339996845478735,0.0,3.1545212650918586e-05,0.0,3.1545212650918586e-05,0.0,0,0,0,0,3.1545212650918586e-05,1.339996845478735,0.0,3.1545212650918586e-05,0.0
124,0,124,4.541000255516222,3.0,1.3399971609308614,0.0,2.8390691386714906e-05,0.0,2.8390691386714906e-05,0.0,0,0,0,0,2.8390691386714906e-05,1.3399971609308614,0.0,2.8390691386714906e-05,0.0
125,0,125,4.5544002299646,3.0,1.3399974448377754,0.0,2.5551622246933192e-05,0.0,2.5551622246933192e-05,0.0,0,0,0,0,2.5551622246933192e-05,1.3399974448377754,0.0,2.5551622246933192e-05,0.0
126,0,126,4.56780020696814,3.0,1.3399977003539978,0.0,2.2996460022906007e-05,0.0,2.2996460022906007e-05,0.0,0,0,0,0,2.2996460022906007e-05,1.3399977003539978,0.0,2.2996460022906007e-05,0.0
127,0,127,4.581200186271325,3.0,1.339997930318598,0.0,2.069681402039336e-05,0.0,2.069681402039336e-05,0.0,0,0,0,0,2.069681402039336e-05,1.339997930318598,0.0,2.069681402039336e-05,0.0
128,0,128,4.5946001676441925,3.0,1.3399981372867382,0.0,1.862713261857607e-05,0.0,1.862713261857607e-05,0.0,0,0,0,0,1.862713261857607e-05,1.3399981372867382,0.0,1.862713261857607e-05,0.0
129,0,129,4.608000150879773,3.0,1.3399983235580644,0.0,1.6764419357162552e-05,0.0,1.6764419357162552e-05,0.0,0,0,0,0,1.6764419357162552e-05,1.3399983235580644,0.0,1.6764419357162552e-05,0.0
130,0,130,4.621400135791796,3.0,1.339998491202258,0.0,1.5087977420780163e-05,0.0,1.5087977420780163e-05,0.0,0,0,0,0,1.5087977420780163e-05,1.339998491202258,0.0,1.5087977420780163e-05,0.0
131,0,131,4.634800122212616,3.0,1.3399986420820322,0.0,1.3579179678480102e-05,0.0,1.3579179678480102e-05,0.0,0,0,0,0,1.3579179678480102e-05,1.3399986420820322,0.0,1.3579179678480102e-05,0.0
132,0,132,4.648200109991355,3.0,1.339998777873829,0.0,1.222126171152027e-05,0.0,1.222126171152027e-05,0.0,0,0,0,0,1.222126171152027e-05,1.339998777873829,0.0,1.222126171152027e-05,0.0
133,0,133,4.661600098992219,3.0,1.339998900086446,0.0,1.0999135540146199e-05,0.0,1.0999135540146199e-05,0.0,0,0,0,0,1.0999135540146199e-05,1.339998900086446,0.0,1.0999135540146199e-05,0.0
134,0,134,4.675000089092997,3.0,1.3399990100778014,0.0,9.899221986575668e-06,0.0,9.899221986575668e-06,0.0,0,0,0,0,9.899221986575668e-06,1.3399990100778014,0.0,9.899221986575668e-06,0.0
135,0,135,4.688400080183697,3.0,1.3399991090700212,0.0,8.909299789028324e-06,0.0,8.909299789028324e-06,0.0,0,0,0,0,8.909299789028324e-06,1.3399991090700212,0.0,8.909299789028324e-06,0.0
136,0,136,4.701800072165327,3.0,1.339999198163019,0.0,8.018369810347536e-06,0.0,8.018369810347536e-06,0.0,0,0,0,0,8.018369810347536e-06,1.339999198163019,0.0,8.018369810347536e-06,0.0
137,0,137,4.715200064948794,3.0,1.3399992783467172,0.0,7.216532829090738e-06,0.0,7.216532829090738e-06,0.0,0,0,0,0,7.216532829090738e-06,1.3399992783467172,0.0,7.216532829090738e-06,0.0
138,0,138,4.728600058453915,3.0,1.3399993505120456,0.0,6.494879545293486e-06,0.0,6.494879545293486e-06,0.0,0,0,0,0,6.494879545293486e-06,1.3399993505120456,0.0,6.494879545293486e-06,0.0
139,0,139,4.742000052608523,3.0,1.339999415460841,0.0,5.845391590764137e-06,0.0,5.845391590764137e-06,0.0,0,0,0,0,5.845391590764137e-06,1.339999415460841,0.0,5.845391590764137e-06,0.0
140,0,140,4.7554000473476705,3.0,1.339999473914757,0.0,5.260852431465679e-06,0.0,5.260852431465679e-06,0.0,0,0,0,0,5.260852431465679e-06,1.339999473914757,0.0,5.260852431465679e-06,0.0
141,0,141,4.768800042612903,3.0,1.3399995265232811,0.0,4.734767189429334e-06,0.0,4.734767189429334e-06,0.0,0,0,0,0,4.734767189429334e-06,1.3399995265232811,0.0,4.734767189429334e-06,0.0
142,0,142,4.782200038351613,3.0,1.3399995738709531,0.0,4.261290469376178e-06,0.0,4.261290469376178e-06,0.0,0,0,0,0,4.261290469376178e-06,1.3399995738709531,0.0,4.261290469376178e-06,0.0
143,0,143,4.795600034516451,3.0,1.339999616483858,0.0,3.835161421772426e-06,0.0,3.835161421772426e-06,0.0,0,0,0,0,3.835161421772426e-06,1.339999616483858,0.0,3.835161421772426e-06,0.0
144,0,144,4.809000031064806,3.0,1.3399996548354722,0.0,3.4516452784849605e-06,0.0,3.4516452784849605e-06,0.0,0,0,0,0,3.4516452784849605e-06,1.3399996548354722,0.0,3.4516452784849605e-06,0.0
145,0,145,4.8224000279583255,3.0,1.339999689351925,0.0,3.10648075041442e-06,0.0,3.10648075041442e-06,0.0,0,0,0,0,3.10648075041442e-06,1.339999689351925,0.0,3.10648075041442e-06,0.0
146,0,146,4.835800025162492,3.0,1.3399997204167327,0.0,2.795832674262755e-06,0.0,2.795832674262755e-06,0.0,0,0,0,0,2.795832674262755e-06,1.3399997204167327,0.0,2.795832674262755e-06,0.0
147,0,147,4.849200022646243,3.0,1.3399997483750594,0.0,2.5162494066144347e-06,0.0,2.5162494066144347e-06,0.0,0,0,0,0,2.5162494066144347e-06,1.3399997483750594,0.0,2.5162494066144347e-06,0.0
148,0,148,4.862600020381619,3.0,1.3399997735375535,0.0,2.2646244657309467e-06,0.0,2.2646244657309467e-06,0.0,0,0,0,0,2.2646244657309467e-06,1.3399997735375535,0.0,2.2646244657309467e-06,0.0
149,0,149,4.876000018343457,3.0,1.3399997961837982,0.0,2.038162019157852e-06,0.0,2.038162019157852e-06,0.0,0,0,0,0,2.038162019157852e-06,1.3399997961837982,0.0,2.038162019157852e-06,0.0
150,0,150,4.889400016509111,3.0,1.3399998165654183,0.0,1.8343458174641114e-06,0.0,1.8343458174641114e-06,0.0,0,0,0,0,1.8343458174641114e-06,1.3399998165654183,0.0,1.8343458174641114e-06,0.0
151,0,151,4.902800014858199,3.0,1.3399998349088764,0.0,1.6509112366058787e-06,0.0,1.6509112366058787e-06,0.0,0,0,0,0,1.6509112366058787e-06,1.3399998349088764,0.0,1.6509112366058787e-06,0.0
152,0,152,4.916200013372379,3.0,1.3399998514179887,0.0,1.4858201136114246e-06,0.0,1.4858201136114246e-06,0.0,0,0,0,0,1.4858201136114246e-06,1.3399998514179887,0.0,1.4858201136114246e-06,0.0
153,0,153,4.929600012035141,3.0,1.3399998662761898,0.0,1.3372381024723268e-06,0.0,1.3372381024723268e-06,0.0,0,0,0,0,1.3372381024723268e-06,1.3399998662761898,0.0,1.3372381024723268e-06,0.0
154,0,154,4.943000010831627,3.0,1.3399998796485708,0.0,1.2035142926691833e-06,0.0,1.2035142926691833e-06,0.0,0,0,0,0,1.2035142926691833e-06,1.3399998796485708,0.0,1.2035142926691833e-06,0.0
155,0,155,4.956400009748464,3.0,1.3399998916837137,0.0,1.0831628638463542e-06,0.0,1.0831628638463542e-06,0.0,0,0,0,0,1.0831628638463542e-06,1.3399998916837137,0.0,1.0831628638463542e-06,0.0
156,0,156,4.969800008773617,3.0,1.3399999025153424,0.0,9.74846576795585e-07,0.0,9.74846576795585e-07,0.0,0,0,0,0,9.74846576795585e-07,1.3399999025153424,0.0,9.74846576795585e-07,0.0
157,0,157,4.983200007896254,3.0,1.3399999122638082,0.0,8.773619186719372e-07,0.0,8.773619186719372e-07,0.0,0,0,0,0,8.773619186719372e-07,1.3399999122638082,0.0,8.773619186719372e-07,0.0
158,0,158,4.996600007106629,3.0,1.3399999210374274,0.0,7.896257270267881e-07,0.0,7.896257270267881e-07,0.0,0,0,0,0,7.896257270267881e-07,1.3399999210374274,0.0,7.896257270267881e-07,0.0
159,0,159,5.010000006395966,3.0,1.3399999289336846,0.0,7.106631549902431e-07,0.0,7.106631549902431e-07,0.0,0,0,0,0,7.106631549902431e-07,1.3399999289336846,0.0,7.106631549902431e-07,0.0
160,0,160,5.023400005756369,3.0,1.339999936040316,0.0,6.39596839935308e-07,0.0,6.39596839935308e-07,0.0,0,0,0,0,6.39596839935308e-07,1.339999936040316,0.0,6.39596839935308e-07,0.0
161,0,161,5.036800005180732,3.0,1.3399999424362845,0.0,5.756371557197326e-07,0.0,5.756371557197326e-07,0.0,0,0,0,0,5.756371557197326e-07,1.3399999424362845,0.0,5.756371557197326e-07,0.0
162,0,162,5.050200004662658,3.0,1.339999948192656,0.0,5.180734397036701e-07,0.0,5.180734397036701e-07,0.0,0,0,0,0,5.180734397036701e-07,1.339999948192656,0.0,5.180734397036701e-07,0.0
163,0,163,5.063600004196392,3.0,1.3399999533733906,0.0,4.662660946230801e-07,0.0,4.662660946230801e-07,0.0,0,0,0,0,4.662660946230801e-07,1.3399999533733906,0.0,4.662660946230801e-07,0.0
164,0,164,5.077000003776752,3.0,1.3399999580360515,0.0,4.196394853828167e-07,0.0,4.196394853828167e-07,0.0,0,0,0,0,4.196394853828167e-07,1.3399999580360515,0.0,4.196394853828167e-07,0.0
165,0,165,5.090400003399076,3.0,1.3399999622324463,0.0,3.7767553751066885e-07,0.0,3.7767553751066885e-07,0.0,0,0,0,0,3.7767553751066885e-07,1.3399999622324463,0.0,3.7767553751066885e-07,0.0
166,0,166,5.103800003059169,3.0,1.3399999660092017,0.0,3.3990798398164657e-07,0.0,3.3990798398164657e-07,0.0,0,0,0,0,3.3990798398164657e-07,1.3399999660092017,0.0,3.3990798398164657e-07,0.0
167,0,167,5.117200002753251,3.0,1.3399999694082816,0.0,3.059171849173481e-07,0.0,3.059171849173481e-07,0.0,0,0,0,0,3.059171849173481e-07,1.3399999694082816,0.0,3.059171849173481e-07,0.0
168,0,168,5.130600002477926,3.0,1.3399999724674534,0.0,2.753254668697025e-07,0.0,2.753254668697025e-07,0.0,0,0,0,0,2.753254668697025e-07,1.3399999724674534,0.0,2.753254668697025e-07,0.0
169,0,169,5.144000002230133,3.0,1.3399999752207081,0.0,2.4779291951659843e-07,0.0,2.4779291951659843e-07,0.0,0,0,0,0,2.4779291951659843e-07,1.3399999752207081,0.0,2.4779291951659843e-07,0.0
170,0,170,5.157400002007119,3.0,1.3399999776986373,0.0,2.230136275649386e-07,0.0,2.230136275649386e-07,0.0,0,0,0,0,2.230136275649386e-07,1.3399999776986373,0.0,2.230136275649386e-07,0.0
171,0,171,5.170800001806406,3.0,1.3399999799287736,0.0,2.0071226458640012e-07,0.0,2.0071226458640012e-07,0.0,0,0,0,0,2.0071226458640012e-07,1.3399999799287736,0.0,2.0071226458640012e-07,0.0
172,0,172,5.184200001625765,3.0,1.3399999819358963,0.0,1.806410376836709e-07,0.0,1.806410376836709e-07,0.0,0,0,0,0,1.806410376836709e-07,1.3399999819358963,0.0,1.806410376836709e-07,0.0
173,0,173,5.197600001463188,3.0,1.3399999837423067,0.0,1.6257693413734842e-07,0.0,1.6257693413734842e-07,0.0,0,0,0,0,1.6257693413734842e-07,1.3399999837423067,0.0,1.6257693413734842e-07,0.0
174,0,174,5.211000001316869,3.0,1.339999985368076,0.0,1.4631924116770278e-07,0.0,1.4631924116770278e-07,0.0,0,0,0,0,1.4631924116770278e-07,1.339999985368076,0.0,1.4631924116770278e-07,0.0
175,0,175,5.224400001185181,3.0,1.3399999868312684,0.0,1.316873166068433e-07,0.0,1.316873166068433e-07,0.0,0,0,0,0,1.316873166068433e-07,1.3399999868312684,0.0,1.316873166068433e-07,0.0
176,0,176,5.237800001066662,3.0,1.3399999881481417,0.0,1.1851858383593594e-07,0.0,1.1851858383593594e-07,0.0,0,0,0,0,1.1851858383593594e-07,1.3399999881481417,0.0,1.1851858383593594e-07,0.0
177,0,177,5.2512000009599955,3.0,1.3399999893333274,0.0,1.0666672656256537e-07,0.0,1.0666672656256537e-07,0.0,0,0,0,0,1.0666672656256537e-07,1.3399999893333274,0.0,1.0666672656256537e-07,0.0
178,0,178,5.264600000863996,3.0,1.3399999903999946,0.0,9.600005457244265e-08,0.0,9.600005457244265e-08,0.0,0,0,0,0,9.600005457244265e-08,1.3399999903999946,0.0,9.600005457244265e-08,0.0
179,0,179,5.278000000777595,3.0,1.3399999913599951,0.0,8.640004933724299e-08,0.0,8.640004933724299e-08,0.0,0,0,0,0,8.640004933724299e-08,1.3399999913599951,0.0,8.640004933724299e-08,0.0
180,0,180,5.291400000699835,3.0,1.3399999922239956,0.0,7.77600450696525e-08,0.0,7.77600450696525e-08,0.0,0,0,0,0,7.77600450696525e-08,1.3399999922239956,0.0,7.77600450696525e-08,0.0
181,0,181,5.304800000629851,3.0,1.339999993001596,0.0,6.998404078473186e-08,0.0,6.998404078473186e-08,0.0,0,0,0,0,6.998404078473186e-08,1.339999993001596,0.0,6.998404078473186e-08,0.0
182,0,182,5.318200000566866,3.0,1.3399999937014364,0.0,6.298563670625867e-08,0.0,6.298563670625867e-08,0.0,0,0,0,0,6.298563670625867e-08,1.3399999937014364,0.0,6.298563670625867e-08,0.0
183,0,183,5.3316000005101785,3.0,1.3399999943312928,0.0,5.66870728135882e-08,0.0,5.66870728135882e-08,0.0,0,0,0,0,5.66870728135882e-08,1.3399999943312928,0.0,5.66870728135882e-08,0.0
184,0,184,5.3450000004591605,3.0,1.3399999948981636,0.0,5.101836508814017e-08,0.0,5.101836508814017e-08,0.0,0,0,0,0,5.101836508814017e-08,1.3399999948981636,0.0,5.101836508814017e-08,0.0
185,0,185,5.358400000413244,3.0,1.3399999954083472,0.0,4.591652835728155e-08,0.0,4.591652835728155e-08,0.0,0,0,0,0,4.591652835728155e-08,1.3399999954083472,0.0,4.591652835728155e-08,0.0
186,0,186,5.371800000371919,3.0,1.3399999958675126,0.0,4.1324874633374975e-08,0.0,4.1324874633374975e-08,0.0,0,0,0,0,4.1324874633374975e-08,1.3399999958675126,0.0,4.1324874633374975e-08,0.0
187,0,187,5.385200000334726,3.0,1.3399999962807614,0.0,3.719238694799287e-08,0.0,3.719238694799287e-08,0.0,0,0,0,0,3.719238694799287e-08,1.3399999962807614,0.0,3.719238694799287e-08,0.0
188,0,188,5.398600000301253,3.0,1.3399999966526852,0.0,3.3473148697282795e-08,0.0,3.3473148697282795e-08,0.0,0,0,0,0,3.3473148697282795e-08,1.3399999966526852,0.0,3.3473148697282795e-08,0.0
189,0,189,5.412000000271127,3.0,1.3399999969874168,0.0,3.0125832939376096e-08,0.0,3.0125832939376096e-08,0.0,0,0,0,0,3.0125832939376096e-08,1.3399999969874168,0.0,3.0125832939376096e-08,0.0
190,0,190,5.4254000002440135,3.0,1.3399999972886751,0.0,2.711324942339388e-08,0.0,2.711324942339388e-08,0.0,0,0,0,0,2.711324942339388e-08,1.3399999972886751,0.0,2.711324942339388e-08,0.0
191,0,191,5.4388000002196115,3.0,1.3399999975598076,0.0,2.4401924925143703e-08,0.0,2.4401924925143703e-08,0.0,0,0,0,0,2.4401924925143703e-08,1.3399999975598076,0.0,2.4401924925143703e-08,0.0
192,0,192,5.452200000197649,3.0,1.3399999978038268,0.0,2.1961732432629333e-08,0.0,2.1961732432629333e-08,0.0,0,0,0,0,2.1961732432629333e-08,1.3399999978038268,0.0,2.1961732432629333e-08,0.0
193,0,193,5.465600000177884,3.0,1.339999998023444,0.0,1.9765560299589424e-08,0.0,1.9765560299589424e-08,0.0,0,0,0,0,1.9765560299589424e-08,1.339999998023444,0.0,1.9765560299589424e-08,0.0
194,0,194,5.479000000160095,3.0,1.3399999982210997,0.0,1.7789003603496667e-08,0.0,1.7789003603496667e-08,0.0,0,0,0,0,1.7789003603496667e-08,1.3399999982210997,0.0,1.7789003603496667e-08,0.0
195,0,195,5.492400000144085,3.0,1.3399999983989899,0.0,1.6010102132923976e-08,0.0,1.6010102132923976e-08,0.0,0,0,0,0,1.6010102132923976e-08,1.3399999983989899,0.0,1.6010102132923976e-08,0.0
196,0,196,5.505800000129676,3.0,1.339999998559091,0.0,1.4409091697586973e-08,0.0,1.4409091697586973e-08,0.0,0,0,0,0,1.4409091697586973e-08,1.339999998559091,0.0,1.4409091697586973e-08,0.0
197,0,197,5.519200000116707,3.0,1.3399999987031819,0.0,1.2968182083739066e-08,0.0,1.2968182083739066e-08,0.0,0,0,0,0,1.2968182083739066e-08,1.3399999987031819,0.0,1.2968182083739066e-08,0.0
198,0,198,5.5326000001050355,3.0,1.3399999988328637,0.0,1.167136387536516e-08,0.0,1.167136387536516e-08,0.0,0,0,0,0,1.167136387536516e-08,1.3399999988328637,0.0,1.167136387536516e-08,0.0
199,0,199,5.546000000094531,3.0,1.3399999989495774,0.0,1.0504226377605619e-08,0.0,1.0504226377605619e-08,0.0,0,0,0,0,1.0504226377605619e-08,1.3399999989495774,0.0,1.0504226377605619e-08,0.0
200,0,200,5.559400000085077,3.0,1.3399999990546196,0.0,9.453804405978872e-09,0.0,9.453804405978872e-09,0.0,0,0,0,0,9.453804405978872e-09,1.3399999990546196,0.0,9.453804405978872e-09,0.0
201,0,201,5.572800000076569,3.0,1.3399999991491578,0.0,8.50842285515796e-09,0.0,8.50842285515796e-09,0.0,0,0,0,0,8.50842285515796e-09,1.3399999991491578,0.0,8.50842285515796e-09,0.0
202,0,202,5.586200000068911,3.0,1.339999999234242,0.0,7.657581235775979e-09,0.0,7.657581235775979e-09,0.0,0,0,0,0,7.657581235775979e-09,1.339999999234242,0.0,7.657581235775979e-09,0.0
203,0,203,5.599600000062019,3.0,1.3399999993108178,0.0,6.891822668109171e-09,0.0,6.891822668109171e-09,0.0,0,0,0,0,6.891822668109171e-09,1.3399999993108178,0.0,6.891822668109171e-09,0.0
204,0,204,5.613000000055817,3.0,1.339999999379736,0.0,6.202640623342859e-09,0.0,6.202640623342859e-09,0.0,0,0,0,0,6.202640623342859e-09,1.339999999379736,0.0,6.202640623342859e-09,0.0
205,0,205,5.626400000050235,3.0,1.3399999994417624,0.0,5.582376783053178e-09,0.0,5.582376783053178e-09,0.0,0,0,0,0,5.582376783053178e-09,1.3399999994417624,0.0,5.582376783053178e-09,0.0
206,0,206,5.63980000004521,3.0,1.3399999994975862,0.0,5.024138882703255e-09,0.0,5.024138882703255e-09,0.0,0,0,0,0,5.024138882703255e-09,1.3399999994975862,0.0,5.024138882703255e-09,0.0
207,0,207,5.653200000040688,3.0,1.3399999995478276,0.0,4.5217252164775346e-09,0.0,4.5217252164775346e-09,0.0,0,0,0,0,4.5217252164775346e-09,1.3399999995478276,0.0,4.5217252164775346e-09,0.0
208,0,208,5.666600000036619,3.0,1.3399999995930447,0.0,4.069553583008201e-09,0.0,4.069553583008201e-09,0.0,0,0,0,0,4.069553583008201e-09,1.3399999995930447,0.0,4.069553583008201e-09,0.0
209,0,209,5.680000000032956,3.0,1.3399999996337402,0.0,3.6625991128858004e-09,0.0,3.6625991128858004e-09,0.0,0,0,0,0,3.6625991128858004e-09,1.3399999996337402,0.0,3.6625991128858004e-09,0.0
210,0,210,5.693400000029659,3.0,1.3399999996703662,0.0,3.2963387575080105e-09,0.0,3.2963387575080105e-09,0.0,0,0,0,0,3.2963387575080105e-09,1.3399999996703662,0.0,3.2963387575080105e-09,0.0
211,0,211,5.706800000026693,3.0,1.3399999997033296,0.0,2.9667046597126046e-09,0.0,2.9667046597126046e-09,0.0,0,0,0,0,2.9667046597126046e-09,1.3399999997033296,0.0,2.9667046597126046e-09,0.0
212,0,212,5.720200000024023,3.0,1.3399999997329965,0.0,2.6700353039643687e-09,0.0,2.6700353039643687e-09,0.0,0,0,0,0,2.6700353039643687e-09,1.3399999997329965,0.0,2.6700353039643687e-09,0.0
213,0,213,5.73360000002162,3.0,1.339999999759697,0.0,2.403031107434117e-09,0.0,2.403031107434117e-09,0.0,0,0,0,0,2.403031107434117e-09,1.339999999759697,0.0,2.403031107434117e-09,0.0
214,0,214,5.747000000019457,3.0,1.3399999997837273,0.0,2.1627277746461004e-09,0.0,2.1627277746461004e-09,0.0,0,0,0,0,2.1627277746461004e-09,1.3399999997837273,0.0,2.1627277746461004e-09,0.0
215,0,215,5.760400000017511,3.0,1.3399999998053547,0.0,1.9464541090030707e-09,0.0,1.9464541090030707e-09,0.0,0,0,0,0,1.9464541090030707e-09,1.3399999998053547,0.0,1.9464541090030707e-09,0.0
216,0,216,5.773800000015759,3.0,1.339999999824819,0.0,1.7518098083257883e-09,0.0,1.7518098083257883e-09,0.0,0,0,0,0,1.7518098083257883e-09,1.339999999824819,0.0,1.7518098083257883e-09,0.0
217,0,217,5.787200000014183,3.0,1.339999999842337,0.0,1.576629937716234e-09,0.0,1.576629937716234e-09,0.0,0,0,0,0,1.576629937716234e-09,1.339999999842337,0.0,1.576629937716234e-09,0.0
218,0,218,5.800600000012764,3.0,1.3399999998581034,0.0,1.4189671659892156e-09,0.0,1.4189671659892156e-09,0.0,0,0,0,0,1.4189671659892156e-09,1.3399999998581034,0.0,1.4189671659892156e-09,0.0
219,0,219,5.814000000011487,3.0,1.3399999998722931,0.0,1.2770695612118743e-09,0.0,1.2770695612118743e-09,0.0,0,0,0,0,1.2770695612118743e-09,1.3399999998722931,0.0,1.2770695612118743e-09,0.0
220,0,220,5.827400000010337,3.0,1.3399999998850638,0.0,1.1493628271352918e-09,0.0,1.1493628271352918e-09,0.0,0,0,0,0,1.1493628271352918e-09,1.3399999998850638,0.0,1.1493628271352918e-09,0.0
221,0,221,5.840800000009303,3.0,1.3399999998965575,0.0,1.0344258782879479e-09,0.0,1.0344258782879479e-09,0.0,0,0,0,0,1.0344258782879479e-09,1.3399999998965575,0.0,1.0344258782879479e-09,0.0
222,0,222,5.8542000000083725,3.0,1.3399999999069017,0.0,9.309841786375728e-10,0.0,9.309841786375728e-10,0.0,0,0,0,0,9.309841786375728e-10,1.3399999999069017,0.0,9.309841786375728e-10,0.0
223,0,223,5.867600000007535,3.0,1.3399999999162115,0.0,8.378853166846056e-10,0.0,8.378853166846056e-10,0.0,0,0,0,0,8.378853166846056e-10,1.3399999999162115,0.0,8.378853166846056e-10,0.0
224,0,224,5.881000000006781,3.0,1.3399999999245904,0.0,7.540967850161451e-10,0.0,7.540967850161451e-10,0.0,0,0,0,0,7.540967850161451e-10,1.3399999999245904,0.0,7.540967850161451e-10,0.0
225,0,225,5.894400000006102,3.0,1.3399999999321315,0.0,6.786859962915059e-10,0.0,6.786859962915059e-10,0.0,0,0,0,0,6.786859962915059e-10,1.3399999999321315,0.0,6.786859962915059e-10,0.0
226,0,226,5.907800000005491,3.0,1.3399999999389183,0.0,6.108180627961701e-10,0.0,6.108180627961701e-10,0.0,0,0,0,0,6.108180627961701e-10,1.3399999999389183,0.0,6.108180627961701e-10,0.0
227,0,227,5.921200000004941,3.0,1.3399999999450265,0.0,5.497358124273433e-10,0.0,5.497358124273433e-10,0.0,0,0,0,0,5.497358124273433e-10,1.3399999999450265,0.0,5.497358124273433e-10,0.0
228,0,228,5.934600000004446,3.0,1.3399999999505239,0.0,4.94762009140004e-10,0.0,4.94762009140004e-10,0.0,0,0,0,0,4.94762009140004e-10,1.3399999999505239,0.0,4.94762009140004e-10,0.0
229,0,229,5.948000000004001,3.0,1.3399999999554715,0.0,4.4528603027060853e-10,0.0,4.4528603027060853e-10,0.0,0,0,0,0,4.4528603027060853e-10,1.3399999999554715,0.0,4.4528603027060853e-10,0.0
230,0,230,5.9614000000036,3.0,1.3399999999599244,0.0,4.0075720519894276e-10,0.0,4.0075720519894276e-10,0.0,0,0,0,0,4.0075720519894276e-10,1.3399999999599244,0.0,4.0075720519894276e-10,0.0
231,0,231,5.974800000003239,3.0,1.3399999999639318,0.0,3.606825949020731e-10,0.0,3.606825949020731e-10,0.0,0,0,0,0,3.606825949020731e-10,1.3399999999639318,0.0,3.606825949020731e-10,0.0
232,0,232,5.988200000002915,3.0,1.3399999999675387,0.0,3.24613669278051e-10,0.0,3.24613669278051e-10,0.0,0,0,0,0,3.24613669278051e-10,1.3399999999675387,0.0,3.24613669278051e-10,0.0
233,0,233,6.001600000002623,3.0,1.3399999999707848,0.0,2.921529684840607e-10,0.0,2.921529684840607e-10,0.0,0,0,0,0,2.921529684840607e-10,1.3399999999707848,0.0,2.921529684840607e-10,0.0
234,0,234,6.01500000000236,3.0,1.3399999999737062,0.0,2.629385598140743e-10,0.0,2.629385598140743e-10,0.0,0,0,0,0,2.629385598140743e-10,1.3399999999737062,0.0,2.629385598140743e-10,0.0
235,0,235,6.028400000002123,3.0,1.3399999999763357,0.0,2.366440376988521e-10,0.0,2.366440376988521e-10,0.0,0,0,0,0,2.366440376988521e-10,1.3399999999763357,0.0,2.366440376988521e-10,0.0
236,0,236,6.04180000000191,3.0,1.3399999999787022,0.0,2.1297852370594228e-10,0.0,2.1297852370594228e-10,0.0,0,0,0,0,2.1297852370594228e-10,1.3399999999787022,0.0,2.1297852370594228e-10,0.0
237,0,237,6.055200000001718,3.0,1.339999999980832,0.0,1.9168000520153328e-10,0.0,1.9168000520153328e-10,0.0,0,0,0,0,1.9168000520153328e-10,1.339999999980832,0.0,1.9168000520153328e-10,0.0
238,0,238,6.068600000001545,3.0,1.3399999999827488,0.0,1.7251311490440457e-10,0.0,1.7251311490440457e-10,0.0,0,0,0,0,1.7251311490440457e-10,1.3399999999827488,0.0,1.7251311490440457e-10,0.0
239,0,239,6.08200000000139,3.0,1.3399999999844738,0.0,1.552624695477789e-10,0.0,1.552624695477789e-10,0.0,0,0,0,0,1.552624695477789e-10,1.3399999999844738,0.0,1.552624695477789e-10,0.0
240,0,240,6.09540000000125,3.0,1.3399999999860264,0.0,1.397371107714207e-10,0.0,1.397371107714207e-10,0.0,0,0,0,0,1.397371107714207e-10,1.3399999999860264,0.0,1.397371107714207e-10,0.0
241,0,241,6.108800000001125,3.0,1.3399999999874237,0.0,1.2576384378348848e-10,0.0,1.2576384378348848e-10,0.0,0,0,0,0,1.2576384378348848e-10,1.3399999999874237,0.0,1.2576384378348848e-10,0.0
242,0,242,6.122200000001012,3.0,1.3399999999886814,0.0,1.1318723736053471e-10,0.0,1.1318723736053471e-10,0.0,0,0,0,0,1.1318723736053471e-10,1.3399999999886814,0.0,1.1318723736053471e-10,0.0
243,0,243,6.13560000000091,3.0,1.3399999999898133,0.0,1.0186740340145661e-10,0.0,1.0186740340145661e-10,0.0,0,0,0,0,1.0186740340145661e-10,1.3399999999898133,0.0,1.0186740340145661e-10,0.0
244,0,244,6.149000000000818,3.0,1.339999999990832,0.0,9.167999692749618e-11,0.0,9.167999692749618e-11,0.0,0,0,0,0,9.167999692749618e-11,1.339999999990832,0.0,9.167999692749618e-11,0.0
245,0,245,6.162400000000735,3.0,1.339999999991749,0.0,8.251177519014163e-11,0.0,8.251177519014163e-11,0.0,0,0,0,0,8.251177519014163e-11,1.339999999991749,0.0,8.251177519014163e-11,0.0
246,0,246,6.175800000000661,3.0,1.339999999992574,0.0,7.426059767112747e-11,0.0,7.426059767112747e-11,0.0,0,0,0,0,7.426059767112747e-11,1.339999999992574,0.0,7.426059767112747e-11,0.0
247,0,247,6.189200000000595,3.0,1.3399999999933165,0.0,6.683542608243442e-11,0.0,6.683542608243442e-11,0.0,0,0,0,0,6.683542608243442e-11,1.3399999999933165,0.0,6.683542608243442e-11,0.0
248,0,248,6.202600000000534,3.0,1.339999999993985,0.0,6.015188347419098e-11,0.0,6.015188347419098e-11,0.0,0,0,0,0,6.015188347419098e-11,1.339999999993985,0.0,6.015188347419098e-11,0.0
249,0,249,6.21600000000048,3.0,1.3399999999945864,0.0,5.413669512677188e-11,0.0,5.413669512677188e-11,0.0,0,0,0,0,5.413669512677188e-11,1.3399999999945864,0.0,5.413669512677188e-11,0.0
250,0,250,6.229400000000431,3.0,1.3399999999951278,0.0,4.872324765869962e-11,0.0,4.872324765869962e-11,0.0,0,0,0,0,4.872324765869962e-11,1.3399999999951278,0.0,4.872324765869962e-11,0.0
251,0,251,6.242800000000387,3.0,1.339999999995615,0.0,4.385158902664443e-11,0.0,4.385158902664443e-11,0.0,0,0,0,0,4.385158902664443e-11,1.339999999995615,0.0,4.385158902664443e-11,0.0
252,0,252,6.256200000000348,3.0,1.3399999999960535,0.0,3.9466208079375065e-11,0.0,3.9466208079375065e-11,0.0,0,0,0,0,3.9466208079375065e-11,1.3399999999960535,0.0,3.9466208079375065e-11,0.0
253,0,253,6.269600000000312,3.0,1.339999999996448,0.0,3.552047544985726e-11,0.0,3.552047544985726e-11,0.0,0,0,0,0,3.552047544985726e-11,1.339999999996448,0.0,3.552047544985726e-11,0.0
254,0,254,6.28300000000028,3.0,1.3399999999968033,0.0,3.196776177105676e-11,0.0,3.196776177105676e-11,0.0,0,0,0,0,3.196776177105676e-11,1.3399999999968033,0.0,3.196776177105676e-11,0.0
255,0,255,6.296400000000252,3.0,1.339999999997123,0.0,2.8770319460136307e-11,0.0,2.8770319460136307e-11,0.0,0,0,0,0,2.8770319460136307e-11,1.339999999997123,0.0,2.8770319460136307e-11,0.0
256,0,256,6.309800000000226,3.0,1.3399999999974108,0.0,2.58926213803079e-11,0.0,2.58926213803079e-11,0.0,0,0,0,0,2.58926213803079e-11,1.3399999999974108,0.0,2.58926213803079e-11,0.0
257,0,257,6.323200000000202,3.0,1.3399999999976697,0.0,2.3303581286882036e-11,0.0,2.3303581286882036e-11,0.0,0,0,0,0,2.3303581286882036e-11,1.3399999999976697,0.0,2.3303581286882036e-11,0.0
258,0,258,6.336600000000182,3.0,1.3399999999979029,0.0,2.0972112935169207e-11,0.0,2.0972112935169207e-11,0.0,0,0,0,0,2.0972112935169207e-11,1.3399999999979029,0.0,2.0972112935169207e-11,0.0
259,0,259,6.350000000000163,3.0,1.3399999999981125,0.0,1.887601186467691e-11,0.0,1.887601186467691e-11,0.0,0,0,0,0,1.887601186467691e-11,1.3399999999981125,0.0,1.887601186467691e-11,0.0
260,0,260,6.363400000000146,3.0,1.3399999999983012,0.0,1.6988632722814145e-11,0.0,1.6988632722814145e-11,0.0,0,0,0,0,1.6988632722814145e-11,1.3399999999983012,0.0,1.6988632722814145e-11,0.0
261,0,261,6.376800000000131,3.0,1.339999999998471,0.0,1.5289991495137656e-11,0.0,1.5289991495137656e-11,0.0,0,0,0,0,1.5289991495137656e-11,1.339999999998471,0.0,1.5289991495137656e-11,0.0
262,0,262,6.390200000000117,3.0,1.339999999998624,0.0,1.376010416720419e-11,0.0,1.376010416720419e-11,0.0,0,0,0,0,1.376010416720419e-11,1.339999999998624,0.0,1.376010416720419e-11,0.0
263,0,263,6.403600000000105,3.0,1.3399999999987617,0.0,1.2383427616668996e-11,0.0,1.2383427616668996e-11,0.0,0,0,0,0,1.2383427616668996e-11,1.3399999999987617,0.0,1.2383427616668996e-11,0.0
264,0,264,6.417000000000094,3.0,1.3399999999988856,0.0,1.1144418721187321e-11,0.0,1.1144418721187321e-11,0.0,0,0,0,0,1.1144418721187321e-11,1.3399999999988856,0.0,1.1144418721187321e-11,0.0
265,0,265,6.430400000000084,3.0,1.339999999998997,0.0,1.0029754804463664e-11,0.0,1.0029754804463664e-11,0.0,0,0,0,0,1.0029754804463664e-11,1.339999999998997,0.0,1.0029754804463664e-11,0.0
266,0,266,6.443800000000075,3.0,1.3399999999990975,0.0,9.026113190202523e-12,0.0,9.026113190202523e-12,0.0,0,0,0,0,9.026113190202523e-12,1.3399999999990975,0.0,9.026113190202523e-12,0.0
267,0,267,6.457200000000067,3.0,1.3399999999991876,0.0,8.124612094206896e-12,0.0,8.124612094206896e-12,0.0,0,0,0,0,8.124612094206896e-12,1.3399999999991876,0.0,8.124612094206896e-12,0.0
268,0,268,6.47060000000006,3.0,1.3399999999992689,0.0,7.311928840181281e-12,0.0,7.311928840181281e-12,0.0,0,0,0,0,7.311928840181281e-12,1.3399999999992689,0.0,7.311928840181281e-12,0.0
269,0,269,6.484000000000053,3.0,1.339999999999342,0.0,6.581402089977928e-12,0.0,6.581402089977928e-12,0.0,0,0,0,0,6.581402089977928e-12,1.339999999999342,0.0,6.581402089977928e-12,0.0
270,0,270,6.497400000000047,3.0,1.3399999999994077,0.0,5.924150059399835e-12,0.0,5.924150059399835e-12,0.0,0,0,0,0,5.924150059399835e-12,1.3399999999994077,0.0,5.924150059399835e-12,0.0
271,0,271,6.510800000000041,3.0,1.339999999999467,0.0,5.331290964250002e-12,0.0,5.331290964250002e-12,0.0,0,0,0,0,5.331290964250002e-12,1.339999999999467,0.0,5.331290964250002e-12,0.0
272,0,272,6.524200000000037,3.0,1.3399999999995202,0.0,4.7983839124299266e-12,0.0,4.7983839124299266e-12,0.0,0,0,0,0,4.7983839124299266e-12,1.3399999999995202,0.0,4.7983839124299266e-12,0.0
273,0,273,6.537600000000032,3.0,1.3399999999995682,0.0,4.318767565791859e-12,0.0,4.318767565791859e-12,0.0,0,0,0,0,4.318767565791859e-12,1.3399999999995682,0.0,4.318767565791859e-12,0.0
274,0,274,6.551000000000029,3.0,1.3399999999996113,0.0,3.888001032237298e-12,0.0,3.888001032237298e-12,0.0,0,0,0,0,3.888001032237298e-12,1.3399999999996113,0.0,3.888001032237298e-12,0.0
275,0,275,6.564400000000025,3.0,1.3399999999996501,0.0,3.4994229736184934e-12,0.0,3.4994229736184934e-12,0.0,0,0,0,0,3.4994229736184934e-12,1.3399999999996501,0.0,3.4994229736184934e-12,0.0
276,0,276,6.577800000000022,3.0,1.3399999999996852,0.0,3.148592497836944e-12,0.0,3.148592497836944e-12,0.0,0,0,0,0,3.148592497836944e-12,1.3399999999996852,0.0,3.148592497836944e-12,0.0
277,0,277,6.591200000000019,3.0,1.3399999999997168,0.0,2.8332891588433995e-12,0.0,2.8332891588433995e-12,0.0,0,0,0,0,2.8332891588433995e-12,1.3399999999997168,0.0,2.8332891588433995e-12,0.0
278,0,278,6.6046000000000165,3.0,1.3399999999997452,0.0,2.5490720645393594e-12,0.0,2.5490720645393594e-12,0.0,0,0,0,0,2.5490720645393594e-12,1.3399999999997452,0.0,2.5490720645393594e-12,0.0
279,0,279,6.6180000000000145,3.0,1.3399999999997707,0.0,2.2937207688755734e-12,0.0,2.2937207688755734e-12,0.0,0,0,0,0,2.2937207688755734e-12,1.3399999999997707,0.0,2.2937207688755734e-12,0.0
280,0,280,6.631400000000013,3.0,1.3399999999997936,0.0,2.065014825802791e-12,0.0,2.065014825802791e-12,0.0,0,0,0,0,2.065014825802791e-12,1.3399999999997936,0.0,2.065014825802791e-12,0.0
281,0,281,6.644800000000011,3.0,1.3399999999998142,0.0,1.858513343222512e-12,0.0,1.858513343222512e-12,0.0,0,0,0,0,1.858513343222512e-12,1.3399999999998142,0.0,1.858513343222512e-12,0.0
282,0,282,6.658200000000009,3.0,1.3399999999998329,0.0,1.6719958750854857e-12,0.0,1.6719958750854857e-12,0.0,0,0,0,0,1.6719958750854857e-12,1.3399999999998329,0.0,1.6719958750854857e-12,0.0
283,0,283,6.671600000000007,3.0,1.3399999999998495,0.0,1.5054624213917123e-12,0.0,1.5054624213917123e-12,0.0,0,0,0,0,1.5054624213917123e-12,1.3399999999998495,0.0,1.5054624213917123e-12,0.0
284,0,284,6.685000000000006,3.0,1.3399999999998646,0.0,1.354472090042691e-12,0.0,1.354472090042691e-12,0.0,0,0,0,0,1.354472090042691e-12,1.3399999999998646,0.0,1.354472090042691e-12,0.0
285,0,285,6.698400000000005,3.0,1.3399999999998782,0.0,1.2190248810384219e-12,0.0,1.2190248810384219e-12,0.0,0,0,0,0,1.2190248810384219e-12,1.3399999999998782,0.0,1.2190248810384219e-12,0.0
286,0,286,6.711800000000004,3.0,1.3399999999998904,0.0,1.0969003483296547e-12,0.0,1.0969003483296547e-12,0.0,0,0,0,0,1.0969003483296547e-12,1.3399999999998904,0.0,1.0969003483296547e-12,0.0
287,0,287,6.725200000000003,3.0,1.3399999999999013,0.0,9.880984919163893e-13,0.0,9.880984919163893e-13,0.0,0,0,0,0,9.880984919163893e-13,1.3399999999999013,0.0,9.880984919163893e-13,0.0
288,0,288,6.738600000000002,3.0,1.339999999999911,0.0,8.903988657493755e-13,0.0,8.903988657493755e-13,0.0,0,0,0,0,8.903988657493755e-13,1.339999999999911,0.0,8.903988657493755e-13,0.0
289,0,289,6.752000000000001,3.0,1.33999999999992,0.0,8.01581023779363e-13,0.0,8.01581023779363e-13,0.0,0,0,0,0,8.01581023779363e-13,1.33999999999992,0.0,8.01581023779363e-13,0.0
290,0,290,6.7654,3.0,1.339999999999928,0.0,7.216449660063518e-13,0.0,7.216449660063518e-13,0.0,0,0,0,0,7.216449660063518e-13,1.339999999999928,0.0,7.216449660063518e-13,0.0
291,0,291,6.778799999999999,3.0,1.339999999999935,0.0,6.505906924303417e-13,0.0,6.505906924303417e-13,0.0,0,0,0,0,6.505906924303417e-13,1.339999999999935,0.0,6.505906924303417e-13,0.0
292,0,292,6.7921999999999985,3.0,1.3399999999999415,0.0,5.861977570020827e-13,0.0,5.861977570020827e-13,0.0,0,0,0,0,5.861977570020827e-13,1.3399999999999415,0.0,5.861977570020827e-13,0.0
293,0,293,6.805599999999998,3.0,1.3399999999999472,0.0,5.284661597215745e-13,0.0,5.284661597215745e-13,0.0,0,0,0,0,5.284661597215745e-13,1.3399999999999472,0.0,5.284661597215745e-13,0.0
294,0,294,6.818999999999998,3.0,1.3399999999999526,0.0,4.75175454539567e-13,0.0,4.75175454539567e-13,0.0,0,0,0,0,4.75175454539567e-13,1.3399999999999526,0.0,4.75175454539567e-13,0.0
295,0,295,6.832399999999998,3.0,1.3399999999999572,0.0,4.285460875053104e-13,0.0,4.285460875053104e-13,0.0,0,0,0,0,4.285460875053104e-13,1.3399999999999572,0.0,4.285460875053104e-13,0.0
296,0,296,6.845799999999998,3.0,1.3399999999999614,0.0,3.863576125695545e-13,0.0,3.863576125695545e-13,0.0,0,0,0,0,3.863576125695545e-13,1.3399999999999614,0.0,3.863576125695545e-13,0.0
297,0,297,6.859199999999998,3.0,1.3399999999999652,0.0,3.4861002973229915e-13,0.0,3.4861002973229915e-13,0.0,0,0,0,0,3.4861002973229915e-13,1.3399999999999652,0.0,3.4861002973229915e-13,0.0
298,0,298,6.872599999999998,3.0,1.3399999999999688,0.0,3.1308289294429414e-13,0.0,3.1308289294429414e-13,0.0,0,0,0,0,3.1308289294429414e-13,1.3399999999999688,0.0,3.1308289294429414e-13,0.0
299,0,299,6.8859999999999975,3.0,1.3399999999999719,0.0,2.8199664825478976e-13,0.0,2.8199664825478976e-13,0.0,0,0,0,0,2.8199664825478976e-13,1.3399999999999719,0.0,2.8199664825478976e-13,0.0
300,0,300,6.899399999999997,3.0,1.3399999999999748,0.0,2.531308496145357e-13,0.0,2.531308496145357e-13,0.0,0,0,0,0,2.531308496145357e-13,1.3399999999999748,0.0,2.531308496145357e-13,0.0
301,0,301,6.912799999999997,3.0,1.3399999999999772,0.0,2.2870594307278225e-13,0.0,2.2870594307278225e-13,0.0,0,0,0,0,2.2870594307278225e-13,1.3399999999999772,0.0,2.2870594307278225e-13,0.0
302,0,302,6.926199999999997,3.0,1.3399999999999794,0.0,2.0650148258027912e-13,0.0,2.0650148258027912e-13,0.0,0,0,0,0,2.0650148258027912e-13,1.3399999999999794,0.0,2.0650148258027912e-13,0.0
303,0,303,6.939599999999997,3.0,1.3399999999999814,0.0,1.865174681370263e-13,0.0,1.865174681370263e-13,0.0,0,0,0,0,1.865174681370263e-13,1.3399999999999814,0.0,1.865174681370263e-13,0.0
304,0,304,6.952999999999997,3.0,1.3399999999999832,0.0,1.687538997430238e-13,0.0,1.687538997430238e-13,0.0,0,0,0,0,1.687538997430238e-13,1.3399999999999832,0.0,1.687538997430238e-13,0.0
305,0,305,6.966399999999997,3.0,1.339999999999985,0.0,1.509903313490213e-13,0.0,1.509903313490213e-13,0.0,0,0,0,0,1.509903313490213e-13,1.339999999999985,0.0,1.509903313490213e-13,0.0
306,0,306,6.9797999999999965,3.0,1.3399999999999865,0.0,1.354472090042691e-13,0.0,1.354472090042691e-13,0.0,0,0,0,0,1.354472090042691e-13,1.3399999999999865,0.0,1.354472090042691e-13,0.0
307,0,307,6.993199999999996,3.0,1.3399999999999879,0.0,1.2212453270876722e-13,0.0,1.2212453270876722e-13,0.0,0,0,0,0,1.2212453270876722e-13,1.3399999999999879,0.0,1.2212453270876722e-13,0.0
308,0,308,7.006599999999996,3.0,1.3399999999999892,0.0,1.0880185641326534e-13,0.0,1.0880185641326534e-13,0.0,0,0,0,0,1.0880185641326534e-13,1.3399999999999892,0.0,1.0880185641326534e-13,0.0
309,0,309,7.019999999999996,3.0,1.3399999999999903,0.0,9.769962616701378e-14,0.0,9.769962616701378e-14,0.0,0,0,0,0,9.769962616701378e-14,1.3399999999999903,0.0,9.769962616701378e-14,0.0
310,0,310,7.033399999999996,3.0,1.3399999999999912,0.0,8.881784197001252e-14,0.0,8.881784197001252e-14,0.0,0,0,0,0,8.881784197001252e-14,1.3399999999999912,0.0,8.881784197001252e-14,0.0
311,0,311,7.046799999999996,3.0,1.339999999999992,0.0,7.993605777301127e-14,0.0,7.993605777301127e-14,0.0,0,0,0,0,7.993605777301127e-14,1.339999999999992,0.0,7.993605777301127e-14,0.0
312,0,312,7.060199999999996,3.0,1.339999999999993,0.0,7.105427357601002e-14,0.0,7.105427357601002e-14,0.0,0,0,0,0,7.105427357601002e-14,1.339999999999993,0.0,7.105427357601002e-14,0.0
313,0,313,7.0735999999999954,3.0,1.3399999999999936,0.0,6.439293542825908e-14,0.0,6.439293542825908e-14,0.0,0,0,0,0,6.439293542825908e-14,1.3399999999999936,0.0,6.439293542825908e-14,0.0
314,0,314,7.086999999999995,3.0,1.3399999999999943,0.0,5.773159728050814e-14,0.0,5.773159728050814e-14,0.0,0,0,0,0,5.773159728050814e-14,1.3399999999999943,0.0,5.773159728050814e-14,0.0
315,0,315,7.100399999999995,3.0,1.339999999999995,0.0,5.10702591327572e-14,0.0,5.10702591327572e-14,0.0,0,0,0,0,5.10702591327572e-14,1.339999999999995,0.0,5.10702591327572e-14,0.0
316,0,316,7.113799999999995,3.0,1.3399999999999954,0.0,4.6629367034256575e-14,0.0,4.6629367034256575e-14,0.0,0,0,0,0,4.6629367034256575e-14,1.3399999999999954,0.0,4.6629367034256575e-14,0.0
317,0,317,7.127199999999995,3.0,1.3399999999999959,0.0,4.218847493575595e-14,0.0,4.218847493575595e-14,0.0,0,0,0,0,4.218847493575595e-14,1.3399999999999959,0.0,4.218847493575595e-14,0.0
318,0,318,7.140599999999995,3.0,1.3399999999999963,0.0,3.774758283725532e-14,0.0,3.774758283725532e-14,0.0,0,0,0,0,3.774758283725532e-14,1.3399999999999963,0.0,3.774758283725532e-14,0.0
319,0,319,7.153999999999995,3.0,1.3399999999999967,0.0,3.3306690738754696e-14,0.0,3.3306690738754696e-14,0.0,0,0,0,0,3.3306690738754696e-14,1.3399999999999967,0.0,3.3306690738754696e-14,0.0
320,0,320,7.167399999999994,3.0,1.3399999999999972,0.0,2.886579864025407e-14,0.0,2.886579864025407e-14,0.0,0,0,0,0,2.886579864025407e-14,1.3399999999999972,0.0,2.886579864025407e-14,0.0
321,0,321,7.180799999999994,3.0,1.3399999999999974,0.0,2.6645352591003757e-14,0.0,2.6645352591003757e-14,0.0,0,0,0,0,2.6645352591003757e-14,1.3399999999999974,0.0,2.6645352591003757e-14,0.0
322,0,322,7.194199999999994,3.0,1.3399999999999976,0.0,2.4424906541753444e-14,0.0,2.4424906541753444e-14,0.0,0,0,0,0,2.4424906541753444e-14,1.3399999999999976,0.0,2.4424906541753444e-14,0.0
323,0,323,7.207599999999994,3.0,1.3399999999999979,0.0,2.220446049250313e-14,0.0,2.220446049250313e-14,0.0,0,0,0,0,2.220446049250313e-14,1.3399999999999979,0.0,2.220446049250313e-14,0.0
324,0,324,7.220999999999994,3.0,1.339999999999998,0.0,1.9984014443252818e-14,0.0,1.9984014443252818e-14,0.0,0,0,0,0,1.9984014443252818e-14,1.339999999999998,0.0,1.9984014443252818e-14,0.0
325,0,325,7.234399999999994,3.0,1.3399999999999983,0.0,1.7763568394002505e-14,0.0,1.7763568394002505e-14,0.0,0,0,0,0,1.7763568394002505e-14,1.3399999999999983,0.0,1.7763568394002505e-14,0.0
326,0,326,7.247799999999994,3.0,1.3399999999999985,0.0,1.554312234475219e-14,0.0,1.554312234475219e-14,0.0,0,0,0,0,1.554312234475219e-14,1.3399999999999985,0.0,1.554312234475219e-14,0.0
327,0,327,7.261199999999993,3.0,1.3399999999999987,0.0,1.3322676295501878e-14,0.0,1.3322676295501878e-14,0.0,0,0,0,0,1.3322676295501878e-14,1.3399999999999987,0.0,1.3322676295501878e-14,0.0
328,0,328,7.274599999999993,3.0,1.339999999999999,0.0,1.1102230246251565e-14,0.0,1.1102230246251565e-14,0.0,0,0,0,0,1.1102230246251565e-14,1.339999999999999,0.0,1.1102230246251565e-14,0.0
329,0,329,7.287999999999993,3.0,1.339999999999999,0.0,1.1102230246251565e-14,0.0,1.1102230246251565e-14,0.0,0,0,0,0,1.1102230246251565e-14,1.339999999999999,0.0,1.1102230246251565e-14,0.0
330,0,330,7.301399999999993,3.0,1.339999999999999,0.0,1.1102230246251565e-14,0.0,1.1102230246251565e-14,0.0,0,0,0,0,1.1102230246251565e-14,1.339999999999999,0.0,1.1102230246251565e-14,0.0
331,0,331,7.314799999999993,3.0,1.339999999999999,0.0,1.1102230246251565e-14,0.0,1.1102230246251565e-14,0.0,0,0,0,0,1.1102230246251565e-14,1.339999999999999,0.0,1.1102230246251565e-14,0.0
332,0,332,7.328199999999993,3.0,1.339999999999999,0.0,1.1102230246251565e-14,0.0,1.1102230246251565e-14,0.0,0,0,0,0,1.1102230246251565e-14,1.339999999999999,0.0,1.1102230246251565e-14,0.0
333,0,333,7.341599999999993,3.0,1.339999999999999,0.0,1.1102230246251565e-14,0.0,1.1102230246251565e-14,0.0,0,0,0,0,1.1102230246251565e-14,1.339999999999999,0.0,1.1102230246251565e-14,0.0
334,0,334,7.354999999999992,3.0,1.339999999999999,0.0,1.1102230246251565e-14,0.0,1.1102230246251565e-14,0.0,0,0,0,0,1.1102230246251565e-14,1.339999999999999,0.0,1.1102230246251565e-14,0.0
335,0,335,7.368399999999992,3.0,1.339999999999999,0.0,1.1102230246251565e-14,0.0,1.1102230246251565e-14,0.0,0,0,0,0,1.1102230246251565e-14,1.339999999999999,0.0,1.1102230246251565e-14,0.0
336,0,336,7.381799999999992,3.0,1.339999999999999,0.0,1.1102230246251565e-14,0.0,1.1102230246251565e-14,0.0,0,0,0,0,1.1102230246251565e-14,1.339999999999999,0.0,1.1102230246251565e-14,0.0
337,0,337,7.395199999999992,3.0,1.339999999999999,0.0,1.1102230246251565e-14,0.0,1.1102230246251565e-14,0.0,0,0,0,0,1.1102230246251565e-14,1.339999999999999,0.0,1.1102230246251565e-14,0.0
338,0,338,7.408599999999992,3.0,1.339999999999999,0.0,1.1102230246251565e-14,0.0,1.1102230246251565e-14,0.0,0,0,0,0,1.1102230246251565e-14,1.339999999999999,0.0,1.1102230246251565e-14,0.0
339,0,339,7.421999999999992,3.0,1.339999999999999,0.0,1.1102230246251565e-14,0.0,1.1102230246251565e-14,0.0,0,0,0,0,1.1102230246251565e-14,1.339999999999999,0.0,1.1102230246251565e-14,0.0
340,0,340,7.435399999999992,3.0,1.339999999999999,0.0,1.1102230246251565e-14,0.0,1.1102230246251565e-14,0.0,0,0,0,0,1.1102230246251565e-14,1.339999999999999,0.0,1.1102230246251565e-14,0.0
341,0,341,7.448799999999991,3.0,1.339999999999999,0.0,1.1102230246251565e-14,0.0,1.1102230246251565e-14,0.0,0,0,0,0,1.1102230246251565e-14,1.339999999999999,0.0,1.1102230246251565e-14,0.0
342,0,342,7.462199999999991,3.0,1.339999999999999,0.0,1.1102230246251565e-14,0.0,1.1102230246251565e-14,0.0,0,0,0,0,1.1102230246251565e-14,1.339999999999999,0.0,1.1102230246251565e-14,0.0
343,0,343,7.475599999999991,3.0,1.339999999999999,0.0,1.1102230246251565e-14,0.0,1.1102230246251565e-14,0.0,0,0,0,0,1.1102230246251565e-14,1.339999999999999,0.0,1.1102230246251565e-14,0.0
344,0,344,7.488999999999991,3.0,1.339999999999999,0.0,1.1102230246251565e-14,0.0,1.1102230246251565e-14,0.0,0,0,0,0,1.1102230246251565e-14,1.339999999999999,0.0,1.1102230246251565e-14,0.0
345,0,345,7.502399999999991,3.0,1.339999999999999,0.0,1.1102230246251565e-14,0.0,1.1102230246251565e-14,0.0,0,0,0,0,1.1102230246251565e-14,1.339999999999999,0.0,1.1102230246251565e-14,0.0
346,0,346,7.515799999999991,3.0,1.339999999999999,0.0,1.1102230246251565e-14,0.0,1.1102230246251565e-14,0.0,0,0,0,0,1.1102230246251565e-14,1.339999999999999,0.0,1.1102230246251565e-14,0.0
347,0,347,7.529199999999991,3.0,1.339999999999999,0.0,1.1102230246251565e-14,0.0,1.1102230246251565e-14,0.0,0,0,0,0,1.1102230246251565e-14,1.339999999999999,0.0,1.1102230246251565e-14,0.0
348,0,348,7.54259999999999,3.0,1.339999999999999,0.0,1.1102230246251565e-14,0.0,1.1102230246251565e-14,0.0,0,0,0,0,1.1102230246251565e-14,1.339999999999999,0.0,1.1102230246251565e-14,0.0
349,0,349,7.55599999999999,3.0,1.339999999999999,0.0,1.1102230246251565e-14,0.0,1.1102230246251565e-14,0.0,0,0,0,0,1.1102230246251565e-14,1.339999999999999,0.0,1.1102230246251565e-14,0.0
350,0,350,7.56939999999999,3.0,1.339999999999999,0.0,1.1102230246251565e-14,0.0,1.1102230246251565e-14,0.0,0,0,0,0,1.1102230246251565e-14,1.339999999999999,0.0,1.1102230246251565e-14,0.0
351,0,351,7.58279999999999,3.0,1.339999999999999,0.0,1.1102230246251565e-14,0.0,1.1102230246251565e-14,0.0,0,0,0,0,1.1102230246251565e-14,1.339999999999999,0.0,1.1102230246251565e-14,0.0
352,0,352,7.59619999999999,3.0,1.339999999999999,0.0,1.1102230246251565e-14,0.0,1.1102230246251565e-14,0.0,0,0,0,0,1.1102230246251565e-14,1.339999999999999,0.0,1.1102230246251565e-14,0.0
353,0,353,7.60959999999999,3.0,1.339999999999999,0.0,1.1102230246251565e-14,0.0,1.1102230246251565e-14,0.0,0,0,0,0,1.1102230246251565e-14,1.339999999999999,0.0,1.1102230246251565e-14,0.0
354,0,354,7.62299999999999,3.0,1.339999999999999,0.0,1.1102230246251565e-14,0.0,1.1102230246251565e-14,0.0,0,0,0,0,1.1102230246251565e-14,1.339999999999999,0.0,1.1102230246251565e-14,0.0
355,0,355,7.636399999999989,3.0,1.339999999999999,0.0,1.1102230246251565e-14,0.0,1.1102230246251565e-14,0.0,0,0,0,0,1.1102230246251565e-14,1.339999999999999,0.0,1.1102230246251565e-14,0.0
356,0,356,7.649799999999989,3.0,1.339999999999999,0.0,1.1102230246251565e-14,0.0,1.1102230246251565e-14,0.0,0,0,0,0,1.1102230246251565e-14,1.339999999999999,0.0,1.1102230246251565e-14,0.0
357,0,357,7.663199999999989,3.0,1.339999999999999,0.0,1.1102230246251565e-14,0.0,1.1102230246251565e-14,0.0,0,0,0,0,1.1102230246251565e-14,1.339999999999999,0.0,1.1102230246251565e-14,0.0
358,0,358,7.676599999999989,3.0,1.339999999999999,0.0,1.1102230246251565e-14,0.0,1.1102230246251565e-14,0.0,0,0,0,0,1.1102230246251565e-14,1.339999999999999,0.0,1.1102230246251565e-14,0.0
359,0,359,7.689999999999989,3.0,1.339999999999999,0.0,1.1102230246251565e-14,0.0,1.1102230246251565e-14,0.0,0,0,0,0,1.1102230246251565e-14,1.339999999999999,0.0,1.1102230246251565e-14,0.0
360,0,360,7.703399999999989,3.0,1.339999999999999,0.0,1.1102230246251565e-14,0.0,1.1102230246251565e-14,0.0,0,0,0,0,1.1102230246251565e-14,1.339999999999999,0.0,1.1102230246251565e-14,0.0
361,0,361,7.716799999999989,3.0,1.339999999999999,0.0,1.1102230246251565e-14,0.0,1.1102230246251565e-14,0.0,0,0,0,0,1.1102230246251565e-14,1.339999999999999,0.0,1.1102230246251565e-14,0.0
362,0,362,7.730199999999988,3.0,1.339999999999999,0.0,1.1102230246251565e-14,0.0,1.1102230246251565e-14,0.0,0,0,0,0,1.1102230246251565e-14,1.339999999999999,0.0,1.1102230246251565e-14,0.0
363,0,363,7.743599999999988,3.0,1.339999999999999,0.0,1.1102230246251565e-14,0.0,1.1102230246251565e-14,0.0,0,0,0,0,1.1102230246251565e-14,1.339999999999999,0.0,1.1102230246251565e-14,0.0
364,0,364,7.756999999999988,3.0,1.339999999999999,0.0,1.1102230246251565e-14,0.0,1.1102230246251565e-14,0.0,0,0,0,0,1.1102230246251565e-14,1.339999999999999,0.0,1.1102230246251565e-14,0.0
365,0,365,7.770399999999988,3.0,1.339999999999999,0.0,1.1102230246251565e-14,0.0,1.1102230246251565e-14,0.0,0,0,0,0,1.1102230246251565e-14,1.339999999999999,0.0,1.1102230246251565e-14,0.0
366,0,366,7.783799999999988,3.0,1.339999999999999,0.0,1.1102230246251565e-14,0.0,1.1102230246251565e-14,0.0,0,0,0,0,1.1102230246251565e-14,1.339999999999999,0.0,1.1102230246251565e-14,0.0
367,0,367,7.797199999999988,3.0,1.339999999999999,0.0,1.1102230246251565e-14,0.0,1.1102230246251565e-14,0.0,0,0,0,0,1.1102230246251565e-14,1.339999999999999,0.0,1.1102230246251565e-14,0.0
368,0,368,7.8105999999999876,3.0,1.339999999999999,0.0,1.1102230246251565e-14,0.0,1.1102230246251565e-14,0.0,0,0,0,0,1.1102230246251565e-14,1.339999999999999,0.0,1.1102230246251565e-14,0.0
369,0,369,7.823999999999987,3.0,1.339999999999999,0.0,1.1102230246251565e-14,0.0,1.1102230246251565e-14,0.0,0,0,0,0,1.1102230246251565e-14,1.339999999999999,0.0,1.1102230246251565e-14,0.0
370,0,370,7.837399999999987,3.0,1.339999999999999,0.0,1.1102230246251565e-14,0.0,1.1102230246251565e-14,0.0,0,0,0,0,1.1102230246251565e-14,1.339999999999999,0.0,1.1102230246251565e-14,0.0
371,0,371,7.850799999999987,3.0,1.339999999999999,0.0,1.1102230246251565e-14,0.0,1.1102230246251565e-14,0.0,0,0,0,0,1.1102230246251565e-14,1.339999999999999,0.0,1.1102230246251565e-14,0.0
372,0,372,7.864199999999987,3.0,1.339999999999999,0.0,1.1102230246251565e-14,0.0,1.1102230246251565e-14,0.0,0,0,0,0,1.1102230246251565e-14,1.339999999999999,0.0,1.1102230246251565e-14,0.0
373,0,373,7.877599999999987,3.0,1.339999999999999,0.0,1.1102230246251565e-14,0.0,1.1102230246251565e-14,0.0,0,0,0,0,1.1102230246251565e-14,1.339999999999999,0.0,1.1102230246251565e-14,0.0
374,0,374,7.890999999999987,3.0,1.339999999999999,0.0,1.1102230246251565e-14,0.0,1.1102230246251565e-14,0.0,0,0,0,0,1.1102230246251565e-14,1.339999999999999,0.0,1.1102230246251565e-14,0.0
375,0,375,7.9043999999999865,3.0,1.339999999999999,0.0,1.1102230246251565e-14,0.0,1.1102230246251565e-14,0.0,0,0,0,0,1.1102230246251565e-14,1.339999999999999,0.0,1.1102230246251565e-14,0.0
376,0,376,7.917799999999986,3.0,1.339999999999999,0.0,1.1102230246251565e-14,0.0,1.1102230246251565e-14,0.0,0,0,0,0,1.1102230246251565e-14,1.339999999999999,0.0,1.1102230246251565e-14,0.0
377,0,377,7.931199999999986,3.0,1.339999999999999,0.0,1.1102230246251565e-14,0.0,1.1102230246251565e-14,0.0,0,0,0,0,1.1102230246251565e-14,1.339999999999999,0.0,1.1102230246251565e-14,0.0
378,0,378,7.944599999999986,3.0,1.339999999999999,0.0,1.1102230246251565e-14,0.0,1.1102230246251565e-14,0.0,0,0,0,0,1.1102230246251565e-14,1.339999999999999,0.0,1.1102230246251565e-14,0.0
379,0,379,7.957999999999986,3.0,1.339999999999999,0.0,1.1102230246251565e-14,0.0,1.1102230246251565e-14,0.0,0,0,0,0,1.1102230246251565e-14,1.339999999999999,0.0,1.1102230246251565e-14,0.0
380,0,380,7.971399999999986,3.0,1.339999999999999,0.0,1.1102230246251565e-14,0.0,1.1102230246251565e-14,0.0,0,0,0,0,1.1102230246251565e-14,1.339999999999999,0.0,1.1102230246251565e-14,0.0
381,0,381,7.984799999999986,3.0,1.339999999999999,0.0,1.1102230246251565e-14,0.0,1.1102230246251565e-14,0.0,0,0,0,0,1.1102230246251565e-14,1.339999999999999,0.0,1.1102230246251565e-14,0.0
382,0,382,7.9981999999999855,3.0,1.339999999999999,0.0,1.1102230246251565e-14,0.0,1.1102230246251565e-14,0.0,0,0,0,0,1.1102230246251565e-14,1.339999999999999,0.0,1.1102230246251565e-14,0.0
383,0,383,8.011599999999985,3.0,1.339999999999999,0.0,1.1102230246251565e-14,0.0,1.1102230246251565e-14,0.0,0,0,0,0,1.1102230246251565e-14,1.339999999999999,0.0,1.1102230246251565e-14,0.0
384,0,384,8.024999999999986,3.0,1.339999999999999,0.0,1.1102230246251565e-14,0.0,1.1102230246251565e-14,0.0,0,0,0,0,1.1102230246251565e-14,1.339999999999999,0.0,1.1102230246251565e-14,0.0
385,0,385,8.038399999999987,3.0,1.339999999999999,0.0,1.1102230246251565e-14,0.0,1.1102230246251565e-14,0.0,0,0,0,0,1.1102230246251565e-14,1.339999999999999,0.0,1.1102230246251565e-14,0.0
386,0,386,8.051799999999988,3.0,1.339999999999999,0.0,1.1102230246251565e-14,0.0,1.1102230246251565e-14,0.0,0,0,0,0,1.1102230246251565e-14,1.339999999999999,0.0,1.1102230246251565e-14,0.0
387,0,387,8.065199999999988,3.0,1.339999999999999,0.0,1.1102230246251565e-14,0.0,1.1102230246251565e-14,0.0,0,0,0,0,1.1102230246251565e-14,1.339999999999999,0.0,1.1102230246251565e-14,0.0
388,0,388,8.07859999999999,3.0,1.339999999999999,0.0,1.1102230246251565e-14,0.0,1.1102230246251565e-14,0.0,0,0,0,0,1.1102230246251565e-14,1.339999999999999,0.0,1.1102230246251565e-14,0.0
389,0,389,8.09199999999999,3.0,1.339999999999999,0.0,1.1102230246251565e-14,0.0,1.1102230246251565e-14,0.0,0,0,0,0,1.1102230246251565e-14,1.339999999999999,0.0,1.1102230246251565e-14,0.0
390,0,390,8.10539999999999,3.0,1.339999999999999,0.0,1.1102230246251565e-14,0.0,1.1102230246251565e-14,0.0,0,0,0,0,1.1102230246251565e-14,1.339999999999999,0.0,1.1102230246251565e-14,0.0
391,0,391,8.118799999999991,3.0,1.339999999999999,0.0,1.1102230246251565e-14,0.0,1.1102230246251565e-14,0.0,0,0,0,0,1.1102230246251565e-14,1.339999999999999,0.0,1.1102230246251565e-14,0.0
392,0,392,8.132199999999992,3.0,1.339999999999999,0.0,1.1102230246251565e-14,0.0,1.1102230246251565e-14,0.0,0,0,0,0,1.1102230246251565e-14,1.339999999999999,0.0,1.1102230246251565e-14,0.0
393,0,393,8.145599999999993,3.0,1.339999999999999,0.0,1.1102230246251565e-14,0.0,1.1102230246251565e-14,0.0,0,0,0,0,1.1102230246251565e-14,1.339999999999999,0.0,1.1102230246251565e-14,0.0
394,0,394,8.158999999999994,3.0,1.339999999999999,0.0,1.1102230246251565e-14,0.0,1.1102230246251565e-14,0.0,0,0,0,0,1.1102230246251565e-14,1.339999999999999,0.0,1.1102230246251565e-14,0.0
395,0,395,8.172399999999994,3.0,1.339999999999999,0.0,1.1102230246251565e-14,0.0,1.1102230246251565e-14,0.0,0,0,0,0,1.1102230246251565e-14,1.339999999999999,0.0,1.1102230246251565e-14,0.0
396,0,396,8.185799999999995,3.0,1.339999999999999,0.0,1.1102230246251565e-14,0.0,1.1102230246251565e-14,0.0,0,0,0,0,1.1102230246251565e-14,1.339999999999999,0.0,1.1102230246251565e-14,0.0
397,0,397,8.199199999999996,3.0,1.339999999999999,0.0,1.1102230246251565e-14,0.0,1.1102230246251565e-14,0.0,0,0,0,0,1.1102230246251565e-14,1.339999999999999,0.0,1.1102230246251565e-14,0.0
398,0,398,8.212599999999997,3.0,1.339999999999999,0.0,1.1102230246251565e-14,0.0,1.1102230246251565e-14,0.0,0,0,0,0,1.1102230246251565e-14,1.339999999999999,0.0,1.1102230246251565e-14,0.0
399,0,399,8.225999999999997,3.0,1.339999999999999,0.0,1.1102230246251565e-14,0.0,1.1102230246251565e-14,0.0,0,0,0,0,1.1102230246251565e-14,1.339999999999999,0.0,1.1102230246251565e-14,0.0
