,agent_id,step,position_x,position_y,velocity_x,velocity_y,resultant_x,resultant_y,time_relaxation_x,time_relaxation_y,agent_repulsion_x,agent_repulsion_y,border_repulsion_x,border_repulsion_y,resultant_mag,velocity_mag,agent_repulsion_mag,time_relaxation_mag,border_repulsion_mag
0,0,0,3.0,3.0,0.0,0.0,6.7,0.0,6.7,0.0,0,0,0,0,6.7,0.0,0.0,6.7,0.0
1,0,1,3.00067,3.0,0.067,0.0,6.365,0.0,6.365,0.0,0,0,0,0,6.365,0.067,0.0,6.365,0.0
2,0,2,3.0019765,3.0,0.13065,0.0,6.04675,0.0,6.04675,0.0,0,0,0,0,6.04675,0.13065,0.0,6.04675,0.0
3,0,3,3.003887675,3.0,0.1911175,0.0,5.7444125,0.0,5.7444125,0.0,0,0,0,0,5.7444125,0.1911175,0.0,5.7444125,0.0
4,0,4,3.00637329125,3.0,0.248561625,0.0,5.457191875,0.0,5.457191875,0.0,0,0,0,0,5.457191875,0.248561625,0.0,5.457191875,0.0
5,0,5,3.0094046266875,3.0,0.30313354375,0.0,5.18433228125,0.0,5.18433228125,0.0,0,0,0,0,5.18433228125,0.30313354375,0.0,5.18433228125,0.0
6,0,6,3.012954395353125,3.0,0.3549768665625,0.0,4.925115667187501,0.0,4.925115667187501,0.0,0,0,0,0,4.925115667187501,0.3549768665625,0.0,4.925115667187501,0.0
7,0,7,3.0169966755854687,3.0,0.404228023234375,0.0,4.6788598838281255,0.0,4.6788598838281255,0.0,0,0,0,0,4.6788598838281255,0.404228023234375,0.0,4.6788598838281255,0.0
8,0,8,3.0215068418061954,3.0,0.45101662207265625,0.0,4.444916889636719,0.0,4.444916889636719,0.0,0,0,0,0,4.444916889636719,0.45101662207265625,0.0,4.444916889636719,0.0
9,0,9,3.026461499715886,3.0,0.49546579096902343,0.0,4.222671045154883,0.0,4.222671045154883,0.0,0,0,0,0,4.222671045154883,0.49546579096902343,0.0,4.222671045154883,0.0
10,0,10,3.0318384247300916,3.0,0.5376925014205722,0.0,4.011537492897139,0.0,4.011537492897139,0.0,0,0,0,0,4.011537492897139,0.5376925014205722,0.0,4.011537492897139,0.0
11,0,11,3.037616503493587,3.0,0.5778078763495437,0.0,3.810960618252282,0.0,3.810960618252282,0.0,0,0,0,0,3.810960618252282,0.5778078763495437,0.0,3.810960618252282,0.0
12,0,12,3.043775678318908,3.0,0.6159174825320665,0.0,3.620412587339668,0.0,3.620412587339668,0.0,0,0,0,0,3.620412587339668,0.6159174825320665,0.0,3.620412587339668,0.0
13,0,13,3.0502968944029623,3.0,0.6521216084054632,0.0,3.4393919579726844,0.0,3.4393919579726844,0.0,0,0,0,0,3.4393919579726844,0.6521216084054632,0.0,3.4393919579726844,0.0
14,0,14,3.0571620496828142,3.0,0.68651552798519,0.0,3.2674223600740504,0.0,3.2674223600740504,0.0,0,0,0,0,3.2674223600740504,0.68651552798519,0.0,3.2674223600740504,0.0
15,0,15,3.0643539471986734,3.0,0.7191897515859305,0.0,3.104051242070348,0.0,3.104051242070348,0.0,0,0,0,0,3.104051242070348,0.7191897515859305,0.0,3.104051242070348,0.0
16,0,16,3.07185624983874,3.0,0.750230264006634,0.0,2.9488486799668303,0.0,2.9488486799668303,0.0,0,0,0,0,2.9488486799668303,0.750230264006634,0.0,2.9488486799668303,0.0
17,0,17,3.0796534373468027,3.0,0.7797187508063023,0.0,2.8014062459684888,0.0,2.8014062459684888,0.0,0,0,0,0,2.8014062459684888,0.7797187508063023,0.0,2.8014062459684888,0.0
18,0,18,3.0877307654794626,3.0,0.8077328132659871,0.0,2.6613359336700646,0.0,2.6613359336700646,0.0,0,0,0,0,2.6613359336700646,0.8077328132659871,0.0,2.6613359336700646,0.0
19,0,19,3.0960742272054893,3.0,0.8343461726026877,0.0,2.5282691369865615,0.0,2.5282691369865615,0.0,0,0,0,0,2.5282691369865615,0.8343461726026877,0.0,2.5282691369865615,0.0
20,0,20,3.104670515845215,3.0,0.8596288639725533,0.0,2.4018556801372335,0.0,2.4018556801372335,0.0,0,0,0,0,2.4018556801372335,0.8596288639725533,0.0,2.4018556801372335,0.0
21,0,21,3.1135069900529544,3.0,0.8836474207739257,0.0,2.2817628961303718,0.0,2.2817628961303718,0.0,0,0,0,0,2.2817628961303718,0.8836474207739257,0.0,2.2817628961303718,0.0
22,0,22,3.122571640550307,3.0,0.9064650497352293,0.0,2.1676747513238537,0.0,2.1676747513238537,0.0,0,0,0,0,2.1676747513238537,0.9064650497352293,0.0,2.1676747513238537,0.0
23,0,23,3.1318530585227915,3.0,0.9281417972484679,0.0,2.0592910137576608,0.0,2.0592910137576608,0.0,0,0,0,0,2.0592910137576608,0.9281417972484679,0.0,2.0592910137576608,0.0
24,0,24,3.141340405596652,3.0,0.9487347073860445,0.0,1.9563264630697779,0.0,1.9563264630697779,0.0,0,0,0,0,1.9563264630697779,0.9487347073860445,0.0,1.9563264630697779,0.0
25,0,25,3.1510233853168192,3.0,0.9682979720167423,0.0,1.8585101399162889,0.0,1.8585101399162889,0.0,0,0,0,0,1.8585101399162889,0.9682979720167423,0.0,1.8585101399162889,0.0
26,0,26,3.1608922160509785,3.0,0.9868830734159052,0.0,1.7655846329204743,0.0,1.7655846329204743,0.0,0,0,0,0,1.7655846329204743,0.9868830734159052,0.0,1.7655846329204743,0.0
27,0,27,3.1709376052484295,3.0,1.00453891974511,0.0,1.6773054012744504,0.0,1.6773054012744504,0.0,0,0,0,0,1.6773054012744504,1.00453891974511,0.0,1.6773054012744504,0.0
28,0,28,3.181150724986008,3.0,1.0213119737578544,0.0,1.5934401312107283,0.0,1.5934401312107283,0.0,0,0,0,0,1.5934401312107283,1.0213119737578544,0.0,1.5934401312107283,0.0
29,0,29,3.1915231887367073,3.0,1.0372463750699616,0.0,1.5137681246501922,0.0,1.5137681246501922,0.0,0,0,0,0,1.5137681246501922,1.0372463750699616,0.0,1.5137681246501922,0.0
30,0,30,3.2020470292998717,3.0,1.0523840563164635,0.0,1.438079718417683,0.0,1.438079718417683,0.0,0,0,0,0,1.438079718417683,1.0523840563164635,0.0,1.438079718417683,0.0
31,0,31,3.212714677834878,3.0,1.0667648535006402,0.0,1.3661757324967994,0.0,1.3661757324967994,0.0,0,0,0,0,1.3661757324967994,1.0667648535006402,0.0,1.3661757324967994,0.0
32,0,32,3.223518943943134,3.0,1.0804266108256082,0.0,1.2978669458719594,0.0,1.2978669458719594,0.0,0,0,0,0,1.2978669458719594,1.0804266108256082,0.0,1.2978669458719594,0.0
33,0,33,3.2344529967459774,3.0,1.0934052802843277,0.0,1.2329735985783619,0.0,1.2329735985783619,0.0,0,0,0,0,1.2329735985783619,1.0934052802843277,0.0,1.2329735985783619,0.0
34,0,34,3.2455103469086786,3.0,1.1057350162701114,0.0,1.1713249186494434,0.0,1.1713249186494434,0.0,0,0,0,0,1.1713249186494434,1.1057350162701114,0.0,1.1713249186494434,0.0
35,0,35,3.2566848295632447,3.0,1.1174482654566058,0.0,1.1127586727169714,0.0,1.1127586727169714,0.0,0,0,0,0,1.1127586727169714,1.1174482654566058,0.0,1.1127586727169714,0.0
36,0,36,3.2679705880850825,3.0,1.1285758521837754,0.0,1.0571207390811233,0.0,1.0571207390811233,0.0,0,0,0,0,1.0571207390811233,1.1285758521837754,0.0,1.0571207390811233,0.0
37,0,37,3.2793620586808285,3.0,1.1391470595745867,0.0,1.0042647021270668,0.0,1.0042647021270668,0.0,0,0,0,0,1.0042647021270668,1.1391470595745867,0.0,1.0042647021270668,0.0
38,0,38,3.2908539557467873,3.0,1.1491897065958574,0.0,0.9540514670207134,0.0,0.9540514670207134,0.0,0,0,0,0,0.9540514670207134,1.1491897065958574,0.0,0.9540514670207134,0.0
39,0,39,3.302441257959448,3.0,1.1587302212660646,0.0,0.9063488936696773,0.0,0.9063488936696773,0.0,0,0,0,0,0.9063488936696773,1.1587302212660646,0.0,0.9063488936696773,0.0
40,0,40,3.3141191950614757,3.0,1.1677937102027613,0.0,0.8610314489861937,0.0,0.8610314489861937,0.0,0,0,0,0,0.8610314489861937,1.1677937102027613,0.0,0.8610314489861937,0.0
41,0,41,3.325883235308402,3.0,1.1764040246926233,0.0,0.817979876536884,0.0,0.817979876536884,0.0,0,0,0,0,0.817979876536884,1.1764040246926233,0.0,0.817979876536884,0.0
42,0,42,3.337729073542982,3.0,1.1845838234579922,0.0,0.7770808827100395,0.0,0.7770808827100395,0.0,0,0,0,0,0.7770808827100395,1.1845838234579922,0.0,0.7770808827100395,0.0
43,0,43,3.3496526198658327,3.0,1.1923546322850926,0.0,0.7382268385745372,0.0,0.7382268385745372,0.0,0,0,0,0,0.7382268385745372,1.1923546322850926,0.0,0.7382268385745372,0.0
44,0,44,3.361649988872541,3.0,1.199736900670838,0.0,0.7013154966458102,0.0,0.7013154966458102,0.0,0,0,0,0,0.7013154966458102,1.199736900670838,0.0,0.7013154966458102,0.0
45,0,45,3.373717489428914,3.0,1.206750055637296,0.0,0.6662497218135199,0.0,0.6662497218135199,0.0,0,0,0,0,0.6662497218135199,1.206750055637296,0.0,0.6662497218135199,0.0
46,0,46,3.3858516149574682,3.0,1.2134125528554314,0.0,0.6329372357228435,0.0,0.6329372357228435,0.0,0,0,0,0,0.6329372357228435,1.2134125528554314,0.0,0.6329372357228435,0.0
47,0,47,3.398049034209595,3.0,1.2197419252126598,0.0,0.6012903739367015,0.0,0.6012903739367015,0.0,0,0,0,0,0.6012903739367015,1.2197419252126598,0.0,0.6012903739367015,0.0
48,0,48,3.4103065824991154,3.0,1.2257548289520268,0.0,0.5712258552398664,0.0,0.5712258552398664,0.0,0,0,0,0,0.5712258552398664,1.2257548289520268,0.0,0.5712258552398664,0.0
49,0,49,3.42262125337416,3.0,1.2314670875044256,0.0,0.5426645624778725,0.0,0.5426645624778725,0.0,0,0,0,0,0.5426645624778725,1.2314670875044256,0.0,0.5426645624778725,0.0
50,0,50,3.434990190705452,3.0,1.2368937331292043,0.0,0.5155313343539791,0.0,0.5155313343539791,0.0,0,0,0,0,0.5155313343539791,1.2368937331292043,0.0,0.5155313343539791,0.0
51,0,51,3.4474106811701795,3.0,1.242049046472744,0.0,0.4897547676362801,0.0,0.4897547676362801,0.0,0,0,0,0,0.4897547676362801,1.242049046472744,0.0,0.4897547676362801,0.0
52,0,52,3.4598801471116705,3.0,1.246946594149107,0.0,0.46526702925446584,0.0,0.46526702925446584,0.0,0,0,0,0,0.46526702925446584,1.246946594149107,0.0,0.46526702925446584,0.0
53,0,53,3.472396139756087,3.0,1.2515992644416516,0.0,0.44200367779174243,0.0,0.44200367779174243,0.0,0,0,0,0,0.44200367779174243,1.2515992644416516,0.0,0.44200367779174243,0.0
54,0,54,3.4849563327682826,3.0,1.256019301219569,0.0,0.4199034939021551,0.0,0.4199034939021551,0.0,0,0,0,0,0.4199034939021551,1.256019301219569,0.0,0.4199034939021551,0.0
55,0,55,3.4975585161298683,3.0,1.2602183361585906,0.0,0.3989083192070475,0.0,0.3989083192070475,0.0,0,0,0,0,0.3989083192070475,1.2602183361585906,0.0,0.3989083192070475,0.0
56,0,56,3.510200590323375,3.0,1.2642074193506612,0.0,0.37896290324669457,0.0,0.37896290324669457,0.0,0,0,0,0,0.37896290324669457,1.2642074193506612,0.0,0.37896290324669457,0.0
57,0,57,3.5228805608072062,3.0,1.2679970483831282,0.0,0.36001475808435934,0.0,0.36001475808435934,0.0,0,0,0,0,0.36001475808435934,1.2679970483831282,0.0,0.36001475808435934,0.0
58,0,58,3.535596532766846,3.0,1.2715971959639718,0.0,0.3420140201801414,0.0,0.3420140201801414,0.0,0,0,0,0,0.3420140201801414,1.2715971959639718,0.0,0.3420140201801414,0.0
59,0,59,3.5483467061285037,3.0,1.2750173361657733,0.0,0.324913319171134,0.0,0.324913319171134,0.0,0,0,0,0,0.324913319171134,1.2750173361657733,0.0,0.324913319171134,0.0
60,0,60,3.5611293708220786,3.0,1.2782664693574846,0.0,0.3086676532125776,0.0,0.3086676532125776,0.0,0,0,0,0,0.3086676532125776,1.2782664693574846,0.0,0.3086676532125776,0.0
61,0,61,3.5739429022809746,3.0,1.2813531458896104,0.0,0.2932342705519486,0.0,0.2932342705519486,0.0,0,0,0,0,0.2932342705519486,1.2813531458896104,0.0,0.2932342705519486,0.0
62,0,62,3.586785757166926,3.0,1.2842854885951298,0.0,0.27857255702435135,0.0,0.27857255702435135,0.0,0,0,0,0,0.27857255702435135,1.2842854885951298,0.0,0.27857255702435135,0.0
63,0,63,3.5996564693085795,3.0,1.2870712141653733,0.0,0.26464392917313395,0.0,0.26464392917313395,0.0,0,0,0,0,0.26464392917313395,1.2870712141653733,0.0,0.26464392917313395,0.0
64,0,64,3.6125536458431506,3.0,1.2897176534571047,0.0,0.25141173271447714,0.0,0.25141173271447714,0.0,0,0,0,0,0.25141173271447714,1.2897176534571047,0.0,0.25141173271447714,0.0
65,0,65,3.625475963550993,3.0,1.2922317707842494,0.0,0.23884114607875317,0.0,0.23884114607875317,0.0,0,0,0,0,0.23884114607875317,1.2922317707842494,0.0,0.23884114607875317,0.0
66,0,66,3.638422165373443,3.0,1.294620182245037,0.0,0.22689908877481568,0.0,0.22689908877481568,0.0,0,0,0,0,0.22689908877481568,1.294620182245037,0.0,0.22689908877481568,0.0
67,0,67,3.651391057104771,3.0,1.2968891731327852,0.0,0.2155541343360745,0.0,0.2155541343360745,0.0,0,0,0,0,0.2155541343360745,1.2968891731327852,0.0,0.2155541343360745,0.0
68,0,68,3.6643815042495325,3.0,1.299044714476146,0.0,0.20477642761927095,0.0,0.20477642761927095,0.0,0,0,0,0,0.20477642761927095,1.299044714476146,0.0,0.20477642761927095,0.0
69,0,69,3.677392429037056,3.0,1.3010924787523386,0.0,0.19453760623830751,0.0,0.19453760623830751,0.0,0,0,0,0,0.19453760623830751,1.3010924787523386,0.0,0.19453760623830751,0.0
70,0,70,3.690422807585203,3.0,1.3030378548147217,0.0,0.18481072592639203,0.0,0.18481072592639203,0.0,0,0,0,0,0.18481072592639203,1.3030378548147217,0.0,0.18481072592639203,0.0
71,0,71,3.703471667205943,3.0,1.3048859620739857,0.0,0.1755701896300721,0.0,0.1755701896300721,0.0,0,0,0,0,0.1755701896300721,1.3048859620739857,0.0,0.1755701896300721,0.0
72,0,72,3.716538083845646,3.0,1.3066416639702865,0.0,0.16679168014856804,0.0,0.16679168014856804,0.0,0,0,0,0,0.16679168014856804,1.3066416639702865,0.0,0.16679168014856804,0.0
73,0,73,3.7296211796533636,3.0,1.3083095807717722,0.0,0.15845209614113953,0.0,0.15845209614113953,0.0,0,0,0,0,0.15845209614113953,1.3083095807717722,0.0,0.15845209614113953,0.0
74,0,74,3.7427201206706955,3.0,1.3098941017331835,0.0,0.15052949133408267,0.0,0.15052949133408267,0.0,0,0,0,0,0.15052949133408267,1.3098941017331835,0.0,0.15052949133408267,0.0
75,0,75,3.7558341146371608,3.0,1.3113993966465243,0.0,0.14300301676737903,0.0,0.14300301676737903,0.0,0,0,0,0,0.14300301676737903,1.3113993966465243,0.0,0.14300301676737903,0.0
76,0,76,3.7689624089053027,3.0,1.312829426814198,0.0,0.13585286592901036,0.0,0.13585286592901036,0.0,0,0,0,0,0.13585286592901036,1.312829426814198,0.0,0.13585286592901036,0.0
77,0,77,3.7821042884600375,3.0,1.314187955473488,0.0,0.1290602226325599,0.0,0.1290602226325599,0.0,0,0,0,0,0.1290602226325599,1.314187955473488,0.0,0.1290602226325599,0.0
78,0,78,3.7952590740370358,3.0,1.3154785576998136,0.0,0.12260721150093246,0.0,0.12260721150093246,0.0,0,0,0,0,0.12260721150093246,1.3154785576998136,0.0,0.12260721150093246,0.0
79,0,79,3.808426120335184,3.0,1.3167046298148228,0.0,0.11647685092588622,0.0,0.11647685092588622,0.0,0,0,0,0,0.11647685092588622,1.3167046298148228,0.0,0.11647685092588622,0.0
80,0,80,3.821604814318425,3.0,1.3178693983240817,0.0,0.11065300837959202,0.0,0.11065300837959202,0.0,0,0,0,0,0.11065300837959202,1.3178693983240817,0.0,0.11065300837959202,0.0
81,0,81,3.8347945736025038,3.0,1.3189759284078777,0.0,0.10512035796061192,0.0,0.10512035796061192,0.0,0,0,0,0,0.10512035796061192,1.3189759284078777,0.0,0.10512035796061192,0.0
82,0,82,3.8479948449223786,3.0,1.320027131987484,0.0,0.09986434006258094,0.0,0.09986434006258094,0.0,0,0,0,0,0.09986434006258094,1.320027131987484,0.0,0.09986434006258094,0.0
83,0,83,3.86120510267626,3.0,1.3210257753881096,0.0,0.09487112305945233,0.0,0.09487112305945233,0.0,0,0,0,0,0.09487112305945233,1.3210257753881096,0.0,0.09487112305945233,0.0
84,0,84,3.8744248475424468,3.0,1.3219744866187042,0.0,0.09012756690647938,0.0,0.09012756690647938,0.0,0,0,0,0,0.09012756690647938,1.3219744866187042,0.0,0.09012756690647938,0.0
85,0,85,3.8876536051653243,3.0,1.322875762287769,0.0,0.08562118856115575,0.0,0.08562118856115575,0.0,0,0,0,0,0.08562118856115575,1.322875762287769,0.0,0.08562118856115575,0.0
86,0,86,3.900890924907058,3.0,1.3237319741733804,0.0,0.0813401291330984,0.0,0.0813401291330984,0.0,0,0,0,0,0.0813401291330984,1.3237319741733804,0.0,0.0813401291330984,0.0
87,0,87,3.914136378661705,3.0,1.3245453754647114,0.0,0.07727312267644337,0.0,0.07727312267644337,0.0,0,0,0,0,0.07727312267644337,1.3245453754647114,0.0,0.07727312267644337,0.0
88,0,88,3.92738955972862,3.0,1.3253181066914759,0.0,0.07340946654262104,0.0,0.07340946654262104,0.0,0,0,0,0,0.07340946654262104,1.3253181066914759,0.0,0.07340946654262104,0.0
89,0,89,3.9406500817421892,3.0,1.326052201356902,0.0,0.06973899321549015,0.0,0.06973899321549015,0.0,0,0,0,0,0.06973899321549015,1.326052201356902,0.0,0.06973899321549015,0.0
90,0,90,3.95391757765508,3.0,1.326749591289057,0.0,0.06625204355471537,0.0,0.06625204355471537,0.0,0,0,0,0,0.06625204355471537,1.326749591289057,0.0,0.06625204355471537,0.0
91,0,91,3.967191698772326,3.0,1.327412111724604,0.0,0.06293944137698015,0.0,0.06293944137698015,0.0,0,0,0,0,0.06293944137698015,1.327412111724604,0.0,0.06293944137698015,0.0
92,0,92,3.98047211383371,3.0,1.328041506138374,0.0,0.05979246930813087,0.0,0.05979246930813087,0.0,0,0,0,0,0.05979246930813087,1.328041506138374,0.0,0.05979246930813087,0.0
93,0,93,3.993758508142024,3.0,1.3286394308314553,0.0,0.05680284584272388,0.0,0.05680284584272388,0.0,0,0,0,0,0.05680284584272388,1.3286394308314553,0.0,0.05680284584272388,0.0
94,0,94,4.007050582734923,3.0,1.3292074592898826,0.0,0.05396270355058741,0.0,0.05396270355058741,0.0,0,0,0,0,0.05396270355058741,1.3292074592898826,0.0,0.05396270355058741,0.0
95,0,95,4.020348053598177,3.0,1.3297470863253884,0.0,0.05126456837305837,0.0,0.05126456837305837,0.0,0,0,0,0,0.05126456837305837,1.3297470863253884,0.0,0.05126456837305837,0.0
96,0,96,4.033650650918268,3.0,1.330259732009119,0.0,0.04870133995440562,0.0,0.04870133995440562,0.0,0,0,0,0,0.04870133995440562,1.330259732009119,0.0,0.04870133995440562,0.0
97,0,97,4.046958118372355,3.0,1.330746745408663,0.0,0.046266272956685395,0.0,0.046266272956685395,0.0,0,0,0,0,0.046266272956685395,1.330746745408663,0.0,0.046266272956685395,0.0
98,0,98,4.060270212453737,3.0,1.3312094081382297,0.0,0.04395295930885168,0.0,0.04395295930885168,0.0,0,0,0,0,0.04395295930885168,1.3312094081382297,0.0,0.04395295930885168,0.0
99,0,99,4.073586701831051,3.0,1.3316489377313183,0.0,0.04175531134340882,0.0,0.04175531134340882,0.0,0,0,0,0,0.04175531134340882,1.3316489377313183,0.0,0.04175531134340882,0.0
100,0,100,4.086907366739498,3.0,1.3320664908447524,0.0,0.039667545776238544,0.0,0.039667545776238544,0.0,0,0,0,0,0.039667545776238544,1.3320664908447524,0.0,0.039667545776238544,0.0
101,0,101,4.100231998402523,3.0,1.3324631663025148,0.0,0.037684168487426284,0.0,0.037684168487426284,0.0,0,0,0,0,0.037684168487426284,1.3324631663025148,0.0,0.037684168487426284,0.0
102,0,102,4.113560398482397,3.0,1.332840007987389,0.0,0.035799960063055414,0.0,0.035799960063055414,0.0,0,0,0,0,0.035799960063055414,1.332840007987389,0.0,0.035799960063055414,0.0
103,0,103,4.126892378558277,3.0,1.3331980075880197,0.0,0.034009962059902143,0.0,0.034009962059902143,0.0,0,0,0,0,0.034009962059902143,1.3331980075880197,0.0,0.034009962059902143,0.0
104,0,104,4.140227759630363,3.0,1.3335381072086188,0.0,0.03230946395690659,0.0,0.03230946395690659,0.0,0,0,0,0,0.03230946395690659,1.3335381072086188,0.0,0.03230946395690659,0.0
105,0,105,4.153566371648846,3.0,1.333861201848188,0.0,0.030693990759060874,0.0,0.030693990759060874,0.0,0,0,0,0,0.030693990759060874,1.333861201848188,0.0,0.030693990759060874,0.0
106,0,106,4.166908053066403,3.0,1.3341681417557785,0.0,0.029159291221108052,0.0,0.029159291221108052,0.0,0,0,0,0,0.029159291221108052,1.3341681417557785,0.0,0.029159291221108052,0.0
107,0,107,4.180252650413083,3.0,1.3344597346679896,0.0,0.027701326660052317,0.0,0.027701326660052317,0.0,0,0,0,0,0.027701326660052317,1.3344597346679896,0.0,0.027701326660052317,0.0
108,0,108,4.193600017892429,3.0,1.3347367479345902,0.0,0.02631626032704948,0.0,0.02631626032704948,0.0,0,0,0,0,0.02631626032704948,1.3347367479345902,0.0,0.02631626032704948,0.0
109,0,109,4.206950016997808,3.0,1.3349999105378607,0.0,0.02500044731069684,0.0,0.02500044731069684,0.0,0,0,0,0,0.02500044731069684,1.3349999105378607,0.0,0.02500044731069684,0.0
110,0,110,4.2203025161479175,3.0,1.3352499150109676,0.0,0.02375042494516255,0.0,0.02375042494516255,0.0,0,0,0,0,0.02375042494516255,1.3352499150109676,0.0,0.02375042494516255,0.0
111,0,111,4.233657390340522,3.0,1.3354874192604191,0.0,0.0225629036979047,0.0,0.0225629036979047,0.0,0,0,0,0,0.0225629036979047,1.3354874192604191,0.0,0.0225629036979047,0.0
112,0,112,4.2470145208234955,3.0,1.3357130482973982,0.0,0.021434758513009244,0.0,0.021434758513009244,0.0,0,0,0,0,0.021434758513009244,1.3357130482973982,0.0,0.021434758513009244,0.0
113,0,113,4.26037379478232,3.0,1.3359273958825284,0.0,0.020363020587358394,0.0,0.020363020587358394,0.0,0,0,0,0,0.020363020587358394,1.3359273958825284,0.0,0.020363020587358394,0.0
114,0,114,4.273735105043205,3.0,1.336131026088402,0.0,0.019344869557990085,0.0,0.019344869557990085,0.0,0,0,0,0,0.019344869557990085,1.336131026088402,0.0,0.019344869557990085,0.0
115,0,115,4.287098349791044,3.0,1.336324474783982,0.0,0.018377626080090526,0.0,0.018377626080090526,0.0,0,0,0,0,0.018377626080090526,1.336324474783982,0.0,0.018377626080090526,0.0
116,0,116,4.300463432301492,3.0,1.336508251044783,0.0,0.017458744776085444,0.0,0.017458744776085444,0.0,0,0,0,0,0.017458744776085444,1.336508251044783,0.0,0.017458744776085444,0.0
117,0,117,4.313830260686418,3.0,1.3366828384925438,0.0,0.01658580753728156,0.0,0.01658580753728156,0.0,0,0,0,0,0.01658580753728156,1.3366828384925438,0.0,0.01658580753728156,0.0
118,0,118,4.327198747652097,3.0,1.3368486965679165,0.0,0.015756517160417927,0.0,0.015756517160417927,0.0,0,0,0,0,0.015756517160417927,1.3368486965679165,0.0,0.015756517160417927,0.0
119,0,119,4.340568810269492,3.0,1.3370062617395206,0.0,0.014968691302397197,0.0,0.014968691302397197,0.0,0,0,0,0,0.014968691302397197,1.3370062617395206,0.0,0.014968691302397197,0.0
120,0,120,4.3539403697560175,3.0,1.3371559486525446,0.0,0.014220256737277337,0.0,0.014220256737277337,0.0,0,0,0,0,0.014220256737277337,1.3371559486525446,0.0,0.014220256737277337,0.0
121,0,121,4.3673133512682165,3.0,1.3372981512199174,0.0,0.013509243900413637,0.0,0.013509243900413637,0.0,0,0,0,0,0.013509243900413637,1.3372981512199174,0.0,0.013509243900413637,0.0
122,0,122,4.380687683704806,3.0,1.3374332436589216,0.0,0.01283378170539251,0.0,0.01283378170539251,0.0,0,0,0,0,0.01283378170539251,1.3374332436589216,0.0,0.01283378170539251,0.0
123,0,123,4.394063299519566,3.0,1.3375615814759756,0.0,0.012192092620122441,0.0,0.012192092620122441,0.0,0,0,0,0,0.012192092620122441,1.3375615814759756,0.0,0.012192092620122441,0.0
124,0,124,4.407440134543587,3.0,1.337683502402177,0.0,0.011582487989115764,0.0,0.011582487989115764,0.0,0,0,0,0,0.011582487989115764,1.337683502402177,0.0,0.011582487989115764,0.0
125,0,125,4.420818127816408,3.0,1.337799327282068,0.0,0.011003363589660031,0.0,0.011003363589660031,0.0,0,0,0,0,0.011003363589660031,1.337799327282068,0.0,0.011003363589660031,0.0
126,0,126,4.434197221425587,3.0,1.3379093609179646,0.0,0.010453195410177196,0.0,0.010453195410177196,0.0,0,0,0,0,0.010453195410177196,1.3379093609179646,0.0,0.010453195410177196,0.0
127,0,127,4.447577360354308,3.0,1.3380138928720664,0.0,0.009930535639668392,0.0,0.009930535639668392,0.0,0,0,0,0,0.009930535639668392,1.3380138928720664,0.0,0.009930535639668392,0.0
128,0,128,4.460958492336593,3.0,1.338113198228463,0.0,0.009434008857684972,0.0,0.009434008857684972,0.0,0,0,0,0,0.009434008857684972,1.338113198228463,0.0,0.009434008857684972,0.0
129,0,129,4.474340567719763,3.0,1.33820753831704,0.0,0.008962308414800502,0.0,0.008962308414800502,0.0,0,0,0,0,0.008962308414800502,1.33820753831704,0.0,0.008962308414800502,0.0
130,0,130,4.487723539333775,3.0,1.338297161401188,0.0,0.008514192994060199,0.0,0.008514192994060199,0.0,0,0,0,0,0.008514192994060199,1.338297161401188,0.0,0.008514192994060199,0.0
131,0,131,4.501107362367086,3.0,1.3383823033311286,0.0,0.0080884833443573,0.0,0.0080884833443573,0.0,0,0,0,0,0.0080884833443573,1.3383823033311286,0.0,0.0080884833443573,0.0
132,0,132,4.514491994248732,3.0,1.338463188164572,0.0,0.007684059177139879,0.0,0.007684059177139879,0.0,0,0,0,0,0.007684059177139879,1.338463188164572,0.0,0.007684059177139879,0.0
133,0,133,4.527877394536295,3.0,1.3385400287563436,0.0,0.007299856218282441,0.0,0.007299856218282441,0.0,0,0,0,0,0.007299856218282441,1.3385400287563436,0.0,0.007299856218282441,0.0
134,0,134,4.541263524809481,3.0,1.3386130273185264,0.0,0.006934863407368486,0.0,0.006934863407368486,0.0,0,0,0,0,0.006934863407368486,1.3386130273185264,0.0,0.006934863407368486,0.0
135,0,135,4.554650348569007,3.0,1.3386823759526,0.0,0.00658812023699995,0.0,0.00658812023699995,0.0,0,0,0,0,0.00658812023699995,1.3386823759526,0.0,0.00658812023699995,0.0
136,0,136,4.568037831140557,3.0,1.33874825715497,0.0,0.00625871422515023,0.0,0.00625871422515023,0.0,0,0,0,0,0.00625871422515023,1.33874825715497,0.0,0.00625871422515023,0.0
137,0,137,4.581425939583529,3.0,1.3388108442972215,0.0,0.005945778513892774,0.0,0.005945778513892774,0.0,0,0,0,0,0.005945778513892774,1.3388108442972215,0.0,0.005945778513892774,0.0
138,0,138,4.594814642604352,3.0,1.3388703020823605,0.0,0.00564848958819808,0.0,0.00564848958819808,0.0,0,0,0,0,0.00564848958819808,1.3388703020823605,0.0,0.00564848958819808,0.0
139,0,139,4.608203910474135,3.0,1.3389267869782424,0.0,0.005366065108788343,0.0,0.005366065108788343,0.0,0,0,0,0,0.005366065108788343,1.3389267869782424,0.0,0.005366065108788343,0.0
140,0,140,4.6215937149504285,3.0,1.3389804476293303,0.0,0.005097761853348759,0.0,0.005097761853348759,0.0,0,0,0,0,0.005097761853348759,1.3389804476293303,0.0,0.005097761853348759,0.0
141,0,141,4.634984029202907,3.0,1.339031425247864,0.0,0.0048428737606809324,0.0,0.0048428737606809324,0.0,0,0,0,0,0.0048428737606809324,1.339031425247864,0.0,0.0048428737606809324,0.0
142,0,142,4.648374827742762,3.0,1.3390798539854707,0.0,0.004600730072646941,0.0,0.004600730072646941,0.0,0,0,0,0,0.004600730072646941,1.3390798539854707,0.0,0.004600730072646941,0.0
143,0,143,4.661766086355624,3.0,1.3391258612861971,0.0,0.00437069356901465,0.0,0.00437069356901465,0.0,0,0,0,0,0.00437069356901465,1.3391258612861971,0.0,0.00437069356901465,0.0
144,0,144,4.675157782037843,3.0,1.3391695682218874,0.0,0.004152158890563529,0.0,0.004152158890563529,0.0,0,0,0,0,0.004152158890563529,1.3391695682218874,0.0,0.004152158890563529,0.0
145,0,145,4.688549892935951,3.0,1.339211089810793,0.0,0.00394455094603563,0.0,0.00394455094603563,0.0,0,0,0,0,0.00394455094603563,1.339211089810793,0.0,0.00394455094603563,0.0
146,0,146,4.7019423982891535,3.0,1.3392505353202533,0.0,0.0037473233987339594,0.0,0.0037473233987339594,0.0,0,0,0,0,0.0037473233987339594,1.3392505353202533,0.0,0.0037473233987339594,0.0
147,0,147,4.715335278374696,3.0,1.3392880085542407,0.0,0.003559957228796984,0.0,0.003559957228796984,0.0,0,0,0,0,0.003559957228796984,1.3392880085542407,0.0,0.003559957228796984,0.0
148,0,148,4.728728514455962,3.0,1.3393236081265287,0.0,0.003381959367356746,0.0,0.003381959367356746,0.0,0,0,0,0,0.003381959367356746,1.3393236081265287,0.0,0.003381959367356746,0.0
149,0,149,4.742122088733164,3.0,1.3393574277202023,0.0,0.00321286139898902,0.0,0.00321286139898902,0.0,0,0,0,0,0.00321286139898902,1.3393574277202023,0.0,0.00321286139898902,0.0
150,0,150,4.7555159842965065,3.0,1.3393895563341922,0.0,0.0030522183290393468,0.0,0.0030522183290393468,0.0,0,0,0,0,0.0030522183290393468,1.3393895563341922,0.0,0.0030522183290393468,0.0
151,0,151,4.7689101850816815,3.0,1.3394200785174826,0.0,0.002899607412587546,0.0,0.002899607412587546,0.0,0,0,0,0,0.002899607412587546,1.3394200785174826,0.0,0.002899607412587546,0.0
152,0,152,4.782304675827597,3.0,1.3394490745916086,0.0,0.0027546270419576135,0.0,0.0027546270419576135,0.0,0,0,0,0,0.0027546270419576135,1.3394490745916086,0.0,0.0027546270419576135,0.0
153,0,153,4.795699442036217,3.0,1.3394766208620281,0.0,0.0026168956898597884,0.0,0.0026168956898597884,0.0,0,0,0,0,0.0026168956898597884,1.3394766208620281,0.0,0.0026168956898597884,0.0
154,0,154,4.809094469934407,3.0,1.3395027898189267,0.0,0.002486050905367021,0.0,0.002486050905367021,0.0,0,0,0,0,0.002486050905367021,1.3395027898189267,0.0,0.002486050905367021,0.0
155,0,155,4.822489746437687,3.0,1.3395276503279803,0.0,0.0023617483600990585,0.0,0.0023617483600990585,0.0,0,0,0,0,0.0023617483600990585,1.3395276503279803,0.0,0.0023617483600990585,0.0
156,0,156,4.835885259115803,3.0,1.3395512678115813,0.0,0.002243660942093939,0.0,0.002243660942093939,0.0,0,0,0,0,0.002243660942093939,1.3395512678115813,0.0,0.002243660942093939,0.0
157,0,157,4.8492809961600125,3.0,1.3395737044210023,0.0,0.002131477894988798,0.0,0.002131477894988798,0.0,0,0,0,0,0.002131477894988798,1.3395737044210023,0.0,0.002131477894988798,0.0
158,0,158,4.862676946352012,3.0,1.3395950191999522,0.0,0.00202490400023958,0.0,0.00202490400023958,0.0,0,0,0,0,0.00202490400023958,1.3395950191999522,0.0,0.00202490400023958,0.0
159,0,159,4.876073099034412,3.0,1.3396152682399545,0.0,0.0019236588002280453,0.0,0.0019236588002280453,0.0,0,0,0,0,0.0019236588002280453,1.3396152682399545,0.0,0.0019236588002280453,0.0
160,0,160,4.889469444082692,3.0,1.3396345048279568,0.0,0.0018274758602165875,0.0,0.0018274758602165875,0.0,0,0,0,0,0.0018274758602165875,1.3396345048279568,0.0,0.0018274758602165875,0.0
161,0,161,4.902865971878557,3.0,1.339652779586559,0.0,0.001736102067205758,0.0,0.001736102067205758,0.0,0,0,0,0,0.001736102067205758,1.339652779586559,0.0,0.001736102067205758,0.0
162,0,162,4.9162626732846295,3.0,1.3396701406072309,0.0,0.0016492969638459698,0.0,0.0016492969638459698,0.0,0,0,0,0,0.0016492969638459698,1.3396701406072309,0.0,0.0016492969638459698,0.0
163,0,163,4.929659539620398,3.0,1.3396866335768693,0.0,0.0015668321156536713,0.0,0.0015668321156536713,0.0,0,0,0,0,0.0015668321156536713,1.3396866335768693,0.0,0.0015668321156536713,0.0
164,0,164,4.943056562639378,3.0,1.3397023018980259,0.0,0.0014884905098710988,0.0,0.0014884905098710988,0.0,0,0,0,0,0.0014884905098710988,1.3397023018980259,0.0,0.0014884905098710988,0.0
165,0,165,4.956453734507409,3.0,1.3397171868031246,0.0,0.0014140659843775438,0.0,0.0014140659843775438,0.0,0,0,0,0,0.0014140659843775438,1.3397171868031246,0.0,0.0014140659843775438,0.0
166,0,166,4.969851047782039,3.0,1.3397313274629683,0.0,0.0013433626851588887,0.0,0.0013433626851588887,0.0,0,0,0,0,0.0013433626851588887,1.3397313274629683,0.0,0.0013433626851588887,0.0
167,0,167,4.983248495392937,3.0,1.3397447610898199,0.0,0.0012761945509009998,0.0,0.0012761945509009998,0.0,0,0,0,0,0.0012761945509009998,1.3397447610898199,0.0,0.0012761945509009998,0.0
168,0,168,4.9966460706232905,3.0,1.339757523035329,0.0,0.0012123848233558387,0.0,0.0012123848233558387,0.0,0,0,0,0,0.0012123848233558387,1.339757523035329,0.0,0.0012123848233558387,0.0
169,0,169,5.010043767092126,3.0,1.3397696468835625,0.0,0.0011517655821879913,0.0,0.0011517655821879913,0.0,0,0,0,0,0.0011517655821879913,1.3397696468835625,0.0,0.0011517655821879913,0.0
170,0,170,5.02344157873752,3.0,1.3397811645393845,0.0,0.0010941773030781476,0.0,0.0010941773030781476,0.0,0,0,0,0,0.0010941773030781476,1.3397811645393845,0.0,0.0010941773030781476,0.0
171,0,171,5.036839499800644,3.0,1.3397921063124152,0.0,0.0010394684379244623,0.0,0.0010394684379244623,0.0,0,0,0,0,0.0010394684379244623,1.3397921063124152,0.0,0.0010394684379244623,0.0
172,0,172,5.050237524810612,3.0,1.3398025009967944,0.0,0.0009874950160282392,0.0,0.0009874950160282392,0.0,0,0,0,0,0.0009874950160282392,1.3398025009967944,0.0,0.0009874950160282392,0.0
173,0,173,5.063635648570082,3.0,1.3398123759469547,0.0,0.0009381202652269938,0.0,0.0009381202652269938,0.0,0,0,0,0,0.0009381202652269938,1.3398123759469547,0.0,0.0009381202652269938,0.0
174,0,174,5.077033866141578,3.0,1.339821757149607,0.0,0.0008912142519656996,0.0,0.0008912142519656996,0.0,0,0,0,0,0.0008912142519656996,1.339821757149607,0.0,0.0008912142519656996,0.0
175,0,175,5.0904321728344994,3.0,1.3398306692921267,0.0,0.0008466535393669705,0.0,0.0008466535393669705,0.0,0,0,0,0,0.0008466535393669705,1.3398306692921267,0.0,0.0008466535393669705,0.0
176,0,176,5.103830564192775,3.0,1.3398391358275203,0.0,0.0008043208623986775,0.0,0.0008043208623986775,0.0,0,0,0,0,0.0008043208623986775,1.3398391358275203,0.0,0.0008043208623986775,0.0
177,0,177,5.117229035983136,3.0,1.3398471790361444,0.0,0.0007641048192785771,0.0,0.0007641048192785771,0.0,0,0,0,0,0.0007641048192785771,1.3398471790361444,0.0,0.0007641048192785771,0.0
178,0,178,5.130627584183979,3.0,1.3398548200843372,0.0,0.0007258995783143707,0.0,0.0007258995783143707,0.0,0,0,0,0,0.0007258995783143707,1.3398548200843372,0.0,0.0007258995783143707,0.0
179,0,179,5.1440262049747805,3.0,1.3398620790801203,0.0,0.0006896045993987077,0.0,0.0006896045993987077,0.0,0,0,0,0,0.0006896045993987077,1.3398620790801203,0.0,0.0006896045993987077,0.0
180,0,180,5.1574248947260415,3.0,1.3398689751261144,0.0,0.0006551243694286057,0.0,0.0006551243694286057,0.0,0,0,0,0,0.0006551243694286057,1.3398689751261144,0.0,0.0006551243694286057,0.0
181,0,181,5.17082364998974,3.0,1.3398755263698086,0.0,0.0006223681509576195,0.0,0.0006223681509576195,0.0,0,0,0,0,0.0006223681509576195,1.3398755263698086,0.0,0.0006223681509576195,0.0
182,0,182,5.184222467490253,3.0,1.339881750051318,0.0,0.0005912497434101827,0.0,0.0005912497434101827,0.0,0,0,0,0,0.0005912497434101827,1.339881750051318,0.0,0.0005912497434101827,0.0
183,0,183,5.19762134411574,3.0,1.3398876625487521,0.0,0.000561687256239729,0.0,0.000561687256239729,0.0,0,0,0,0,0.000561687256239729,1.3398876625487521,0.0,0.000561687256239729,0.0
184,0,184,5.211020276909953,3.0,1.3398932794213145,0.0,0.0005336028934277426,0.0,0.0005336028934277426,0.0,0,0,0,0,0.0005336028934277426,1.3398932794213145,0.0,0.0005336028934277426,0.0
185,0,185,5.224419263064456,3.0,1.3398986154502488,0.0,0.000506922748756411,0.0,0.000506922748756411,0.0,0,0,0,0,0.000506922748756411,1.3398986154502488,0.0,0.000506922748756411,0.0
186,0,186,5.2378182999112335,3.0,1.3399036846777364,0.0,0.00048157661131864593,0.0,0.00048157661131864593,0.0,0,0,0,0,0.00048157661131864593,1.3399036846777364,0.0,0.00048157661131864593,0.0
187,0,187,5.251217384915672,3.0,1.3399085004438496,0.0,0.0004574977807525471,0.0,0.0004574977807525471,0.0,0,0,0,0,0.0004574977807525471,1.3399085004438496,0.0,0.0004574977807525471,0.0
188,0,188,5.264616515669889,3.0,1.339913075421657,0.0,0.0004346228917151418,0.0,0.0004346228917151418,0.0,0,0,0,0,0.0004346228917151418,1.339913075421657,0.0,0.0004346228917151418,0.0
189,0,189,5.278015689886395,3.0,1.3399174216505743,0.0,0.00041289174712910715,0.0,0.00041289174712910715,0.0,0,0,0,0,0.00041289174712910715,1.3399174216505743,0.0,0.00041289174712910715,0.0
190,0,190,5.291414905392076,3.0,1.3399215505680455,0.0,0.0003922471597728183,0.0,0.0003922471597728183,0.0,0,0,0,0,0.0003922471597728183,1.3399215505680455,0.0,0.0003922471597728183,0.0
191,0,191,5.304814160122472,3.0,1.3399254730396433,0.0,0.0003726348017840664,0.0,0.0003726348017840664,0.0,0,0,0,0,0.0003726348017840664,1.3399254730396433,0.0,0.0003726348017840664,0.0
192,0,192,5.318213452116349,3.0,1.3399291993876612,0.0,0.000354003061694419,0.0,0.000354003061694419,0.0,0,0,0,0,0.000354003061694419,1.3399291993876612,0.0,0.000354003061694419,0.0
193,0,193,5.3316127795105315,3.0,1.339932739418278,0.0,0.0003363029086100866,0.0,0.0003363029086100866,0.0,0,0,0,0,0.0003363029086100866,1.339932739418278,0.0,0.0003363029086100866,0.0
194,0,194,5.3450121405350055,3.0,1.3399361024473642,0.0,0.0003194877631795823,0.0,0.0003194877631795823,0.0,0,0,0,0,0.0003194877631795823,1.3399361024473642,0.0,0.0003194877631795823,0.0
195,0,195,5.358411533508256,3.0,1.339939297324996,0.0,0.00030351337502065867,0.0,0.00030351337502065867,0.0,0,0,0,0,0.00030351337502065867,1.339939297324996,0.0,0.00030351337502065867,0.0
196,0,196,5.371810956832843,3.0,1.339942332458746,0.0,0.00028833770627012534,0.0,0.00028833770627012534,0.0,0,0,0,0,0.00028833770627012534,1.339942332458746,0.0,0.00028833770627012534,0.0
197,0,197,5.385210408991202,3.0,1.3399452158358087,0.0,0.0002739208209567856,0.0,0.0002739208209567856,0.0,0,0,0,0,0.0002739208209567856,1.3399452158358087,0.0,0.0002739208209567856,0.0
198,0,198,5.398609888541642,3.0,1.3399479550440183,0.0,0.0002602247799088353,0.0,0.0002602247799088353,0.0,0,0,0,0,0.0002602247799088353,1.3399479550440183,0.0,0.0002602247799088353,0.0
199,0,199,5.41200939411456,3.0,1.3399505572918173,0.0,0.0002472135409137266,0.0,0.0002472135409137266,0.0,0,0,0,0,0.0002472135409137266,1.3399505572918173,0.0,0.0002472135409137266,0.0
200,0,200,5.425408924408832,3.0,1.3399530294272264,0.0,0.00023485286386848436,0.0,0.00023485286386848436,0.0,0,0,0,0,0.00023485286386848436,1.3399530294272264,0.0,0.00023485286386848436,0.0
201,0,201,5.438808478188391,3.0,1.339955377955865,0.0,0.00022311022067511566,0.0,0.00022311022067511566,0.0,0,0,0,0,0.00022311022067511566,1.339955377955865,0.0,0.00022311022067511566,0.0
202,0,202,5.452208054278971,3.0,1.3399576090580718,0.0,0.00021195470964130436,0.0,0.00021195470964130436,0.0,0,0,0,0,0.00021195470964130436,1.3399576090580718,0.0,0.00021195470964130436,0.0
203,0,203,5.465607651565023,3.0,1.3399597286051683,0.0,0.00020135697415879505,0.0,0.00020135697415879505,0.0,0,0,0,0,0.00020135697415879505,1.3399597286051683,0.0,0.00020135697415879505,0.0
204,0,204,5.479007268986772,3.0,1.33996174217491,0.0,0.00019128912545074428,0.0,0.00019128912545074428,0.0,0,0,0,0,0.00019128912545074428,1.33996174217491,0.0,0.00019128912545074428,0.0
205,0,205,5.492406905537433,3.0,1.3399636550661644,0.0,0.00018172466917820707,0.0,0.00018172466917820707,0.0,0,0,0,0,0.00018172466917820707,1.3399636550661644,0.0,0.00018172466917820707,0.0
206,0,206,5.505806560260562,3.0,1.3399654723128562,0.0,0.0001726384357192412,0.0,0.0001726384357192412,0.0,0,0,0,0,0.0001726384357192412,1.3399654723128562,0.0,0.0001726384357192412,0.0
207,0,207,5.519206232247535,3.0,1.3399671986972135,0.0,0.00016400651393300159,0.0,0.00016400651393300159,0.0,0,0,0,0,0.00016400651393300159,1.3399671986972135,0.0,0.00016400651393300159,0.0
208,0,208,5.5326059206351585,3.0,1.3399688387623527,0.0,0.00015580618823674008,0.0,0.00015580618823674008,0.0,0,0,0,0,0.00015580618823674008,1.3399688387623527,0.0,0.00015580618823674008,0.0
209,0,209,5.546005624603401,3.0,1.3399703968242351,0.0,0.00014801587882473655,0.0,0.00014801587882473655,0.0,0,0,0,0,0.00014801587882473655,1.3399703968242351,0.0,0.00014801587882473655,0.0
210,0,210,5.559405343373231,3.0,1.3399718769830233,0.0,0.00014061508488372176,0.0,0.00014061508488372176,0.0,0,0,0,0,0.00014061508488372176,1.3399718769830233,0.0,0.00014061508488372176,0.0
211,0,211,5.5728050762045696,3.0,1.3399732831338722,0.0,0.00013358433063936914,0.0,0.00013358433063936914,0.0,0,0,0,0,0.00013358433063936914,1.3399732831338722,0.0,0.00013358433063936914,0.0
212,0,212,5.5862048223943415,3.0,1.3399746189771786,0.0,0.00012690511410728966,0.0,0.00012690511410728966,0.0,0,0,0,0,0.00012690511410728966,1.3399746189771786,0.0,0.00012690511410728966,0.0
213,0,213,5.599604581274624,3.0,1.3399758880283197,0.0,0.00012055985840198069,0.0,0.00012055985840198069,0.0,0,0,0,0,0.00012055985840198069,1.3399758880283197,0.0,0.00012055985840198069,0.0
214,0,214,5.613004352210893,3.0,1.3399770936269038,0.0,0.0001145318654816041,0.0,0.0001145318654816041,0.0,0,0,0,0,0.0001145318654816041,1.3399770936269038,0.0,0.0001145318654816041,0.0
215,0,215,5.626404134600349,3.0,1.3399782389455586,0.0,0.0001088052722075794,0.0,0.0001088052722075794,0.0,0,0,0,0,0.0001088052722075794,1.3399782389455586,0.0,0.0001088052722075794,0.0
216,0,216,5.639803927870331,3.0,1.3399793269982807,0.0,0.00010336500859686737,0.0,0.00010336500859686737,0.0,0,0,0,0,0.00010336500859686737,1.3399793269982807,0.0,0.00010336500859686737,0.0
217,0,217,5.653203731476815,3.0,1.3399803606483667,0.0,9.8196758167024e-05,0.0,9.8196758167024e-05,0.0,0,0,0,0,9.8196758167024e-05,1.3399803606483667,0.0,9.8196758167024e-05,0.0
218,0,218,5.666603544902975,3.0,1.3399813426159484,0.0,9.328692025856178e-05,0.0,9.328692025856178e-05,0.0,0,0,0,0,9.328692025856178e-05,1.3399813426159484,0.0,9.328692025856178e-05,0.0
219,0,219,5.680003367657826,3.0,1.339982275485151,0.0,8.862257424580022e-05,0.0,8.862257424580022e-05,0.0,0,0,0,0,8.862257424580022e-05,1.339982275485151,0.0,8.862257424580022e-05,0.0
220,0,220,5.693403199274935,3.0,1.3399831617108933,0.0,8.419144553406532e-05,0.0,8.419144553406532e-05,0.0,0,0,0,0,8.419144553406532e-05,1.3399831617108933,0.0,8.419144553406532e-05,0.0
221,0,221,5.706803039311189,3.0,1.3399840036253485,0.0,7.998187325775064e-05,0.0,7.998187325775064e-05,0.0,0,0,0,0,7.998187325775064e-05,1.3399840036253485,0.0,7.998187325775064e-05,0.0
222,0,222,5.720202887345629,3.0,1.339984803444081,0.0,7.59827795948631e-05,0.0,7.59827795948631e-05,0.0,0,0,0,0,7.59827795948631e-05,1.339984803444081,0.0,7.59827795948631e-05,0.0
223,0,223,5.7336027429783485,3.0,1.3399855632718771,0.0,7.218364061478688e-05,0.0,7.218364061478688e-05,0.0,0,0,0,0,7.218364061478688e-05,1.3399855632718771,0.0,7.218364061478688e-05,0.0
224,0,224,5.747002605829431,3.0,1.3399862851082833,0.0,6.857445858376998e-05,0.0,6.857445858376998e-05,0.0,0,0,0,0,6.857445858376998e-05,1.3399862851082833,0.0,6.857445858376998e-05,0.0
225,0,225,5.76040247553796,3.0,1.339986970852869,0.0,6.514573565485904e-05,0.0,6.514573565485904e-05,0.0,0,0,0,0,6.514573565485904e-05,1.339986970852869,0.0,6.514573565485904e-05,0.0
226,0,226,5.773802351761063,3.0,1.3399876223102256,0.0,6.188844887233813e-05,0.0,6.188844887233813e-05,0.0,0,0,0,0,6.188844887233813e-05,1.3399876223102256,0.0,6.188844887233813e-05,0.0
227,0,227,5.78720223417301,3.0,1.3399882411947144,0.0,5.879402642849918e-05,0.0,5.879402642849918e-05,0.0,0,0,0,0,5.879402642849918e-05,1.3399882411947144,0.0,5.879402642849918e-05,0.0
228,0,228,5.800602122464359,3.0,1.3399888291349786,0.0,5.5854325107240754e-05,0.0,5.5854325107240754e-05,0.0,0,0,0,0,5.5854325107240754e-05,1.3399888291349786,0.0,5.5854325107240754e-05,0.0
229,0,229,5.814002016341141,3.0,1.3399893876782296,0.0,5.3061608852322806e-05,0.0,5.3061608852322806e-05,0.0,0,0,0,0,5.3061608852322806e-05,1.3399893876782296,0.0,5.3061608852322806e-05,0.0
230,0,230,5.827401915524084,3.0,1.3399899182943182,0.0,5.0408528409207065e-05,0.0,5.0408528409207065e-05,0.0,0,0,0,0,5.0408528409207065e-05,1.3399899182943182,0.0,5.0408528409207065e-05,0.0
231,0,231,5.84080181974788,3.0,1.3399904223796024,0.0,4.788810198830262e-05,0.0,4.788810198830262e-05,0.0,0,0,0,0,4.788810198830262e-05,1.3399904223796024,0.0,4.788810198830262e-05,0.0
232,0,232,5.854201728760486,3.0,1.3399909012606224,0.0,4.5493696888554425e-05,0.0,4.5493696888554425e-05,0.0,0,0,0,0,4.5493696888554425e-05,1.3399909012606224,0.0,4.5493696888554425e-05,0.0
233,0,233,5.867601642322462,3.0,1.3399913561975914,0.0,4.32190120436271e-05,0.0,4.32190120436271e-05,0.0,0,0,0,0,4.32190120436271e-05,1.3399913561975914,0.0,4.32190120436271e-05,0.0
234,0,234,5.8810015602063395,3.0,1.3399917883877117,0.0,4.1058061441834326e-05,0.0,4.1058061441834326e-05,0.0,0,0,0,0,4.1058061441834326e-05,1.3399917883877117,0.0,4.1058061441834326e-05,0.0
235,0,235,5.894401482196023,3.0,1.339992198968326,0.0,3.900515836985363e-05,0.0,3.900515836985363e-05,0.0,0,0,0,0,3.900515836985363e-05,1.339992198968326,0.0,3.900515836985363e-05,0.0
236,0,236,5.907801408086222,3.0,1.3399925890199098,0.0,3.705490045136095e-05,0.0,3.705490045136095e-05,0.0,0,0,0,0,3.705490045136095e-05,1.3399925890199098,0.0,3.705490045136095e-05,0.0
237,0,237,5.921201337681911,3.0,1.3399929595689144,0.0,3.5202155428404325e-05,0.0,3.5202155428404325e-05,0.0,0,0,0,0,3.5202155428404325e-05,1.3399929595689144,0.0,3.5202155428404325e-05,0.0
238,0,238,5.934601270797815,3.0,1.3399933115904687,0.0,3.344204765665104e-05,0.0,3.344204765665104e-05,0.0,0,0,0,0,3.344204765665104e-05,1.3399933115904687,0.0,3.344204765665104e-05,0.0
239,0,239,5.948001207257924,3.0,1.3399936460109454,0.0,3.176994527342991e-05,0.0,3.176994527342991e-05,0.0,0,0,0,0,3.176994527342991e-05,1.3399936460109454,0.0,3.176994527342991e-05,0.0
240,0,240,5.961401146895028,3.0,1.3399939637103981,0.0,3.0181448009702905e-05,0.0,3.0181448009702905e-05,0.0,0,0,0,0,3.0181448009702905e-05,1.3399939637103981,0.0,3.0181448009702905e-05,0.0
241,0,241,5.974801089550277,3.0,1.3399942655248782,0.0,2.8672375609328782e-05,0.0,2.8672375609328782e-05,0.0,0,0,0,0,2.8672375609328782e-05,1.3399942655248782,0.0,2.8672375609328782e-05,0.0
242,0,242,5.9882010350727635,3.0,1.3399945522486343,0.0,2.7238756828973365e-05,0.0,2.7238756828973365e-05,0.0,0,0,0,0,2.7238756828973365e-05,1.3399945522486343,0.0,2.7238756828973365e-05,0.0
243,0,243,6.0016009833191255,3.0,1.3399948246362026,0.0,2.5876818987580208e-05,0.0,2.5876818987580208e-05,0.0,0,0,0,0,2.5876818987580208e-05,1.3399948246362026,0.0,2.5876818987580208e-05,0.0
244,0,244,6.01500093415317,3.0,1.3399950834043923,0.0,2.458297803875631e-05,0.0,2.458297803875631e-05,0.0,0,0,0,0,2.458297803875631e-05,1.3399950834043923,0.0,2.458297803875631e-05,0.0
245,0,245,6.028400887445511,3.0,1.3399953292341726,0.0,2.335382913720707e-05,0.0,2.335382913720707e-05,0.0,0,0,0,0,2.335382913720707e-05,1.3399953292341726,0.0,2.335382913720707e-05,0.0
246,0,246,6.0418008430732355,3.0,1.339995562772464,0.0,2.2186137680346718e-05,0.0,2.2186137680346718e-05,0.0,0,0,0,0,2.2186137680346718e-05,1.339995562772464,0.0,2.2186137680346718e-05,0.0
247,0,247,6.055200800919574,3.0,1.3399957846338408,0.0,2.107683079621836e-05,0.0,2.107683079621836e-05,0.0,0,0,0,0,2.107683079621836e-05,1.3399957846338408,0.0,2.107683079621836e-05,0.0
248,0,248,6.068600760873596,3.0,1.3399959954021488,0.0,2.0022989256629486e-05,0.0,2.0022989256629486e-05,0.0,0,0,0,0,2.0022989256629486e-05,1.3399959954021488,0.0,2.0022989256629486e-05,0.0
249,0,249,6.082000722829917,3.0,1.3399961956320414,0.0,1.9021839793298412e-05,0.0,1.9021839793298412e-05,0.0,0,0,0,0,1.9021839793298412e-05,1.3399961956320414,0.0,1.9021839793298412e-05,0.0
250,0,250,6.095400686688421,3.0,1.3399963858504393,0.0,1.8070747803689002e-05,0.0,1.8070747803689002e-05,0.0,0,0,0,0,1.8070747803689002e-05,1.3399963858504393,0.0,1.8070747803689002e-05,0.0
251,0,251,6.108800652354001,3.0,1.3399965665579174,0.0,1.7167210413226996e-05,0.0,1.7167210413226996e-05,0.0,0,0,0,0,1.7167210413226996e-05,1.3399965665579174,0.0,1.7167210413226996e-05,0.0
252,0,252,6.122200619736301,3.0,1.3399967382300215,0.0,1.630884989278769e-05,0.0,1.630884989278769e-05,0.0,0,0,0,0,1.630884989278769e-05,1.3399967382300215,0.0,1.630884989278769e-05,0.0
253,0,253,6.135600588749486,3.0,1.3399969013185205,0.0,1.5493407398148307e-05,0.0,1.5493407398148307e-05,0.0,0,0,0,0,1.5493407398148307e-05,1.3399969013185205,0.0,1.5493407398148307e-05,0.0
254,0,254,6.149000559312012,3.0,1.3399970562525945,0.0,1.4718737028074358e-05,0.0,1.4718737028074358e-05,0.0,0,0,0,0,1.4718737028074358e-05,1.3399970562525945,0.0,1.4718737028074358e-05,0.0
255,0,255,6.162400531346411,3.0,1.3399972034399648,0.0,1.3982800176615129e-05,0.0,1.3982800176615129e-05,0.0,0,0,0,0,1.3982800176615129e-05,1.3399972034399648,0.0,1.3982800176615129e-05,0.0
256,0,256,6.175800504779091,3.0,1.3399973432679666,0.0,1.3283660167395794e-05,0.0,1.3283660167395794e-05,0.0,0,0,0,0,1.3283660167395794e-05,1.3399973432679666,0.0,1.3283660167395794e-05,0.0
257,0,257,6.189200479540137,3.0,1.3399974761045683,0.0,1.261947715880396e-05,0.0,1.261947715880396e-05,0.0,0,0,0,0,1.261947715880396e-05,1.3399974761045683,0.0,1.261947715880396e-05,0.0
258,0,258,6.202600455563131,3.0,1.3399976022993398,0.0,1.1988503301196829e-05,0.0,1.1988503301196829e-05,0.0,0,0,0,0,1.1988503301196829e-05,1.3399976022993398,0.0,1.1988503301196829e-05,0.0
259,0,259,6.216000432784974,3.0,1.3399977221843729,0.0,1.1389078136136987e-05,0.0,1.1389078136136987e-05,0.0,0,0,0,0,1.1389078136136987e-05,1.3399977221843729,0.0,1.1389078136136987e-05,0.0
260,0,260,6.2294004111457255,3.0,1.3399978360751543,0.0,1.0819624228775027e-05,0.0,1.0819624228775027e-05,0.0,0,0,0,0,1.0819624228775027e-05,1.3399978360751543,0.0,1.0819624228775027e-05,0.0
261,0,261,6.24280039058844,3.0,1.3399979442713965,0.0,1.0278643017835876e-05,0.0,1.0278643017835876e-05,0.0,0,0,0,0,1.0278643017835876e-05,1.3399979442713965,0.0,1.0278643017835876e-05,0.0
262,0,262,6.256200371059018,3.0,1.3399980470578268,0.0,9.764710866555504e-06,0.0,9.764710866555504e-06,0.0,0,0,0,0,9.764710866555504e-06,1.3399980470578268,0.0,9.764710866555504e-06,0.0
263,0,263,6.2696003525060675,3.0,1.3399981447049354,0.0,9.276475323449773e-06,0.0,9.276475323449773e-06,0.0,0,0,0,0,9.276475323449773e-06,1.3399981447049354,0.0,9.276475323449773e-06,0.0
264,0,264,6.283000334880764,3.0,1.3399982374696886,0.0,8.812651557388307e-06,0.0,8.812651557388307e-06,0.0,0,0,0,0,8.812651557388307e-06,1.3399982374696886,0.0,8.812651557388307e-06,0.0
265,0,265,6.296400318136726,3.0,1.3399983255962042,0.0,8.372018979185825e-06,0.0,8.372018979185825e-06,0.0,0,0,0,0,8.372018979185825e-06,1.3399983255962042,0.0,8.372018979185825e-06,0.0
266,0,266,6.30980030222989,3.0,1.3399984093163941,0.0,7.953418029726933e-06,0.0,7.953418029726933e-06,0.0,0,0,0,0,7.953418029726933e-06,1.3399984093163941,0.0,7.953418029726933e-06,0.0
267,0,267,6.323200287118396,3.0,1.3399984888505745,0.0,7.555747127963031e-06,0.0,7.555747127963031e-06,0.0,0,0,0,0,7.555747127963031e-06,1.3399984888505745,0.0,7.555747127963031e-06,0.0
268,0,268,6.336600272762476,3.0,1.3399985644080457,0.0,7.177959772119991e-06,0.0,7.177959772119991e-06,0.0,0,0,0,0,7.177959772119991e-06,1.3399985644080457,0.0,7.177959772119991e-06,0.0
269,0,269,6.350000259124353,3.0,1.3399986361876435,0.0,6.819061783014391e-06,0.0,6.819061783014391e-06,0.0,0,0,0,0,6.819061783014391e-06,1.3399986361876435,0.0,6.819061783014391e-06,0.0
270,0,270,6.363400246168135,3.0,1.3399987043782613,0.0,6.478108693919182e-06,0.0,6.478108693919182e-06,0.0,0,0,0,0,6.478108693919182e-06,1.3399987043782613,0.0,6.478108693919182e-06,0.0
271,0,271,6.376800233859728,3.0,1.3399987691593482,0.0,6.154203259223223e-06,0.0,6.154203259223223e-06,0.0,0,0,0,0,6.154203259223223e-06,1.3399987691593482,0.0,6.154203259223223e-06,0.0
272,0,272,6.390200222166742,3.0,1.3399988307013808,0.0,5.846493096317573e-06,0.0,5.846493096317573e-06,0.0,0,0,0,0,5.846493096317573e-06,1.3399988307013808,0.0,5.846493096317573e-06,0.0
273,0,273,6.403600211058405,3.0,1.3399988891663117,0.0,5.5541684418347614e-06,0.0,5.5541684418347614e-06,0.0,0,0,0,0,5.5541684418347614e-06,1.3399988891663117,0.0,5.5541684418347614e-06,0.0
274,0,274,6.417000200505485,3.0,1.339998944707996,0.0,5.276460020020579e-06,0.0,5.276460020020579e-06,0.0,0,0,0,0,5.276460020020579e-06,1.339998944707996,0.0,5.276460020020579e-06,0.0
275,0,275,6.430400190480211,3.0,1.3399989974725963,0.0,5.0126370187975056e-06,0.0,5.0126370187975056e-06,0.0,0,0,0,0,5.0126370187975056e-06,1.3399989974725963,0.0,5.0126370187975056e-06,0.0
276,0,276,6.443800180956201,3.0,1.3399990475989665,0.0,4.762005167968653e-06,0.0,4.762005167968653e-06,0.0,0,0,0,0,4.762005167968653e-06,1.3399990475989665,0.0,4.762005167968653e-06,0.0
277,0,277,6.457200171908391,3.0,1.3399990952190182,0.0,4.52390490957022e-06,0.0,4.52390490957022e-06,0.0,0,0,0,0,4.52390490957022e-06,1.3399990952190182,0.0,4.52390490957022e-06,0.0
278,0,278,6.470600163312971,3.0,1.3399991404580673,0.0,4.297709663703131e-06,0.0,4.297709663703131e-06,0.0,0,0,0,0,4.297709663703131e-06,1.3399991404580673,0.0,4.297709663703131e-06,0.0
279,0,279,6.4840001551473225,3.0,1.3399991834351639,0.0,4.0828241809620636e-06,0.0,4.0828241809620636e-06,0.0,0,0,0,0,4.0828241809620636e-06,1.3399991834351639,0.0,4.0828241809620636e-06,0.0
280,0,280,6.497400147389957,3.0,1.3399992242634058,0.0,3.878682971469871e-06,0.0,3.878682971469871e-06,0.0,0,0,0,0,3.878682971469871e-06,1.3399992242634058,0.0,3.878682971469871e-06,0.0
281,0,281,6.510800140020459,3.0,1.3399992630502355,0.0,3.684748822729844e-06,0.0,3.684748822729844e-06,0.0,0,0,0,0,3.684748822729844e-06,1.3399992630502355,0.0,3.684748822729844e-06,0.0
282,0,282,6.524200133019436,3.0,1.3399992998977237,0.0,3.5005113818709077e-06,0.0,3.5005113818709077e-06,0.0,0,0,0,0,3.5005113818709077e-06,1.3399992998977237,0.0,3.5005113818709077e-06,0.0
283,0,283,6.537600126368464,3.0,1.3399993349028376,0.0,3.325485812277762e-06,0.0,3.325485812277762e-06,0.0,0,0,0,0,3.325485812277762e-06,1.3399993349028376,0.0,3.325485812277762e-06,0.0
284,0,284,6.551000120050041,3.0,1.3399993681576958,0.0,3.159211521275296e-06,0.0,3.159211521275296e-06,0.0,0,0,0,0,3.159211521275296e-06,1.3399993681576958,0.0,3.159211521275296e-06,0.0
285,0,285,6.564400114047539,3.0,1.339999399749811,0.0,3.001250945544598e-06,0.0,3.001250945544598e-06,0.0,0,0,0,0,3.001250945544598e-06,1.339999399749811,0.0,3.001250945544598e-06,0.0
286,0,286,6.577800108345163,3.0,1.3399994297623203,0.0,2.8511883987114572e-06,0.0,2.8511883987114572e-06,0.0,0,0,0,0,2.8511883987114572e-06,1.3399994297623203,0.0,2.8511883987114572e-06,0.0
287,0,287,6.591200102927905,3.0,1.3399994582742043,0.0,2.7086289788869067e-06,0.0,2.7086289788869067e-06,0.0,0,0,0,0,2.7086289788869067e-06,1.3399994582742043,0.0,2.7086289788869067e-06,0.0
288,0,288,6.60460009778151,3.0,1.3399994853604942,0.0,2.573197529498472e-06,0.0,2.573197529498472e-06,0.0,0,0,0,0,2.573197529498472e-06,1.3399994853604942,0.0,2.573197529498472e-06,0.0
289,0,289,6.6180000928924345,3.0,1.3399995110924694,0.0,2.4445376534121266e-06,0.0,2.4445376534121266e-06,0.0,0,0,0,0,2.4445376534121266e-06,1.3399995110924694,0.0,2.4445376534121266e-06,0.0
290,0,290,6.631400088247813,3.0,1.339999535537846,0.0,2.322310770352942e-06,0.0,2.322310770352942e-06,0.0,0,0,0,0,2.322310770352942e-06,1.339999535537846,0.0,2.322310770352942e-06,0.0
291,0,291,6.644800083835422,3.0,1.3399995587609537,0.0,2.2061952320573397e-06,0.0,2.2061952320573397e-06,0.0,0,0,0,0,2.2061952320573397e-06,1.3399995587609537,0.0,2.2061952320573397e-06,0.0
292,0,292,6.658200079643652,3.0,1.339999580822906,0.0,2.0958854707320285e-06,0.0,2.0958854707320285e-06,0.0,0,0,0,0,2.0958854707320285e-06,1.339999580822906,0.0,2.0958854707320285e-06,0.0
293,0,293,6.671600075661469,3.0,1.3399996017817606,0.0,1.991091197472983e-06,0.0,1.991091197472983e-06,0.0,0,0,0,0,1.991091197472983e-06,1.3399996017817606,0.0,1.991091197472983e-06,0.0
294,0,294,6.685000071878395,3.0,1.3399996216926726,0.0,1.891536637321778e-06,0.0,1.891536637321778e-06,0.0,0,0,0,0,1.891536637321778e-06,1.3399996216926726,0.0,1.891536637321778e-06,0.0
295,0,295,6.698400068284475,3.0,1.339999640608039,0.0,1.7969598054001779e-06,0.0,1.7969598054001779e-06,0.0,0,0,0,0,1.7969598054001779e-06,1.339999640608039,0.0,1.7969598054001779e-06,0.0
296,0,296,6.711800064870252,3.0,1.339999658577637,0.0,1.7071118152411913e-06,0.0,1.7071118152411913e-06,0.0,0,0,0,0,1.7071118152411913e-06,1.339999658577637,0.0,1.7071118152411913e-06,0.0
297,0,297,6.725200061626739,3.0,1.339999675648755,0.0,1.6217562248677098e-06,0.0,1.6217562248677098e-06,0.0,0,0,0,0,1.6217562248677098e-06,1.339999675648755,0.0,1.6217562248677098e-06,0.0
298,0,298,6.738600058545402,3.0,1.3399996918663173,0.0,1.5406684139573912e-06,0.0,1.5406684139573912e-06,0.0,0,0,0,0,1.5406684139573912e-06,1.3399996918663173,0.0,1.5406684139573912e-06,0.0
299,0,299,6.752000055618132,3.0,1.3399997072730014,0.0,1.4636349932040105e-06,0.0,1.4636349932040105e-06,0.0,0,0,0,0,1.4636349932040105e-06,1.3399997072730014,0.0,1.4636349932040105e-06,0.0
300,0,300,6.765400052837226,3.0,1.3399997219093513,0.0,1.3904532436548322e-06,0.0,1.3904532436548322e-06,0.0,0,0,0,0,1.3904532436548322e-06,1.3399997219093513,0.0,1.3904532436548322e-06,0.0
301,0,301,6.778800050195365,3.0,1.3399997358138838,0.0,1.320930581583113e-06,0.0,1.320930581583113e-06,0.0,0,0,0,0,1.320930581583113e-06,1.3399997358138838,0.0,1.320930581583113e-06,0.0
302,0,302,6.792200047685596,3.0,1.3399997490231896,0.0,1.2548840522264015e-06,0.0,1.2548840522264015e-06,0.0,0,0,0,0,1.2548840522264015e-06,1.3399997490231896,0.0,1.2548840522264015e-06,0.0
303,0,303,6.805600045301317,3.0,1.33999976157203,0.0,1.192139850170193e-06,0.0,1.192139850170193e-06,0.0,0,0,0,0,1.192139850170193e-06,1.33999976157203,0.0,1.192139850170193e-06,0.0
304,0,304,6.819000043036251,3.0,1.3399997734934286,0.0,1.1325328574951499e-06,0.0,1.1325328574951499e-06,0.0,0,0,0,0,1.1325328574951499e-06,1.3399997734934286,0.0,1.1325328574951499e-06,0.0
305,0,305,6.832400040884439,3.0,1.3399997848187573,0.0,1.075906214120792e-06,0.0,1.075906214120792e-06,0.0,0,0,0,0,1.075906214120792e-06,1.3399997848187573,0.0,1.075906214120792e-06,0.0
306,0,306,6.845800038840217,3.0,1.3399997955778193,0.0,1.0221109036923082e-06,0.0,1.0221109036923082e-06,0.0,0,0,0,0,1.0221109036923082e-06,1.3399997955778193,0.0,1.0221109036923082e-06,0.0
307,0,307,6.859200036898206,3.0,1.3399998057989284,0.0,9.710053583411593e-07,0.0,9.710053583411593e-07,0.0,0,0,0,0,9.710053583411593e-07,1.3399998057989284,0.0,9.710053583411593e-07,0.0
308,0,308,6.872600035053296,3.0,1.339999815508982,0.0,9.224550900910344e-07,0.0,9.224550900910344e-07,0.0,0,0,0,0,9.224550900910344e-07,1.339999815508982,0.0,9.224550900910344e-07,0.0
309,0,309,6.886000033300631,3.0,1.339999824733533,0.0,8.763323355864827e-07,0.0,8.763323355864827e-07,0.0,0,0,0,0,8.763323355864827e-07,1.339999824733533,0.0,8.763323355864827e-07,0.0
310,0,310,6.899400031635599,3.0,1.3399998334968564,0.0,8.32515718585114e-07,0.0,8.32515718585114e-07,0.0,0,0,0,0,8.32515718585114e-07,1.3399998334968564,0.0,8.32515718585114e-07,0.0
311,0,311,6.912800030053819,3.0,1.3399998418220136,0.0,7.908899324338137e-07,0.0,7.908899324338137e-07,0.0,0,0,0,0,7.908899324338137e-07,1.3399998418220136,0.0,7.908899324338137e-07,0.0
312,0,312,6.926200028551128,3.0,1.339999849730913,0.0,7.513454358676341e-07,0.0,7.513454358676341e-07,0.0,0,0,0,0,7.513454358676341e-07,1.339999849730913,0.0,7.513454358676341e-07,0.0
313,0,313,6.939600027123572,3.0,1.3399998572443672,0.0,7.137781643518082e-07,0.0,7.137781643518082e-07,0.0,0,0,0,0,7.137781643518082e-07,1.3399998572443672,0.0,7.137781643518082e-07,0.0
314,0,314,6.953000025767394,3.0,1.339999864382149,0.0,6.78089255856662e-07,0.0,6.78089255856662e-07,0.0,0,0,0,0,6.78089255856662e-07,1.339999864382149,0.0,6.78089255856662e-07,0.0
315,0,315,6.966400024479024,3.0,1.3399998711630414,0.0,6.441847932858735e-07,0.0,6.441847932858735e-07,0.0,0,0,0,0,6.441847932858735e-07,1.3399998711630414,0.0,6.441847932858735e-07,0.0
316,0,316,6.979800023255073,3.0,1.3399998776048894,0.0,6.119755535660687e-07,0.0,6.119755535660687e-07,0.0,0,0,0,0,6.119755535660687e-07,1.3399998776048894,0.0,6.119755535660687e-07,0.0
317,0,317,6.99320002209232,3.0,1.339999883724645,0.0,5.813767756102095e-07,0.0,5.813767756102095e-07,0.0,0,0,0,0,5.813767756102095e-07,1.339999883724645,0.0,5.813767756102095e-07,0.0
318,0,318,7.006600020987704,3.0,1.3399998895384126,0.0,5.523079371627659e-07,0.0,5.523079371627659e-07,0.0,0,0,0,0,5.523079371627659e-07,1.3399998895384126,0.0,5.523079371627659e-07,0.0
319,0,319,7.020000019938319,3.0,1.339999895061492,0.0,5.246925405266722e-07,0.0,5.246925405266722e-07,0.0,0,0,0,0,5.246925405266722e-07,1.339999895061492,0.0,5.246925405266722e-07,0.0
320,0,320,7.033400018941403,3.0,1.3399999003084173,0.0,4.984579138334055e-07,0.0,4.984579138334055e-07,0.0,0,0,0,0,4.984579138334055e-07,1.3399999003084173,0.0,4.984579138334055e-07,0.0
321,0,321,7.046800017994333,3.0,1.3399999052929965,0.0,4.735350178641795e-07,0.0,4.735350178641795e-07,0.0,0,0,0,0,4.735350178641795e-07,1.3399999052929965,0.0,4.735350178641795e-07,0.0
322,0,322,7.060200017094616,3.0,1.3399999100283466,0.0,4.4985826730403744e-07,0.0,4.4985826730403744e-07,0.0,0,0,0,0,4.4985826730403744e-07,1.3399999100283466,0.0,4.4985826730403744e-07,0.0
323,0,323,7.073600016239886,3.0,1.3399999145269292,0.0,4.273653542163913e-07,0.0,4.273653542163913e-07,0.0,0,0,0,0,4.273653542163913e-07,1.3399999145269292,0.0,4.273653542163913e-07,0.0
324,0,324,7.087000015427892,3.0,1.339999918800583,0.0,4.0599708595046025e-07,0.0,4.0599708595046025e-07,0.0,0,0,0,0,4.0599708595046025e-07,1.339999918800583,0.0,4.0599708595046025e-07,0.0
325,0,325,7.100400014656497,3.0,1.3399999228605537,0.0,3.85697231930493e-07,0.0,3.85697231930493e-07,0.0,0,0,0,0,3.85697231930493e-07,1.3399999228605537,0.0,3.85697231930493e-07,0.0
326,0,326,7.113800013923672,3.0,1.339999926717526,0.0,3.6641237044499064e-07,0.0,3.6641237044499064e-07,0.0,0,0,0,0,3.6641237044499064e-07,1.339999926717526,0.0,3.6641237044499064e-07,0.0
327,0,327,7.127200013227489,3.0,1.3399999303816497,0.0,3.4809175208927456e-07,0.0,3.4809175208927456e-07,0.0,0,0,0,0,3.4809175208927456e-07,1.3399999303816497,0.0,3.4809175208927456e-07,0.0
328,0,328,7.140600012566114,3.0,1.3399999338625672,0.0,3.306871643182774e-07,0.0,3.306871643182774e-07,0.0,0,0,0,0,3.306871643182774e-07,1.3399999338625672,0.0,3.306871643182774e-07,0.0
329,0,329,7.154000011937809,3.0,1.3399999371694389,0.0,3.141528059913412e-07,0.0,3.141528059913412e-07,0.0,0,0,0,0,3.141528059913412e-07,1.3399999371694389,0.0,3.141528059913412e-07,0.0
330,0,330,7.167400011340918,3.0,1.339999940310967,0.0,2.9844516524768494e-07,0.0,2.9844516524768494e-07,0.0,0,0,0,0,2.9844516524768494e-07,1.339999940310967,0.0,2.9844516524768494e-07,0.0
331,0,331,7.180800010773872,3.0,1.3399999432954186,0.0,2.8352290737387875e-07,0.0,2.8352290737387875e-07,0.0,0,0,0,0,2.8352290737387875e-07,1.3399999432954186,0.0,2.8352290737387875e-07,0.0
332,0,332,7.194200010235178,3.0,1.3399999461306478,0.0,2.693467615610956e-07,0.0,2.693467615610956e-07,0.0,0,0,0,0,2.693467615610956e-07,1.3399999461306478,0.0,2.693467615610956e-07,0.0
333,0,333,7.20760000972342,3.0,1.3399999488241154,0.0,2.5587942320548507e-07,0.0,2.5587942320548507e-07,0.0,0,0,0,0,2.5587942320548507e-07,1.3399999488241154,0.0,2.5587942320548507e-07,0.0
334,0,334,7.221000009237248,3.0,1.3399999513829097,0.0,2.4308545176765506e-07,0.0,2.4308545176765506e-07,0.0,0,0,0,0,2.4308545176765506e-07,1.3399999513829097,0.0,2.4308545176765506e-07,0.0
335,0,335,7.234400008775386,3.0,1.3399999538137641,0.0,2.3093117973438382e-07,0.0,2.3093117973438382e-07,0.0,0,0,0,0,2.3093117973438382e-07,1.3399999538137641,0.0,2.3093117973438382e-07,0.0
336,0,336,7.2478000083366165,3.0,1.339999956123076,0.0,2.1938462047010887e-07,0.0,2.1938462047010887e-07,0.0,0,0,0,0,2.1938462047010887e-07,1.339999956123076,0.0,2.1938462047010887e-07,0.0
337,0,337,7.261200007919785,3.0,1.3399999583169222,0.0,2.0841538939109228e-07,0.0,2.0841538939109228e-07,0.0,0,0,0,0,2.0841538939109228e-07,1.3399999583169222,0.0,2.0841538939109228e-07,0.0
338,0,338,7.274600007523796,3.0,1.3399999604010762,0.0,1.9799461958847075e-07,0.0,1.9799461958847075e-07,0.0,0,0,0,0,1.9799461958847075e-07,1.3399999604010762,0.0,1.9799461958847075e-07,0.0
339,0,339,7.288000007147606,3.0,1.3399999623810224,0.0,1.8809488855353607e-07,0.0,1.8809488855353607e-07,0.0,0,0,0,0,1.8809488855353607e-07,1.3399999623810224,0.0,1.8809488855353607e-07,0.0
340,0,340,7.301400006790226,3.0,1.3399999642619713,0.0,1.7869014379279236e-07,0.0,1.7869014379279236e-07,0.0,0,0,0,0,1.7869014379279236e-07,1.3399999642619713,0.0,1.7869014379279236e-07,0.0
341,0,341,7.314800006450715,3.0,1.3399999660488728,0.0,1.6975563621457468e-07,0.0,1.6975563621457468e-07,0.0,0,0,0,0,1.6975563621457468e-07,1.3399999660488728,0.0,1.6975563621457468e-07,0.0
342,0,342,7.328200006128179,3.0,1.3399999677464292,0.0,1.6126785462589055e-07,0.0,1.6126785462589055e-07,0.0,0,0,0,0,1.6126785462589055e-07,1.3399999677464292,0.0,1.6126785462589055e-07,0.0
343,0,343,7.341600005821769,3.0,1.3399999693591078,0.0,1.532044613394845e-07,0.0,1.532044613394845e-07,0.0,0,0,0,0,1.532044613394845e-07,1.3399999693591078,0.0,1.532044613394845e-07,0.0
344,0,344,7.355000005530681,3.0,1.3399999708911525,0.0,1.4554423777290992e-07,0.0,1.4554423777290992e-07,0.0,0,0,0,0,1.4554423777290992e-07,1.3399999708911525,0.0,1.4554423777290992e-07,0.0
345,0,345,7.368400005254147,3.0,1.339999972346595,0.0,1.3826702560670867e-07,0.0,1.3826702560670867e-07,0.0,0,0,0,0,1.3826702560670867e-07,1.339999972346595,0.0,1.3826702560670867e-07,0.0
346,0,346,7.381800004991439,3.0,1.3399999737292652,0.0,1.31353674603929e-07,0.0,1.31353674603929e-07,0.0,0,0,0,0,1.31353674603929e-07,1.3399999737292652,0.0,1.31353674603929e-07,0.0
347,0,347,7.395200004741867,3.0,1.339999975042802,0.0,1.2478599042964333e-07,0.0,1.2478599042964333e-07,0.0,0,0,0,0,1.2478599042964333e-07,1.339999975042802,0.0,1.2478599042964333e-07,0.0
348,0,348,7.408600004504774,3.0,1.3399999762906618,0.0,1.1854669135225038e-07,0.0,1.1854669135225038e-07,0.0,0,0,0,0,1.1854669135225038e-07,1.3399999762906618,0.0,1.1854669135225038e-07,0.0
349,0,349,7.4220000042795355,3.0,1.3399999774761286,0.0,1.1261935717321592e-07,0.0,1.1261935717321592e-07,0.0,0,0,0,0,1.1261935717321592e-07,1.3399999774761286,0.0,1.1261935717321592e-07,0.0
350,0,350,7.435400004065559,3.0,1.3399999786023222,0.0,1.0698838925904397e-07,0.0,1.0698838925904397e-07,0.0,0,0,0,0,1.0698838925904397e-07,1.3399999786023222,0.0,1.0698838925904397e-07,0.0
351,0,351,7.4488000038622815,3.0,1.3399999796722062,0.0,1.0163896946302486e-07,0.0,1.0163896946302486e-07,0.0,0,0,0,0,1.0163896946302486e-07,1.3399999796722062,0.0,1.0163896946302486e-07,0.0
352,0,352,7.462200003669167,3.0,1.3399999806885958,0.0,9.655702126742938e-08,0.0,9.655702126742938e-08,0.0,0,0,0,0,9.655702126742938e-08,1.3399999806885958,0.0,9.655702126742938e-08,0.0
353,0,353,7.475600003485709,3.0,1.3399999816541661,0.0,9.172916981547985e-08,0.0,9.172916981547985e-08,0.0,0,0,0,0,9.172916981547985e-08,1.3399999816541661,0.0,9.172916981547985e-08,0.0
354,0,354,7.489000003311423,3.0,1.339999982571458,0.0,8.71427108251055e-08,0.0,8.71427108251055e-08,0.0,0,0,0,0,8.71427108251055e-08,1.339999982571458,0.0,8.71427108251055e-08,0.0
355,0,355,7.502400003145852,3.0,1.339999983442885,0.0,8.278557506180562e-08,0.0,8.278557506180562e-08,0.0,0,0,0,0,8.278557506180562e-08,1.339999983442885,0.0,8.278557506180562e-08,0.0
356,0,356,7.515800002988559,3.0,1.3399999842707409,0.0,7.864629614218188e-08,0.0,7.864629614218188e-08,0.0,0,0,0,0,7.864629614218188e-08,1.3399999842707409,0.0,7.864629614218188e-08,0.0
357,0,357,7.529200002839131,3.0,1.3399999850572037,0.0,7.47139816681397e-08,0.0,7.47139816681397e-08,0.0,0,0,0,0,7.47139816681397e-08,1.3399999850572037,0.0,7.47139816681397e-08,0.0
358,0,358,7.542600002697174,3.0,1.3399999858043437,0.0,7.09782821406435e-08,0.0,7.09782821406435e-08,0.0,0,0,0,0,7.09782821406435e-08,1.3399999858043437,0.0,7.09782821406435e-08,0.0
359,0,359,7.556000002562316,3.0,1.3399999865141266,0.0,6.742936764503327e-08,0.0,6.742936764503327e-08,0.0,0,0,0,0,6.742936764503327e-08,1.3399999865141266,0.0,6.742936764503327e-08,0.0
360,0,360,7.5694000024342,3.0,1.3399999871884203,0.0,6.405789898522585e-08,0.0,6.405789898522585e-08,0.0,0,0,0,0,6.405789898522585e-08,1.3399999871884203,0.0,6.405789898522585e-08,0.0
361,0,361,7.58280000231249,3.0,1.3399999878289992,0.0,6.085500436903146e-08,0.0,6.085500436903146e-08,0.0,0,0,0,0,6.085500436903146e-08,1.3399999878289992,0.0,6.085500436903146e-08,0.0
362,0,362,7.596200002196866,3.0,1.3399999884375493,0.0,5.781225387302413e-08,0.0,5.781225387302413e-08,0.0,0,0,0,0,5.781225387302413e-08,1.3399999884375493,0.0,5.781225387302413e-08,0.0
363,0,363,7.609600002087023,3.0,1.3399999890156717,0.0,5.492164167897329e-08,0.0,5.492164167897329e-08,0.0,0,0,0,0,5.492164167897329e-08,1.3399999890156717,0.0,5.492164167897329e-08,0.0
364,0,364,7.623000001982672,3.0,1.3399999895648882,0.0,5.217555942849117e-08,0.0,5.217555942849117e-08,0.0,0,0,0,0,5.217555942849117e-08,1.3399999895648882,0.0,5.217555942849117e-08,0.0
365,0,365,7.636400001883539,3.0,1.3399999900866437,0.0,4.956678179013352e-08,0.0,4.956678179013352e-08,0.0,0,0,0,0,4.956678179013352e-08,1.3399999900866437,0.0,4.956678179013352e-08,0.0
366,0,366,7.6498000017893615,3.0,1.3399999905823115,0.0,4.708844314471605e-08,0.0,4.708844314471605e-08,0.0,0,0,0,0,4.708844314471605e-08,1.3399999905823115,0.0,4.708844314471605e-08,0.0
367,0,367,7.663200001699893,3.0,1.339999991053196,0.0,4.47340209319691e-08,0.0,4.47340209319691e-08,0.0,0,0,0,0,4.47340209319691e-08,1.339999991053196,0.0,4.47340209319691e-08,0.0
368,0,368,7.676600001614899,3.0,1.339999991500536,0.0,4.249732010741525e-08,0.0,4.249732010741525e-08,0.0,0,0,0,0,4.249732010741525e-08,1.339999991500536,0.0,4.249732010741525e-08,0.0
369,0,369,7.690000001534154,3.0,1.3399999919255092,0.0,4.037245426857794e-08,0.0,4.037245426857794e-08,0.0,0,0,0,0,4.037245426857794e-08,1.3399999919255092,0.0,4.037245426857794e-08,0.0
370,0,370,7.703400001457446,3.0,1.3399999923292338,0.0,3.8353831222082135e-08,0.0,3.8353831222082135e-08,0.0,0,0,0,0,3.8353831222082135e-08,1.3399999923292338,0.0,3.8353831222082135e-08,0.0
371,0,371,7.7168000013845734,3.0,1.3399999927127721,0.0,3.643613966097803e-08,0.0,3.643613966097803e-08,0.0,0,0,0,0,3.643613966097803e-08,1.3399999927127721,0.0,3.643613966097803e-08,0.0
372,0,372,7.730200001315345,3.0,1.3399999930771336,0.0,3.4614332511395673e-08,0.0,3.4614332511395673e-08,0.0,0,0,0,0,3.4614332511395673e-08,1.3399999930771336,0.0,3.4614332511395673e-08,0.0
373,0,373,7.743600001249578,3.0,1.339999993423277,0.0,3.288361583031474e-08,0.0,3.288361583031474e-08,0.0,0,0,0,0,3.288361583031474e-08,1.339999993423277,0.0,3.288361583031474e-08,0.0
374,0,374,7.757000001187099,3.0,1.339999993752113,0.0,3.123943548288821e-08,0.0,3.123943548288821e-08,0.0,0,0,0,0,3.123943548288821e-08,1.339999993752113,0.0,3.123943548288821e-08,0.0
375,0,375,7.770400001127744,3.0,1.3399999940645073,0.0,2.9677463819766103e-08,0.0,2.9677463819766103e-08,0.0,0,0,0,0,2.9677463819766103e-08,1.3399999940645073,0.0,2.9677463819766103e-08,0.0
376,0,376,7.783800001071357,3.0,1.339999994361282,0.0,2.8193590795311252e-08,0.0,2.8193590795311252e-08,0.0,0,0,0,0,2.8193590795311252e-08,1.339999994361282,0.0,2.8193590795311252e-08,0.0
377,0,377,7.797200001017789,3.0,1.3399999946432177,0.0,2.678391175514605e-08,0.0,2.678391175514605e-08,0.0,0,0,0,0,2.678391175514605e-08,1.3399999946432177,0.0,2.678391175514605e-08,0.0
378,0,378,7.810600000966899,3.0,1.3399999949110568,0.0,2.54447163339222e-08,0.0,2.54447163339222e-08,0.0,0,0,0,0,2.54447163339222e-08,1.3399999949110568,0.0,2.54447163339222e-08,0.0
379,0,379,7.824000000918555,3.0,1.339999995165504,0.0,2.4172480683759545e-08,0.0,2.4172480683759545e-08,0.0,0,0,0,0,2.4172480683759545e-08,1.339999995165504,0.0,2.4172480683759545e-08,0.0
380,0,380,7.837400000872627,3.0,1.3399999954072288,0.0,2.2963856372015812e-08,0.0,2.2963856372015812e-08,0.0,0,0,0,0,2.2963856372015812e-08,1.3399999954072288,0.0,2.2963856372015812e-08,0.0
381,0,381,7.850800000828996,3.0,1.3399999956368673,0.0,2.1815663719948475e-08,0.0,2.1815663719948475e-08,0.0,0,0,0,0,2.1815663719948475e-08,1.3399999956368673,0.0,2.1815663719948475e-08,0.0
382,0,382,7.864200000787546,3.0,1.339999995855024,0.0,2.0724880700484505e-08,0.0,2.0724880700484505e-08,0.0,0,0,0,0,2.0724880700484505e-08,1.339999995855024,0.0,2.0724880700484505e-08,0.0
383,0,383,7.877600000748169,3.0,1.3399999960622728,0.0,1.968863627688222e-08,0.0,1.968863627688222e-08,0.0,0,0,0,0,1.968863627688222e-08,1.3399999960622728,0.0,1.968863627688222e-08,0.0
384,0,384,7.89100000071076,3.0,1.339999996259159,0.0,1.870420485161617e-08,0.0,1.870420485161617e-08,0.0,0,0,0,0,1.870420485161617e-08,1.339999996259159,0.0,1.870420485161617e-08,0.0
385,0,385,7.904400000675222,3.0,1.3399999964462013,0.0,1.7768994053923848e-08,0.0,1.7768994053923848e-08,0.0,0,0,0,0,1.7768994053923848e-08,1.3399999964462013,0.0,1.7768994053923848e-08,0.0
386,0,386,7.917800000641462,3.0,1.3399999966238911,0.0,1.6880544739805714e-08,0.0,1.6880544739805714e-08,0.0,0,0,0,0,1.6880544739805714e-08,1.3399999966238911,0.0,1.6880544739805714e-08,0.0
387,0,387,7.931200000609389,3.0,1.3399999967926965,0.0,1.6036517669348882e-08,0.0,1.6036517669348882e-08,0.0,0,0,0,0,1.6036517669348882e-08,1.3399999967926965,0.0,1.6036517669348882e-08,0.0
388,0,388,7.9446000005789195,3.0,1.3399999969530618,0.0,1.5234691286281077e-08,0.0,1.5234691286281077e-08,0.0,0,0,0,0,1.5234691286281077e-08,1.3399999969530618,0.0,1.5234691286281077e-08,0.0
389,0,389,7.958000000549974,3.0,1.3399999971054086,0.0,1.4472957277078535e-08,0.0,1.4472957277078535e-08,0.0,0,0,0,0,1.4472957277078535e-08,1.3399999971054086,0.0,1.4472957277078535e-08,0.0
390,0,390,7.9714000005224745,3.0,1.3399999972501382,0.0,1.374930946873576e-08,0.0,1.374930946873576e-08,0.0,0,0,0,0,1.374930946873576e-08,1.3399999972501382,0.0,1.374930946873576e-08,0.0
391,0,391,7.984800000496351,3.0,1.3399999973876313,0.0,1.3061843828765518e-08,0.0,1.3061843828765518e-08,0.0,0,0,0,0,1.3061843828765518e-08,1.3399999973876313,0.0,1.3061843828765518e-08,0.0
392,0,392,7.998200000471534,3.0,1.3399999975182497,0.0,1.2408751803860696e-08,0.0,1.2408751803860696e-08,0.0,0,0,0,0,1.2408751803860696e-08,1.3399999975182497,0.0,1.2408751803860696e-08,0.0
393,0,393,8.011600000447958,3.0,1.3399999976423373,0.0,1.1788313658556149e-08,0.0,1.1788313658556149e-08,0.0,0,0,0,0,1.1788313658556149e-08,1.3399999976423373,0.0,1.1788313658556149e-08,0.0
394,0,394,8.02500000042556,3.0,1.3399999977602204,0.0,1.1198898475228702e-08,0.0,1.1198898475228702e-08,0.0,0,0,0,0,1.1198898475228702e-08,1.3399999977602204,0.0,1.1198898475228702e-08,0.0
395,0,395,8.038400000404282,3.0,1.3399999978722095,0.0,1.0638953051866906e-08,0.0,1.0638953051866906e-08,0.0,0,0,0,0,1.0638953051866906e-08,1.3399999978722095,0.0,1.0638953051866906e-08,0.0
396,0,396,8.051800000384068,3.0,1.339999997978599,0.0,1.0107005232740107e-08,0.0,1.0107005232740107e-08,0.0,0,0,0,0,1.0107005232740107e-08,1.339999997978599,0.0,1.0107005232740107e-08,0.0
397,0,397,8.065200000364865,3.0,1.339999998079669,0.0,9.601655026614253e-09,0.0,9.601655026614253e-09,0.0,0,0,0,0,9.601655026614253e-09,1.339999998079669,0.0,9.601655026614253e-09,0.0
398,0,398,8.078600000346622,3.0,1.3399999981756856,0.0,9.121572386305843e-09,0.0,9.121572386305843e-09,0.0,0,0,0,0,9.121572386305843e-09,1.3399999981756856,0.0,9.121572386305843e-09,0.0
399,0,399,8.092000000329291,3.0,1.3399999982669013,0.0,8.665493878012853e-09,0.0,8.665493878012853e-09,0.0,0,0,0,0,8.665493878012853e-09,1.3399999982669013,0.0,8.665493878012853e-09,0.0
