scenario,avrgs,source,type,vars,stds,phase
D,1.45,exp,major,0.15,0.39,1
C,1.47,exp,major,0.16,0.40,1
B,1.53,exp,major,0.14,0.37,1
A,1.42,exp,major,0.13,0.36,1
D,1.30,exp,major,0.21,0.46,2
C,1.30,exp,major,0.20,0.45,2
B,1.36,exp,major,0.17,0.41,2
A,,exp,major,,,2
D,1.27,exp,major,0.21,0.46,3
C,1.30,exp,major,0.21,0.46,3
B,1.31,exp,major,0.19,0.44,3
A,,exp,major,,,3
D,1.31,exp,major,0.11,0.33,4
C,1.35,exp,major,0.16,0.40,4
B,1.31,exp,major,0.17,0.41,4
A,1.35,exp,major,0.21,0.46,4
D,1.41,exp,major,0.11,0.33,5
C,1.38,exp,major,0.13,0.36,5
B,1.37,exp,major,0.15,0.39,5
A,,exp,major,,,5
D,1.50,exp,minor,0.15,0.39,1
C,1.52,exp,minor,0.17,0.41,1
B,1.70,exp,minor,0.16,0.40,1
A,,exp,minor,,,1
D,1.39,exp,minor,0.18,0.42,2
C,1.37,exp,minor,0.19,0.44,2
B,1.51,exp,minor,0.22,0.47,2
A,,exp,minor,,,2
D,1.34,exp,minor,0.20,0.45,3
C,1.37,exp,minor,0.18,0.42,3
B,1.37,exp,minor,0.27,0.52,3
A,,exp,minor,,,3
D,1.37,exp,minor,0.19,0.44,4
C,1.41,exp,minor,0.17,0.41,4
B,1.36,exp,minor,0.24,0.49,4
A,,exp,minor,,,4
D,1.51,exp,minor,0.13,0.36,5
C,1.55,exp,minor,0.11,0.33,5
B,1.52,exp,minor,0.12,0.35,5
A,,exp,minor,,,5