scenario,avrgs,source,type,vars,stds,phase
D,0.13,exp,major,0.16,0.40,1
C,0.12,exp,major,0.15,0.39,1
B,0.11,exp,major,0.14,0.37,1
A,0.11,exp,major,0.14,0.37,1
D,0.15,exp,major,0.20,0.45,2
C,0.13,exp,major,0.18,0.42,2
B,0.13,exp,major,0.17,0.41,2
A,,exp,major,,,2
D,0.12,exp,major,0.16,0.40,3
C,0.13,exp,major,0.17,0.41,3
B,0.14,exp,major,0.19,0.44,3
A,,exp,major,,,3
D,0.14,exp,major,0.18,0.42,4
C,0.14,exp,major,0.18,0.42,4
B,0.14,exp,major,0.18,0.42,4
A,0.11,exp,major,0.14,0.37,4
D,0.15,exp,major,0.20,0.45,5
C,0.13,exp,major,0.16,0.40,5
B,0.12,exp,major,0.16,0.40,5
A,,exp,major,,,5
D,0.13,exp,minor,0.16,0.40,1
C,0.14,exp,minor,0.18,0.42,1
B,0.14,exp,minor,0.16,0.40,1
A,,exp,minor,,,1
D,0.15,exp,minor,0.19,0.44,2
C,0.16,exp,minor,0.20,0.45,2
B,0.16,exp,minor,0.20,0.45,2
A,,exp,minor,,,2
D,0.13,exp,minor,0.16,0.40,3
C,0.14,exp,minor,0.18,0.42,3
B,0.16,exp,minor,0.2,0.45,3
A,,exp,minor,,,3
D,0.13,exp,minor,0.17,0.41,4
C,0.14,exp,minor,0.17,0.41,4
B,0.15,exp,minor,0.19,0.44,4
A,,exp,minor,,,4
D,0.14,exp,minor,0.18,0.42,5
C,0.15,exp,minor,0.18,0.42,5
B,0.14,exp,minor,0.16,0.40,5
A,,exp,minor,,,5